Ильин
Юрий
8 (959) 836-63-73
Быков
Тимофей
8 (915) 130-46-29
Кириллов
Захар
8 (945) 691-15-11
Демьянченко
Галина
8 (900) 773-93-19
Муравьев
Валентин
8 (933) 767-82-84
Яковлев
Арнольд
8 (911) 233-58-80
Орлов
Константин
8 (906) 356-90-31
Пономарёва
Дарья
8 (952) 722-64-63
Смирнов
Серафим
8 (948) 557-36-38
Ильин
Иларион
8 (979) 744-52-18