<?xml version="1.0" encoding="UTF-8"?>

<svg version="1.2" baseProfile="tiny" width="210mm" height="297mm" viewBox="0 0 21000 29700" preserveAspectRatio="xMidYMid" fill-rule="evenodd" clip-path="url(#presentation_clip_path)" stroke-width="28.222" stroke-linejoin="round" xmlns="http://www.w3.org/2000/svg" xmlns:ooo="http://xml.openoffice.org/svg/export" xmlns:xlink="http://www.w3.org/1999/xlink" xml:space="preserve">
 <defs class="ClipPathGroup">
  <clipPath id="presentation_clip_path" clipPathUnits="userSpaceOnUse">
   <rect x="0" y="0" width="21000" height="29700"/>
  </clipPath>
 </defs>
 <defs>
  <font id="EmbeddedFont_1" horiz-adv-x="2048">
   <font-face font-family="Liberation Sans embedded" units-per-em="2048" font-weight="normal" font-style="normal" ascent="1852" descent="423"/>
   <missing-glyph horiz-adv-x="2048" d="M 0,0 L 2047,0 2047,2047 0,2047 0,0 Z"/>
   <glyph unicode="9" horiz-adv-x="980" d="M 1042,733 C 1042,608 1030,498 1007,404 983,309 949,231 905,168 861,105 808,58 745,27 682,-4 611,-20 532,-20 478,-20 429,-14 386,-4 343,8 304,25 270,48 236,71 207,102 183,139 159,176 140,221 125,274 L 297,301 C 316,240 345,196 385,168 424,139 474,125 535,125 584,125 628,137 669,160 709,183 743,217 772,263 800,309 822,367 838,436 854,505 863,587 864,680 850,649 831,621 807,596 782,571 755,551 724,534 693,517 659,504 623,495 587,486 551,481 514,481 450,481 392,493 341,516 289,539 245,571 209,612 173,653 145,703 126,762 106,820 96,885 96,956 96,1029 107,1094 128,1153 149,1212 179,1262 219,1303 259,1344 308,1375 367,1397 425,1419 491,1430 565,1430 722,1430 840,1372 921,1256 1002,1140 1042,966 1042,733 Z M 846,907 C 846,959 840,1008 828,1054 815,1100 797,1140 773,1174 748,1208 718,1235 683,1255 647,1274 606,1284 559,1284 516,1284 477,1276 442,1261 407,1246 378,1224 354,1196 330,1167 312,1133 299,1092 286,1051 279,1006 279,956 279,909 285,865 297,824 308,783 326,748 349,719 372,689 401,666 436,649 471,632 511,623 557,623 590,623 624,629 659,640 693,651 724,669 752,692 779,715 802,745 820,781 837,816 846,858 846,907 Z"/>
   <glyph unicode="8" horiz-adv-x="980" d="M 1050,393 C 1050,333 1041,278 1022,228 1003,177 974,134 935,97 896,60 846,32 785,11 724,-10 653,-20 570,-20 487,-20 416,-10 356,11 295,32 245,60 206,97 166,133 137,176 118,227 99,277 89,332 89,391 89,442 97,488 113,528 128,568 149,603 176,632 202,661 232,684 266,702 299,719 334,731 370,737 L 370,741 C 331,750 296,765 265,786 234,807 208,832 187,861 166,890 150,922 139,957 128,992 122,1030 122,1069 122,1118 132,1165 151,1209 170,1252 198,1291 235,1324 272,1357 319,1383 374,1402 429,1421 493,1430 566,1430 643,1430 709,1420 766,1401 822,1382 869,1356 906,1323 943,1290 970,1251 988,1207 1006,1163 1015,1116 1015,1067 1015,1028 1010,991 999,956 988,921 972,889 951,860 930,831 904,806 873,786 842,765 806,751 765,743 L 765,739 C 806,732 843,720 878,703 913,685 943,662 968,633 993,604 1013,569 1028,529 1043,489 1050,444 1050,393 Z M 828,1057 C 828,1092 824,1125 815,1154 806,1183 791,1209 770,1230 749,1251 722,1267 689,1279 656,1290 615,1296 566,1296 519,1296 479,1290 446,1279 413,1267 387,1251 366,1230 345,1209 329,1183 320,1154 311,1125 306,1092 306,1057 306,1029 310,1000 317,971 324,942 338,915 357,891 376,867 403,847 437,832 471,817 515,809 568,809 625,809 670,817 705,832 739,847 765,867 784,891 802,915 814,942 820,971 825,1000 828,1029 828,1057 Z M 863,410 C 863,444 858,477 849,509 840,540 824,568 801,593 778,617 748,637 710,652 671,667 623,674 566,674 513,674 469,667 432,652 395,637 365,617 342,592 319,567 302,539 291,507 280,474 275,441 275,406 275,363 280,323 291,288 302,252 319,221 342,196 365,170 396,150 434,136 472,122 518,115 572,115 627,115 673,122 710,136 747,150 777,170 800,196 823,221 839,252 849,289 858,325 863,365 863,410 Z"/>
   <glyph unicode="7" horiz-adv-x="954" d="M 1036,1263 C 965,1155 900,1051 841,952 782,852 731,752 688,651 645,550 612,446 589,340 565,233 553,120 553,0 L 365,0 C 365,113 378,223 405,332 432,440 468,546 513,651 558,755 611,857 671,958 731,1059 795,1158 862,1256 L 105,1256 105,1409 1036,1409 1036,1263 Z"/>
   <glyph unicode="6" horiz-adv-x="980" d="M 1049,461 C 1049,390 1039,326 1020,267 1000,208 971,157 933,115 894,72 847,39 790,16 733,-8 668,-20 594,-20 512,-20 440,-4 379,27 318,58 267,104 226,163 185,222 155,294 135,380 114,465 104,563 104,672 104,797 116,907 139,1002 162,1097 195,1176 238,1239 281,1302 334,1350 397,1382 459,1414 529,1430 608,1430 656,1430 701,1425 743,1415 785,1405 823,1389 858,1367 892,1344 922,1315 948,1278 974,1241 995,1196 1010,1143 L 838,1112 C 819,1173 790,1217 749,1244 708,1271 660,1284 606,1284 557,1284 512,1272 472,1249 432,1226 398,1191 370,1145 342,1098 321,1040 306,970 291,900 283,818 283,725 316,786 362,832 421,864 480,895 548,911 625,911 689,911 747,901 799,880 851,859 896,830 933,791 970,752 998,704 1019,649 1039,593 1049,530 1049,461 Z M 866,453 C 866,502 860,546 848,585 836,624 818,658 794,686 770,713 740,735 705,750 670,765 629,772 582,772 549,772 516,767 483,758 450,748 420,732 393,711 366,689 344,660 327,625 310,590 301,547 301,496 301,444 308,396 321,351 334,306 354,266 379,233 404,200 434,173 469,154 504,135 544,125 588,125 631,125 670,133 705,148 739,163 768,184 792,213 816,241 834,275 847,316 860,357 866,402 866,453 Z"/>
   <glyph unicode="5" horiz-adv-x="980" d="M 1053,459 C 1053,388 1042,324 1021,265 1000,206 968,156 926,114 884,71 832,38 770,15 707,-8 635,-20 553,-20 479,-20 415,-11 360,6 305,23 258,47 220,78 182,108 152,143 130,184 107,225 91,268 82,315 L 264,336 C 271,309 282,284 295,259 308,234 327,211 350,192 373,172 401,156 435,145 468,133 509,127 557,127 604,127 646,134 684,149 722,163 755,184 782,212 809,240 829,274 844,315 859,356 866,402 866,455 866,498 859,538 845,575 831,611 811,642 785,669 759,695 727,715 690,730 652,745 609,752 561,752 531,752 503,749 478,744 453,739 429,731 408,722 386,713 366,702 349,690 331,677 314,664 299,651 L 123,651 170,1409 971,1409 971,1256 334,1256 307,809 C 339,834 379,855 427,873 475,890 532,899 598,899 668,899 731,888 787,867 843,846 891,816 930,777 969,738 1000,691 1021,637 1042,583 1053,524 1053,459 Z"/>
   <glyph unicode="4" horiz-adv-x="1060" d="M 881,319 L 881,0 711,0 711,319 47,319 47,459 692,1409 881,1409 881,461 1079,461 1079,319 881,319 Z M 711,1206 C 710,1203 706,1196 701,1187 696,1177 690,1166 683,1154 676,1142 670,1130 663,1118 656,1105 649,1095 644,1087 L 283,555 C 280,550 275,543 269,534 262,525 256,517 249,508 242,499 236,490 229,481 222,472 217,466 213,461 L 711,461 711,1206 Z"/>
   <glyph unicode="3" horiz-adv-x="1006" d="M 1049,389 C 1049,324 1039,267 1018,216 997,165 966,123 926,88 885,53 835,26 776,8 716,-11 648,-20 571,-20 484,-20 410,-9 351,13 291,34 242,63 203,99 164,134 135,175 116,221 97,266 84,313 78,362 L 264,379 C 269,342 279,308 294,277 308,246 327,220 352,198 377,176 407,159 443,147 479,135 522,129 571,129 662,129 733,151 785,196 836,241 862,307 862,395 862,447 851,489 828,521 805,552 776,577 742,595 707,612 670,624 630,630 589,636 552,639 518,639 L 416,639 416,795 514,795 C 548,795 583,799 620,806 657,813 690,825 721,844 751,862 776,887 796,918 815,949 825,989 825,1038 825,1113 803,1173 759,1217 714,1260 648,1282 561,1282 482,1282 418,1262 369,1221 320,1180 291,1123 283,1049 L 102,1063 C 109,1125 126,1179 153,1225 180,1271 214,1309 255,1340 296,1370 342,1393 395,1408 448,1423 504,1430 563,1430 642,1430 709,1420 766,1401 823,1381 869,1354 905,1321 941,1287 968,1247 985,1202 1002,1157 1010,1108 1010,1057 1010,1016 1004,977 993,941 982,905 964,873 940,844 916,815 886,791 849,770 812,749 767,734 715,723 L 715,719 C 772,713 821,700 863,681 905,661 940,636 967,607 994,578 1015,544 1029,507 1042,470 1049,430 1049,389 Z"/>
   <glyph unicode="2" horiz-adv-x="954" d="M 103,0 L 103,127 C 137,205 179,274 228,334 277,393 328,447 382,496 436,544 490,589 543,630 596,671 643,713 686,754 729,795 763,839 790,884 816,929 829,981 829,1038 829,1078 823,1113 811,1144 799,1174 782,1199 759,1220 736,1241 709,1256 678,1267 646,1277 611,1282 572,1282 536,1282 502,1277 471,1267 439,1257 411,1242 386,1222 361,1202 341,1177 326,1148 310,1118 300,1083 295,1044 L 111,1061 C 117,1112 131,1159 153,1204 175,1249 205,1288 244,1322 283,1355 329,1382 384,1401 438,1420 501,1430 572,1430 642,1430 704,1422 759,1405 814,1388 860,1364 898,1331 935,1298 964,1258 984,1210 1004,1162 1014,1107 1014,1044 1014,997 1006,952 989,909 972,866 949,826 921,787 892,748 859,711 822,675 785,639 746,604 705,570 664,535 623,501 582,468 541,434 502,400 466,366 429,332 397,298 368,263 339,228 317,191 301,153 L 1036,153 1036,0 103,0 Z"/>
   <glyph unicode="1" horiz-adv-x="927" d="M 156,0 L 156,153 515,153 515,1237 197,1010 197,1180 530,1409 696,1409 696,153 1039,153 1039,0 156,0 Z"/>
   <glyph unicode="0" horiz-adv-x="980" d="M 1059,705 C 1059,570 1046,456 1021,364 995,271 960,197 916,140 871,83 819,42 759,17 699,-8 635,-20 567,-20 498,-20 434,-8 375,17 316,42 264,82 221,139 177,196 143,270 118,363 93,455 80,569 80,705 80,847 93,965 118,1058 143,1151 177,1225 221,1280 265,1335 317,1374 377,1397 437,1419 502,1430 573,1430 640,1430 704,1419 763,1397 822,1374 873,1335 917,1280 961,1225 996,1151 1021,1058 1046,965 1059,847 1059,705 Z M 876,705 C 876,817 869,910 856,985 843,1059 823,1118 797,1163 771,1207 739,1238 702,1257 664,1275 621,1284 573,1284 522,1284 478,1275 439,1256 400,1237 368,1206 342,1162 315,1117 295,1058 282,984 269,909 262,816 262,705 262,597 269,506 283,432 296,358 316,299 343,254 369,209 401,176 439,157 477,137 520,127 569,127 616,127 659,137 697,157 735,176 767,209 794,254 820,299 840,358 855,432 869,506 876,597 876,705 Z"/>
  </font>
 </defs>
 <defs class="TextShapeIndex">
  <g ooo:slide="id1" ooo:id-list="id3 id4 id5 id6 id7 id8 id9 id10 id11 id12 id13 id14 id15 id16 id17 id18 id19 id20 id21 id22 id23 id24 id25 id26 id27 id28 id29 id30 id31"/>
 </defs>
 <defs class="EmbeddedBulletChars">
  <g id="bullet-char-template(57356)" transform="scale(0.00048828125,-0.00048828125)">
   <path d="M 580,1141 L 1163,571 580,0 -4,571 580,1141 Z"/>
  </g>
  <g id="bullet-char-template(57354)" transform="scale(0.00048828125,-0.00048828125)">
   <path d="M 8,1128 L 1137,1128 1137,0 8,0 8,1128 Z"/>
  </g>
  <g id="bullet-char-template(10146)" transform="scale(0.00048828125,-0.00048828125)">
   <path d="M 174,0 L 602,739 174,1481 1456,739 174,0 Z M 1358,739 L 309,1346 659,739 1358,739 Z"/>
  </g>
  <g id="bullet-char-template(10132)" transform="scale(0.00048828125,-0.00048828125)">
   <path d="M 2015,739 L 1276,0 717,0 1260,543 174,543 174,936 1260,936 717,1481 1274,1481 2015,739 Z"/>
  </g>
  <g id="bullet-char-template(10007)" transform="scale(0.00048828125,-0.00048828125)">
   <path d="M 0,-2 C -7,14 -16,27 -25,37 L 356,567 C 262,823 215,952 215,954 215,979 228,992 255,992 264,992 276,990 289,987 310,991 331,999 354,1012 L 381,999 492,748 772,1049 836,1024 860,1049 C 881,1039 901,1025 922,1006 886,937 835,863 770,784 769,783 710,716 594,584 L 774,223 C 774,196 753,168 711,139 L 727,119 C 717,90 699,76 672,76 641,76 570,178 457,381 L 164,-76 C 142,-110 111,-127 72,-127 30,-127 9,-110 8,-76 1,-67 -2,-52 -2,-32 -2,-23 -1,-13 0,-2 Z"/>
  </g>
  <g id="bullet-char-template(10004)" transform="scale(0.00048828125,-0.00048828125)">
   <path d="M 285,-33 C 182,-33 111,30 74,156 52,228 41,333 41,471 41,549 55,616 82,672 116,743 169,778 240,778 293,778 328,747 346,684 L 369,508 C 377,444 397,411 428,410 L 1163,1116 C 1174,1127 1196,1133 1229,1133 1271,1133 1292,1118 1292,1087 L 1292,965 C 1292,929 1282,901 1262,881 L 442,47 C 390,-6 338,-33 285,-33 Z"/>
  </g>
  <g id="bullet-char-template(9679)" transform="scale(0.00048828125,-0.00048828125)">
   <path d="M 813,0 C 632,0 489,54 383,161 276,268 223,411 223,592 223,773 276,916 383,1023 489,1130 632,1184 813,1184 992,1184 1136,1130 1245,1023 1353,916 1407,772 1407,592 1407,412 1353,268 1245,161 1136,54 992,0 813,0 Z"/>
  </g>
  <g id="bullet-char-template(8226)" transform="scale(0.00048828125,-0.00048828125)">
   <path d="M 346,457 C 273,457 209,483 155,535 101,586 74,649 74,723 74,796 101,859 155,911 209,963 273,989 346,989 419,989 480,963 531,910 582,859 608,796 608,723 608,648 583,586 532,535 482,483 420,457 346,457 Z"/>
  </g>
  <g id="bullet-char-template(8211)" transform="scale(0.00048828125,-0.00048828125)">
   <path d="M -4,459 L 1135,459 1135,606 -4,606 -4,459 Z"/>
  </g>
 </defs>
 <defs class="TextEmbeddedBitmaps"/>
 <g>
  <g id="id2" class="Master_Slide">
   <g id="bg-id2" class="Background"/>
   <g id="bo-id2" class="BackgroundObjects"/>
  </g>
 </g>
 <g class="SlideGroup">
  <g>
   <g id="id1" class="Slide" clip-path="url(#presentation_clip_path)">
    <g class="Page">
     <g class="com.sun.star.drawing.CustomShape">
      <g id="id3">
       <path fill="none" stroke="rgb(0,0,0)" d="M 10050,2600 L 8500,2600 8500,1200 11600,1200 11600,2600 10050,2600 Z"/>
       <text class="TextShape"><tspan class="TextParagraph" font-family="Liberation Sans, sans-serif" font-size="635px" font-weight="400"><tspan class="TextPosition" x="9875" y="2121"><tspan fill="rgb(0,0,0)" stroke="none">1</tspan></tspan></tspan></text>
      </g>
     </g>
     <g class="com.sun.star.drawing.CustomShape">
      <g id="id4">
       <path fill="none" stroke="rgb(0,0,0)" d="M 5800,7400 L 4900,7400 4900,6300 6700,6300 6700,7400 5800,7400 Z"/>
       <text class="TextShape"><tspan class="TextParagraph" font-family="Liberation Sans, sans-serif" font-size="635px" font-weight="400"><tspan class="TextPosition" x="5625" y="7071"><tspan fill="rgb(0,0,0)" stroke="none">4</tspan></tspan></tspan></text>
      </g>
     </g>
     <g class="com.sun.star.drawing.CustomShape">
      <g id="id5">
       <path fill="none" stroke="rgb(0,0,0)" d="M 4800,10200 L 4100,10200 4100,8900 5500,8900 5500,10200 4800,10200 Z"/>
       <text class="TextShape"><tspan class="TextParagraph" font-family="Liberation Sans, sans-serif" font-size="635px" font-weight="400"><tspan class="TextPosition" x="4625" y="9771"><tspan fill="rgb(0,0,0)" stroke="none">8</tspan></tspan></tspan></text>
      </g>
     </g>
     <g class="com.sun.star.drawing.CustomShape">
      <g id="id6">
       <path fill="none" stroke="rgb(0,0,0)" d="M 7850,5200 L 6600,5200 6600,3700 9100,3700 9100,5200 7850,5200 Z"/>
       <text class="TextShape"><tspan class="TextParagraph" font-family="Liberation Sans, sans-serif" font-size="635px" font-weight="400"><tspan class="TextPosition" x="7675" y="4671"><tspan fill="rgb(0,0,0)" stroke="none">2</tspan></tspan></tspan></text>
      </g>
     </g>
     <g class="com.sun.star.drawing.CustomShape">
      <g id="id7">
       <path fill="none" stroke="rgb(0,0,0)" d="M 8800,7400 L 7900,7400 7900,6300 9700,6300 9700,7400 8800,7400 Z"/>
       <text class="TextShape"><tspan class="TextParagraph" font-family="Liberation Sans, sans-serif" font-size="635px" font-weight="400"><tspan class="TextPosition" x="8625" y="7071"><tspan fill="rgb(0,0,0)" stroke="none">5</tspan></tspan></tspan></text>
      </g>
     </g>
     <g class="com.sun.star.drawing.CustomShape">
      <g id="id8">
       <path fill="none" stroke="rgb(0,0,0)" d="M 11800,7400 L 10900,7400 10900,6300 12700,6300 12700,7400 11800,7400 Z"/>
       <text class="TextShape"><tspan class="TextParagraph" font-family="Liberation Sans, sans-serif" font-size="635px" font-weight="400"><tspan class="TextPosition" x="11625" y="7071"><tspan fill="rgb(0,0,0)" stroke="none">6</tspan></tspan></tspan></text>
      </g>
     </g>
     <g class="com.sun.star.drawing.CustomShape">
      <g id="id9">
       <path fill="none" stroke="rgb(0,0,0)" d="M 15000,7400 L 14100,7400 14100,6300 15900,6300 15900,7400 15000,7400 Z"/>
       <text class="TextShape"><tspan class="TextParagraph" font-family="Liberation Sans, sans-serif" font-size="635px" font-weight="400"><tspan class="TextPosition" x="14825" y="7071"><tspan fill="rgb(0,0,0)" stroke="none">7</tspan></tspan></tspan></text>
      </g>
     </g>
     <g class="com.sun.star.drawing.CustomShape">
      <g id="id10">
       <path fill="none" stroke="rgb(0,0,0)" d="M 12050,5200 L 10800,5200 10800,3700 13300,3700 13300,5200 12050,5200 Z"/>
       <text class="TextShape"><tspan class="TextParagraph" font-family="Liberation Sans, sans-serif" font-size="635px" font-weight="400"><tspan class="TextPosition" x="11875" y="4671"><tspan fill="rgb(0,0,0)" stroke="none">3</tspan></tspan></tspan></text>
      </g>
     </g>
     <g class="com.sun.star.drawing.CustomShape">
      <g id="id11">
       <path fill="none" stroke="rgb(0,0,0)" d="M 6300,10200 L 5600,10200 5600,8900 7000,8900 7000,10200 6300,10200 Z"/>
       <text class="TextShape"><tspan class="TextParagraph" font-family="Liberation Sans, sans-serif" font-size="635px" font-weight="400"><tspan class="TextPosition" x="6125" y="9771"><tspan fill="rgb(0,0,0)" stroke="none">9</tspan></tspan></tspan></text>
      </g>
     </g>
     <g class="com.sun.star.drawing.CustomShape">
      <g id="id12">
       <path fill="none" stroke="rgb(0,0,0)" d="M 7800,10200 L 7100,10200 7100,8900 8500,8900 8500,10200 7800,10200 Z"/>
       <text class="TextShape"><tspan class="TextParagraph" font-family="Liberation Sans, sans-serif" font-size="635px" font-weight="400"><tspan class="TextPosition" x="7449" y="9771"><tspan fill="rgb(0,0,0)" stroke="none">10</tspan></tspan></tspan></text>
      </g>
     </g>
     <g class="com.sun.star.drawing.CustomShape">
      <g id="id13">
       <path fill="none" stroke="rgb(0,0,0)" d="M 9300,10200 L 8600,10200 8600,8900 10000,8900 10000,10200 9300,10200 Z"/>
       <text class="TextShape"><tspan class="TextParagraph" font-family="Liberation Sans, sans-serif" font-size="635px" font-weight="400"><tspan class="TextPosition" x="8949" y="9771"><tspan fill="rgb(0,0,0)" stroke="none">11</tspan></tspan></tspan></text>
      </g>
     </g>
     <g class="com.sun.star.drawing.CustomShape">
      <g id="id14">
       <path fill="none" stroke="rgb(0,0,0)" d="M 11200,10200 L 10500,10200 10500,8900 11900,8900 11900,10200 11200,10200 Z"/>
       <text class="TextShape"><tspan class="TextParagraph" font-family="Liberation Sans, sans-serif" font-size="635px" font-weight="400"><tspan class="TextPosition" x="10849" y="9771"><tspan fill="rgb(0,0,0)" stroke="none">12</tspan></tspan></tspan></text>
      </g>
     </g>
     <g class="com.sun.star.drawing.CustomShape">
      <g id="id15">
       <path fill="none" stroke="rgb(0,0,0)" d="M 12700,10200 L 12000,10200 12000,8900 13400,8900 13400,10200 12700,10200 Z"/>
       <text class="TextShape"><tspan class="TextParagraph" font-family="Liberation Sans, sans-serif" font-size="635px" font-weight="400"><tspan class="TextPosition" x="12349" y="9771"><tspan fill="rgb(0,0,0)" stroke="none">13</tspan></tspan></tspan></text>
      </g>
     </g>
     <g class="com.sun.star.drawing.CustomShape">
      <g id="id16">
       <path fill="none" stroke="rgb(0,0,0)" d="M 14200,10200 L 13500,10200 13500,8900 14900,8900 14900,10200 14200,10200 Z"/>
       <text class="TextShape"><tspan class="TextParagraph" font-family="Liberation Sans, sans-serif" font-size="635px" font-weight="400"><tspan class="TextPosition" x="13849" y="9771"><tspan fill="rgb(0,0,0)" stroke="none">14</tspan></tspan></tspan></text>
      </g>
     </g>
     <g class="com.sun.star.drawing.CustomShape">
      <g id="id17">
       <path fill="none" stroke="rgb(0,0,0)" d="M 15700,10200 L 15000,10200 15000,8900 16400,8900 16400,10200 15700,10200 Z"/>
       <text class="TextShape"><tspan class="TextParagraph" font-family="Liberation Sans, sans-serif" font-size="635px" font-weight="400"><tspan class="TextPosition" x="15349" y="9771"><tspan fill="rgb(0,0,0)" stroke="none">15</tspan></tspan></tspan></text>
      </g>
     </g>
     <g class="com.sun.star.drawing.ConnectorShape">
      <g id="id18">
       <path fill="none" stroke="rgb(0,0,0)" d="M 10050,2600 L 10050,3150 7850,3150 7850,3413"/>
       <path fill="rgb(0,0,0)" stroke="none" d="M 7850,3700 L 7950,3400 7750,3400 7850,3700 Z"/>
      </g>
     </g>
     <g class="com.sun.star.drawing.ConnectorShape">
      <g id="id19">
       <path fill="none" stroke="rgb(0,0,0)" d="M 10050,2600 L 10050,3150 12050,3150 12050,3413"/>
       <path fill="rgb(0,0,0)" stroke="none" d="M 12050,3700 L 12150,3400 11950,3400 12050,3700 Z"/>
      </g>
     </g>
     <g class="com.sun.star.drawing.ConnectorShape">
      <g id="id20">
       <path fill="none" stroke="rgb(0,0,0)" d="M 6600,4450 L 5800,4450 5800,6013"/>
       <path fill="rgb(0,0,0)" stroke="none" d="M 5800,6300 L 5900,6000 5700,6000 5800,6300 Z"/>
      </g>
     </g>
     <g class="com.sun.star.drawing.ConnectorShape">
      <g id="id21">
       <path fill="none" stroke="rgb(0,0,0)" d="M 9100,4450 L 9601,4450 9601,5750 8800,5750 8800,6013"/>
       <path fill="rgb(0,0,0)" stroke="none" d="M 8800,6300 L 8900,6000 8700,6000 8800,6300 Z"/>
      </g>
     </g>
     <g class="com.sun.star.drawing.ConnectorShape">
      <g id="id22">
       <path fill="none" stroke="rgb(0,0,0)" d="M 12050,5200 L 12050,5750 11800,5750 11800,6013"/>
       <path fill="rgb(0,0,0)" stroke="none" d="M 11800,6300 L 11900,6000 11700,6000 11800,6300 Z"/>
      </g>
     </g>
     <g class="com.sun.star.drawing.ConnectorShape">
      <g id="id23">
       <path fill="none" stroke="rgb(0,0,0)" d="M 12050,5200 L 12050,5750 15000,5750 15000,5870"/>
       <path fill="rgb(0,0,0)" stroke="none" d="M 15000,6300 L 15150,5850 14850,5850 15000,6300 Z"/>
      </g>
     </g>
     <g class="com.sun.star.drawing.ConnectorShape">
      <g id="id24">
       <path fill="none" stroke="rgb(0,0,0)" d="M 10900,6850 L 10399,6850 10399,8150 11200,8150 11200,8470"/>
       <path fill="rgb(0,0,0)" stroke="none" d="M 11200,8900 L 11350,8450 11050,8450 11200,8900 Z"/>
      </g>
     </g>
     <g class="com.sun.star.drawing.ConnectorShape">
      <g id="id25">
       <path fill="none" stroke="rgb(0,0,0)" d="M 12700,6850 L 13201,6850 13201,8150 12700,8150 12700,8470"/>
       <path fill="rgb(0,0,0)" stroke="none" d="M 12700,8900 L 12850,8450 12550,8450 12700,8900 Z"/>
      </g>
     </g>
     <g class="com.sun.star.drawing.ConnectorShape">
      <g id="id26">
       <path fill="none" stroke="rgb(0,0,0)" d="M 14100,6850 L 13599,6850 13599,8150 14200,8150 14200,8470"/>
       <path fill="rgb(0,0,0)" stroke="none" d="M 14200,8900 L 14350,8450 14050,8450 14200,8900 Z"/>
      </g>
     </g>
     <g class="com.sun.star.drawing.ConnectorShape">
      <g id="id27">
       <path fill="none" stroke="rgb(0,0,0)" d="M 15900,6850 L 16401,6850 16401,8150 15700,8150 15700,8470"/>
       <path fill="rgb(0,0,0)" stroke="none" d="M 15700,8900 L 15850,8450 15550,8450 15700,8900 Z"/>
      </g>
     </g>
     <g class="com.sun.star.drawing.ConnectorShape">
      <g id="id28">
       <path fill="none" stroke="rgb(0,0,0)" d="M 4900,6850 L 4399,6850 4399,8150 4800,8150 4800,8470"/>
       <path fill="rgb(0,0,0)" stroke="none" d="M 4800,8900 L 4950,8450 4650,8450 4800,8900 Z"/>
      </g>
     </g>
     <g class="com.sun.star.drawing.ConnectorShape">
      <g id="id29">
       <path fill="none" stroke="rgb(0,0,0)" d="M 6700,6850 L 7201,6850 7201,8150 6300,8150 6300,8470"/>
       <path fill="rgb(0,0,0)" stroke="none" d="M 6300,8900 L 6450,8450 6150,8450 6300,8900 Z"/>
      </g>
     </g>
     <g class="com.sun.star.drawing.ConnectorShape">
      <g id="id30">
       <path fill="none" stroke="rgb(0,0,0)" d="M 7900,6850 L 7399,6850 7399,8150 7800,8150 7800,8470"/>
       <path fill="rgb(0,0,0)" stroke="none" d="M 7800,8900 L 7950,8450 7650,8450 7800,8900 Z"/>
      </g>
     </g>
     <g class="com.sun.star.drawing.ConnectorShape">
      <g id="id31">
       <path fill="none" stroke="rgb(0,0,0)" d="M 9700,6850 L 10201,6850 10201,8150 9300,8150 9300,8470"/>
       <path fill="rgb(0,0,0)" stroke="none" d="M 9300,8900 L 9450,8450 9150,8450 9300,8900 Z"/>
      </g>
     </g>
    </g>
   </g>
  </g>
 </g>
</svg>