number,bacteria,group,value
3,e.coli,intact,0
3,e.coli ehec,intact,0
3,enterococcus sp.,intact,0
3,proteus sp.,intact,0
3,enterobacter sp.,intact,0
3,klebsiella spp.,intact,0
3,pseudomonas spp.,intact,0
3,staphylococcus sp.,intact,0
3,st.aureus,intact,0
3,mushrooms,intact,0
3,lactobacilli,intact,0
3,bifidobacteria,intact,0
3,bacillus spp.,intact,0
4,e.coli,intact,0
4,e.coli ehec,intact,0
4,enterococcus sp.,intact,0
4,proteus sp.,intact,0
4,enterobacter sp.,intact,0
4,klebsiella spp.,intact,0
4,pseudomonas spp.,intact,0
4,staphylococcus sp.,intact,0
4,st.aureus,intact,0
4,mushrooms,intact,0
4,lactobacilli,intact,0
4,bifidobacteria,intact,0
4,bacillus spp.,intact,0
5,e.coli,intact,0
5,e.coli ehec,intact,0
5,enterococcus sp.,intact,0
5,proteus sp.,intact,0
5,enterobacter sp.,intact,0
5,klebsiella spp.,intact,0
5,pseudomonas spp.,intact,0
5,staphylococcus sp.,intact,0
5,st.aureus,intact,0
5,mushrooms,intact,0
5,lactobacilli,intact,0
5,bifidobacteria,intact,0
5,bacillus spp.,intact,0
6,e.coli,intact,0
6,e.coli ehec,intact,0
6,enterococcus sp.,intact,0
6,proteus sp.,intact,0
6,enterobacter sp.,intact,0
6,klebsiella spp.,intact,0
6,pseudomonas spp.,intact,0
6,staphylococcus sp.,intact,0
6,st.aureus,intact,0
6,mushrooms,intact,0
6,lactobacilli,intact,0
6,bifidobacteria,intact,10000
6,bacillus spp.,intact,0
7,e.coli,intact,0
7,e.coli ehec,intact,0
7,enterococcus sp.,intact,0
7,proteus sp.,intact,0
7,enterobacter sp.,intact,0
7,klebsiella spp.,intact,0
7,pseudomonas spp.,intact,0
7,staphylococcus sp.,intact,0
7,st.aureus,intact,0
7,mushrooms,intact,0
7,lactobacilli,intact,0
7,bifidobacteria,intact,0
7,bacillus spp.,intact,0
8,e.coli,intact,0
8,e.coli ehec,intact,0
8,enterococcus sp.,intact,0
8,proteus sp.,intact,0
8,enterobacter sp.,intact,0
8,klebsiella spp.,intact,0
8,pseudomonas spp.,intact,0
8,staphylococcus sp.,intact,0
8,st.aureus,intact,0
8,mushrooms,intact,0
8,lactobacilli,intact,0
8,bifidobacteria,intact,0
8,bacillus spp.,intact,0
9,e.coli,intact,0
9,e.coli ehec,intact,0
9,enterococcus sp.,intact,0
9,proteus sp.,intact,0
9,enterobacter sp.,intact,0
9,klebsiella spp.,intact,0
9,pseudomonas spp.,intact,0
9,staphylococcus sp.,intact,0
9,st.aureus,intact,0
9,mushrooms,intact,0
9,lactobacilli,intact,0
9,bifidobacteria,intact,0
9,bacillus spp.,intact,0
11,e.coli,alcohol,100000000
11,e.coli ehec,alcohol,1000
11,enterococcus sp.,alcohol,1000000
11,proteus sp.,alcohol,0
11,enterobacter sp.,alcohol,0
11,klebsiella spp.,alcohol,100000000
11,pseudomonas spp.,alcohol,100000
11,staphylococcus sp.,alcohol,0
11,st.aureus,alcohol,0
11,mushrooms,alcohol,0
11,lactobacilli,alcohol,0
11,bifidobacteria,alcohol,0
11,bacillus spp.,alcohol,0
12,e.coli,alcohol,100000000
12,e.coli ehec,alcohol,0
12,enterococcus sp.,alcohol,100000
12,proteus sp.,alcohol,100000000
12,enterobacter sp.,alcohol,0
12,klebsiella spp.,alcohol,1000000
12,pseudomonas spp.,alcohol,0
12,staphylococcus sp.,alcohol,0
12,st.aureus,alcohol,0
12,mushrooms,alcohol,0
12,lactobacilli,alcohol,0
12,bifidobacteria,alcohol,0
12,bacillus spp.,alcohol,0
13,e.coli,alcohol,10000
13,e.coli ehec,alcohol,0
13,enterococcus sp.,alcohol,1000000
13,proteus sp.,alcohol,0
13,enterobacter sp.,alcohol,0
13,klebsiella spp.,alcohol,100000000
13,pseudomonas spp.,alcohol,1000
13,staphylococcus sp.,alcohol,0
13,st.aureus,alcohol,0
13,mushrooms,alcohol,0
13,lactobacilli,alcohol,0
13,bifidobacteria,alcohol,0
13,bacillus spp.,alcohol,0
14,e.coli,alcohol,100000000
14,e.coli ehec,alcohol,10000
14,enterococcus sp.,alcohol,10000
14,proteus sp.,alcohol,0
14,enterobacter sp.,alcohol,0
14,klebsiella spp.,alcohol,1000000000
14,pseudomonas spp.,alcohol,0
14,staphylococcus sp.,alcohol,0
14,st.aureus,alcohol,0
14,mushrooms,alcohol,0
14,lactobacilli,alcohol,0
14,bifidobacteria,alcohol,0
14,bacillus spp.,alcohol,0
15,e.coli,alcohol,100000
15,e.coli ehec,alcohol,100000
15,enterococcus sp.,alcohol,100000
15,proteus sp.,alcohol,0
15,enterobacter sp.,alcohol,0
15,klebsiella spp.,alcohol,100000000
15,pseudomonas spp.,alcohol,1000
15,staphylococcus sp.,alcohol,0
15,st.aureus,alcohol,0
15,mushrooms,alcohol,0
15,lactobacilli,alcohol,0
15,bifidobacteria,alcohol,0
15,bacillus spp.,alcohol,0
16,e.coli,alcohol,10000000
16,e.coli ehec,alcohol,0
16,enterococcus sp.,alcohol,10000
16,proteus sp.,alcohol,0
16,enterobacter sp.,alcohol,0
16,klebsiella spp.,alcohol,1000000000
16,pseudomonas spp.,alcohol,100000
16,staphylococcus sp.,alcohol,0
16,st.aureus,alcohol,0
16,mushrooms,alcohol,0
16,lactobacilli,alcohol,0
16,bifidobacteria,alcohol,0
16,bacillus spp.,alcohol,0
17,e.coli,alcohol,10000000
17,e.coli ehec,alcohol,0
17,enterococcus sp.,alcohol,100000
17,proteus sp.,alcohol,0
17,enterobacter sp.,alcohol,0
17,klebsiella spp.,alcohol,0
17,pseudomonas spp.,alcohol,1000
17,staphylococcus sp.,alcohol,0
17,st.aureus,alcohol,0
17,mushrooms,alcohol,0
17,lactobacilli,alcohol,0
17,bifidobacteria,alcohol,0
17,bacillus spp.,alcohol,0
21,e.coli,vodka,10000000
21,e.coli ehec,vodka,0
21,enterococcus sp.,vodka,10000
21,proteus sp.,vodka,0
21,enterobacter sp.,vodka,0
21,klebsiella spp.,vodka,1000000
21,pseudomonas spp.,vodka,10000
21,staphylococcus sp.,vodka,0
21,st.aureus,vodka,0
21,mushrooms,vodka,0
21,lactobacilli,vodka,0
21,bifidobacteria,vodka,0
21,bacillus spp.,vodka,0
22,e.coli,vodka,1000000
22,e.coli ehec,vodka,0
22,enterococcus sp.,vodka,0
22,proteus sp.,vodka,0
22,enterobacter sp.,vodka,1000
22,klebsiella spp.,vodka,0
22,pseudomonas spp.,vodka,0
22,staphylococcus sp.,vodka,10000
22,st.aureus,vodka,0
22,mushrooms,vodka,0
22,lactobacilli,vodka,0
22,bifidobacteria,vodka,0
22,bacillus spp.,vodka,0
23,e.coli,vodka,100000000
23,e.coli ehec,vodka,0
23,enterococcus sp.,vodka,10000
23,proteus sp.,vodka,0
23,enterobacter sp.,vodka,0
23,klebsiella spp.,vodka,100000
23,pseudomonas spp.,vodka,0
23,staphylococcus sp.,vodka,0
23,st.aureus,vodka,0
23,mushrooms,vodka,0
23,lactobacilli,vodka,0
23,bifidobacteria,vodka,0
23,bacillus spp.,vodka,0
24,e.coli,vodka,1000000
24,e.coli ehec,vodka,0
24,enterococcus sp.,vodka,100000
24,proteus sp.,vodka,0
24,enterobacter sp.,vodka,0
24,klebsiella spp.,vodka,0
24,pseudomonas spp.,vodka,0
24,staphylococcus sp.,vodka,0
24,st.aureus,vodka,0
24,mushrooms,vodka,0
24,lactobacilli,vodka,0
24,bifidobacteria,vodka,0
24,bacillus spp.,vodka,0
25,e.coli,vodka,10000
25,e.coli ehec,vodka,0
25,enterococcus sp.,vodka,0
25,proteus sp.,vodka,0
25,enterobacter sp.,vodka,100000000
25,klebsiella spp.,vodka,0
25,pseudomonas spp.,vodka,1000
25,staphylococcus sp.,vodka,0
25,st.aureus,vodka,0
25,mushrooms,vodka,0
25,lactobacilli,vodka,0
25,bifidobacteria,vodka,0
25,bacillus spp.,vodka,0
26,e.coli,vodka,10000000
26,e.coli ehec,vodka,0
26,enterococcus sp.,vodka,10000
26,proteus sp.,vodka,0
26,enterobacter sp.,vodka,0
26,klebsiella spp.,vodka,0
26,pseudomonas spp.,vodka,0
26,staphylococcus sp.,vodka,0
26,st.aureus,vodka,0
26,mushrooms,vodka,0
26,lactobacilli,vodka,0
26,bifidobacteria,vodka,0
26,bacillus spp.,vodka,0
27,e.coli,vodka,100000000
27,e.coli ehec,vodka,0
27,enterococcus sp.,vodka,1000
27,proteus sp.,vodka,0
27,enterobacter sp.,vodka,1000
27,klebsiella spp.,vodka,0
27,pseudomonas spp.,vodka,0
27,staphylococcus sp.,vodka,0
27,st.aureus,vodka,0
27,mushrooms,vodka,0
27,lactobacilli,vodka,0
27,bifidobacteria,vodka,0
27,bacillus spp.,vodka,0
30,e.coli,paracetamol,10000
30,e.coli ehec,paracetamol,0
30,enterococcus sp.,paracetamol,0
30,proteus sp.,paracetamol,0
30,enterobacter sp.,paracetamol,1000000000
30,klebsiella spp.,paracetamol,0
30,pseudomonas spp.,paracetamol,0
30,staphylococcus sp.,paracetamol,10000
30,st.aureus,paracetamol,0
30,mushrooms,paracetamol,0
30,lactobacilli,paracetamol,0
30,bifidobacteria,paracetamol,0
30,bacillus spp.,paracetamol,0
31,e.coli,paracetamol,0
31,e.coli ehec,paracetamol,0
31,enterococcus sp.,paracetamol,0
31,proteus sp.,paracetamol,0
31,enterobacter sp.,paracetamol,1000000000
31,klebsiella spp.,paracetamol,0
31,pseudomonas spp.,paracetamol,0
31,staphylococcus sp.,paracetamol,0
31,st.aureus,paracetamol,0
31,mushrooms,paracetamol,0
31,lactobacilli,paracetamol,0
31,bifidobacteria,paracetamol,0
31,bacillus spp.,paracetamol,0
32,e.coli,paracetamol,0
32,e.coli ehec,paracetamol,0
32,enterococcus sp.,paracetamol,1000
32,proteus sp.,paracetamol,0
32,enterobacter sp.,paracetamol,1000000000
32,klebsiella spp.,paracetamol,0
32,pseudomonas spp.,paracetamol,0
32,staphylococcus sp.,paracetamol,0
32,st.aureus,paracetamol,0
32,mushrooms,paracetamol,0
32,lactobacilli,paracetamol,0
32,bifidobacteria,paracetamol,0
32,bacillus spp.,paracetamol,0
33,e.coli,paracetamol,0
33,e.coli ehec,paracetamol,0
33,enterococcus sp.,paracetamol,1000000000
33,proteus sp.,paracetamol,0
33,enterobacter sp.,paracetamol,0
33,klebsiella spp.,paracetamol,0
33,pseudomonas spp.,paracetamol,0
33,staphylococcus sp.,paracetamol,10000
33,st.aureus,paracetamol,0
33,mushrooms,paracetamol,0
33,lactobacilli,paracetamol,0
33,bifidobacteria,paracetamol,0
33,bacillus spp.,paracetamol,0
34,e.coli,paracetamol,100000000
34,e.coli ehec,paracetamol,0
34,enterococcus sp.,paracetamol,1000
34,proteus sp.,paracetamol,0
34,enterobacter sp.,paracetamol,100000000
34,klebsiella spp.,paracetamol,0
34,pseudomonas spp.,paracetamol,10000
34,staphylococcus sp.,paracetamol,0
34,st.aureus,paracetamol,0
34,mushrooms,paracetamol,0
34,lactobacilli,paracetamol,0
34,bifidobacteria,paracetamol,0
34,bacillus spp.,paracetamol,0
35,e.coli,paracetamol,0
35,e.coli ehec,paracetamol,0
35,enterococcus sp.,paracetamol,0
35,proteus sp.,paracetamol,0
35,enterobacter sp.,paracetamol,0
35,klebsiella spp.,paracetamol,0
35,pseudomonas spp.,paracetamol,0
35,staphylococcus sp.,paracetamol,0
35,st.aureus,paracetamol,0
35,mushrooms,paracetamol,0
35,lactobacilli,paracetamol,1000000
35,bifidobacteria,paracetamol,0
35,bacillus spp.,paracetamol,0
38,e.coli,paracetamol,100000000
38,e.coli ehec,paracetamol,0
38,enterococcus sp.,paracetamol,10000
38,proteus sp.,paracetamol,0
38,enterobacter sp.,paracetamol,100000000
38,klebsiella spp.,paracetamol,0
38,pseudomonas spp.,paracetamol,0
38,staphylococcus sp.,paracetamol,1000
38,st.aureus,paracetamol,0
38,mushrooms,paracetamol,0
38,lactobacilli,paracetamol,0
38,bifidobacteria,paracetamol,0
38,bacillus spp.,paracetamol,0
41,e.coli,ccl4,1000000
41,e.coli ehec,ccl4,0
41,enterococcus sp.,ccl4,100000
41,proteus sp.,ccl4,0
41,enterobacter sp.,ccl4,0
41,klebsiella spp.,ccl4,0
41,pseudomonas spp.,ccl4,0
41,staphylococcus sp.,ccl4,0
41,st.aureus,ccl4,0
41,mushrooms,ccl4,0
41,lactobacilli,ccl4,0
41,bifidobacteria,ccl4,0
41,bacillus spp.,ccl4,100000000
42,e.coli,ccl4,1000000
42,e.coli ehec,ccl4,0
42,enterococcus sp.,ccl4,1000
42,proteus sp.,ccl4,0
42,enterobacter sp.,ccl4,0
42,klebsiella spp.,ccl4,0
42,pseudomonas spp.,ccl4,0
42,staphylococcus sp.,ccl4,0
42,st.aureus,ccl4,0
42,mushrooms,ccl4,0
42,lactobacilli,ccl4,0
42,bifidobacteria,ccl4,0
42,bacillus spp.,ccl4,100000000
43,e.coli,ccl4,100000000
43,e.coli ehec,ccl4,0
43,enterococcus sp.,ccl4,100000000
43,proteus sp.,ccl4,0
43,enterobacter sp.,ccl4,0
43,klebsiella spp.,ccl4,0
43,pseudomonas spp.,ccl4,0
43,staphylococcus sp.,ccl4,0
43,st.aureus,ccl4,0
43,mushrooms,ccl4,0
43,lactobacilli,ccl4,0
43,bifidobacteria,ccl4,0
43,bacillus spp.,ccl4,0
44,e.coli,ccl4,10000000
44,e.coli ehec,ccl4,0
44,enterococcus sp.,ccl4,100000
44,proteus sp.,ccl4,1000000
44,enterobacter sp.,ccl4,0
44,klebsiella spp.,ccl4,100000000
44,pseudomonas spp.,ccl4,0
44,staphylococcus sp.,ccl4,0
44,st.aureus,ccl4,0
44,mushrooms,ccl4,0
44,lactobacilli,ccl4,0
44,bifidobacteria,ccl4,0
44,bacillus spp.,ccl4,0
45,e.coli,ccl4,10000000
45,e.coli ehec,ccl4,0
45,enterococcus sp.,ccl4,1000000
45,proteus sp.,ccl4,0
45,enterobacter sp.,ccl4,0
45,klebsiella spp.,ccl4,10000000
45,pseudomonas spp.,ccl4,0
45,staphylococcus sp.,ccl4,0
45,st.aureus,ccl4,0
45,mushrooms,ccl4,0
45,lactobacilli,ccl4,0
45,bifidobacteria,ccl4,0
45,bacillus spp.,ccl4,0
46,e.coli,ccl4,1000000
46,e.coli ehec,ccl4,0
46,enterococcus sp.,ccl4,1000000
46,proteus sp.,ccl4,0
46,enterobacter sp.,ccl4,0
46,klebsiella spp.,ccl4,100000000
46,pseudomonas spp.,ccl4,0
46,staphylococcus sp.,ccl4,0
46,st.aureus,ccl4,0
46,mushrooms,ccl4,0
46,lactobacilli,ccl4,0
46,bifidobacteria,ccl4,0
46,bacillus spp.,ccl4,0
48,e.coli,ccl4,100000
48,e.coli ehec,ccl4,0
48,enterococcus sp.,ccl4,100000
48,proteus sp.,ccl4,0
48,enterobacter sp.,ccl4,0
48,klebsiella spp.,ccl4,0
48,pseudomonas spp.,ccl4,0
48,staphylococcus sp.,ccl4,0
48,st.aureus,ccl4,0
48,mushrooms,ccl4,0
48,lactobacilli,ccl4,0
48,bifidobacteria,ccl4,0
48,bacillus spp.,ccl4,100000000
