%!PS-Adobe-3.0 EPSF-3.0
%%BoundingBox: 0 0 720 862
%%Creator: yExport 1.5
%%Producer: org.freehep.graphicsio.ps.EPSGraphics2D Revision: 12753 
%%For: 
%%Title: 
%%CreationDate: Sunday, May 26, 2019 at 1:09:54 PM Moscow Standard Time
%%LanguageLevel: 3
%%EndComments
%%BeginProlog
100 dict dup begin

%
% File: org/freehep/graphicsio.ps/PSProlog.txt
% Author: Charles Loomis
%

% Redefinitions which save some space in the output file.  These are also
% the same as the PDF operators.
/q {gsave} def
/Q {grestore} def

/n {newpath} def
/m {moveto} def
/l {lineto} def
/c {curveto} def
/h {closepath} def

/re {4 -2 roll moveto
     dup 0 exch rlineto exch 0 rlineto
     neg 0 exch rlineto closepath} def

/f {fill} def
/f* {eofill} def
/F {gsave vg&FC fill grestore} def
/F* {gsave vg&FC eofill grestore} def

/s {closepath stroke} def
/S {stroke} def

/b {closepath gsave vg&FC fill grestore
    gsave stroke grestore newpath} def
/B {gsave vg&FC fill grestore gsave stroke grestore newpath} def
/b* {closepath gsave vg&FC eofill grestore
    gsave stroke grestore newpath} def
/B* {gsave vg&FC eofill grestore gsave stroke grestore newpath} def

/g {1 array astore /vg&fcolor exch def} def
/G {setgray} def
/k {4 array astore /vg&fcolor exch def} def
/K {setcmykcolor} def
/rg {3 array astore /vg&fcolor exch def} def
/RG {setrgbcolor} def

% Initialize the fill color.
0 0 0 rg

/vg&FC {mark vg&fcolor aload pop
        counttomark 1 eq {G} if
        counttomark 3 eq {RG} if
        counttomark 4 eq {K} if
        cleartomark } def

/vg&DFC {/vg&fcolor exch def} def

/vg&C {mark exch aload pop
       counttomark 1 eq {G} if
       counttomark 3 eq {RG} if
       counttomark 4 eq {K} if
       cleartomark } def

/w {setlinewidth} def
/j {setlinejoin} def
/J {setlinecap} def
/M {setmiterlimit} def
/d {setdash} def
/i {setflat} def

/W {clip} def
/W* {eoclip} def

% Setup the default graphics state.
% (black; 1 pt. linewidth; miter join; butt-ends; solid)
/defaultGraphicsState {0 g 1 w 0 j 0 J [] 0 d} def

% Emulation of the rectangle operators for PostScript implementations
% which do not implement all Level 2 features.  This is an INCOMPLETE
% emulation; only the "x y width height rect..." form is emulated.
/*rf {gsave newpath re fill grestore} def
/*rs {gsave newpath re stroke grestore} def
/*rc {newpath re clip} def
/rf  /rectfill where {pop /rectfill}{/*rf} ifelse load def
/rs  /rectstroke where {pop /rectstroke}{/*rs} ifelse load def
/rc  /rectclip where {pop /rectclip}{/*rc} ifelse load def

% Emulation of the selectfont operator.  This includes a 20% increase in
% the fontsize which is necessary to get sizes similar to the Java fonts.
/*sf {exch findfont exch
      dup type /arraytype eq {makefont}{scalefont} ifelse setfont} bind def
/sf /selectfont where {pop {1.2 mul selectfont}}{{1.2 mul *sf}} ifelse def

% Special version of stroke which allows the dash pattern to continue
% across path segments.  (This may be needed for PostScript although
% modern printers seem to do this correctly.)
/vg&stroke {
  currentdash pop length 0 eq
  {stroke}
  {
    currentdash /vg&doffset exch def pop
    flattenpath
    {m vg&resetdash}
    {2 copy
     currentpoint
     3 -1 roll sub dup mul
     3 1 roll sub dup mul
     add sqrt
     3 1 roll l
     currentdash 3 -1 roll add setdash}
     {}
     {h vg&resetdash}
     pathforall
     stroke
     vg&resetdash
  } ifelse
} def
/vg&resetdash {currentdash pop vg&doffset setdash} def

% Initialize variables for safety.
/delta 0 def
/xv 0 def  /yv 0 def  /width 0 def  /height 0 def

% Initialize to portrait INTERNATIONAL (Letter-height, A4-width) page.
/pw 595 def  /ph 791  def  /po true def /ftp false def

% Initialize margins to 20 points.
/ml 20 def  /mr 20 def  /mt 20 def  /mb 20 def

% Temporary matrices.
/smatrix 0 def  /nmatrix 0 def

% set page size (usage: <page width><page height> setpagesize)
/setpagesize {/ph exch def /pw exch def} def

% set page orientation (usage: portrait or landscape)
/portrait {/po true def} def
/landscape {/po false def} def

% force natural size for image (usage: naturalsize)
/naturalsize {/ftp false def} def

% resize image to fill page (usage: fittopage)
/fittopage {/ftp true def} def

% set margins of the page (usage: <left><bottom><top><right> setmargins)
/setmargins {/mr exch def /mt exch def /mb exch def /ml exch def} def

% set the graphic's size (usage: <width><height> setsize)
/setsize {/gh exch def /gw exch def} def

% set the graphic's origin (usage: <x0><y0> setorigin)
/setorigin {/gy exch def /gx exch def} def

% calculate image center
/imagecenter {pw ml sub mr sub 2 div ml add
              ph mt sub mb sub 2 div mb add} def

% calculate the necessary scaling
/imagescale {po {gw}{gh} ifelse pw ml sub mr sub div
             po {gh}{gw} ifelse ph mt sub mb sub div
             2 copy lt {exch} if pop
             ftp not {1 2 copy lt {exch} if pop} if
             1 exch div /sfactor exch def
             /gw gw sfactor mul def /gh gh sfactor mul def} def

% calculate image origin
/imageorigin {pw ml sub mr sub 2 div ml add
              po {gw}{gh} ifelse 2 div sub
              ph mt sub mb sub 2 div mb add
              po {gh}{gw} ifelse 2 div po {add}{sub} ifelse} def

% calculate the clipping origin
/cliporigin  {pw ml sub mr sub 2 div ml add
              po {gw}{gh} ifelse 2 div sub floor
              ph mt sub mb sub 2 div mb add
              po {gh}{gw} ifelse 2 div sub floor} def

% Set the clipping region to the bounding box.
/cliptobounds {cliporigin po {gw}{gh} ifelse 1 add
                          po {gh}{gw} ifelse 1 add rc} def

% set the base transformation matrix (usage: setbasematrix)
/setbasematrix {imageorigin translate
                po {0}{90} ifelse rotate
                sfactor sfactor neg scale
                /defaultmatrix matrix currentmatrix def} def

% The lower-right bias in drawing 1 pt. wide lines.
/bias  {q 0.5 0.5 translate} def
/unbias {Q} def

% Define the composite fonts used to print Unicode strings.
% Undefine particular values in an encoding array.
/vg&undef { {exch dup 3 -1 roll /.notdef put} forall } def
/vg&redef { {3 -1 roll dup 4 2 roll put} forall } def

% usage: key encoding basefontname vg&newbasefont font
/vg&newbasefont {
findfont dup length dict copy
  begin
    currentdict /FID undef
    /Encoding exch def
    dup /FontName exch def
    currentdict
  end
definefont
} def

% usage: key encoding basefontname vg&newskewedbasefont font
/vg&newskewedbasefont {
findfont dup length dict copy
  begin
    currentdict /FID undef
    /Encoding exch def
    dup /FontName exch def
    exch FontMatrix exch matrix concatmatrix /FontMatrix exch def
    currentdict
  end
definefont
} def

% usage: basekey suffix vg&nconcat name
/vg&nconcat {
  2 {dup length string cvs exch} repeat
  dup length 3 -1 roll dup length 3 -1 roll add string
  dup 0 4 -1 roll dup length 5 1 roll putinterval
  dup 4 -2 roll exch putinterval cvn
} def

%usage: fontname vg&skewmatrix matrix
/vg&skewmatrix {
findfont dup /FontInfo known
  {
    /FontInfo get dup /ItalicAngle known
    {
      [ 1 0 4 -1 roll /ItalicAngle get neg dup sin exch cos div 1 0 0 ]
    }
    {pop matrix} ifelse
  }
  {pop matrix} ifelse
} def

% usage: newfontname basefontname vg&newcompositefont --
/vg&newcompositefont {
/vg&fstyle exch def
/vg&bfont exch def
/vg&fname exch def
<<
/FontStyleBits vg&fstyle
/FontType 0
/FontMatrix matrix
/FontName vg&fname
/FMapType 2
/Encoding [ 0 1 255 {pop 6} for ]
          dup 16#00 0 put % Latin
          dup 16#03 1 put % Greek
          dup 16#20 2 put % Punctuation
          dup 16#21 3 put % Arrows
          dup 16#22 4 put % MathOps
          dup 16#27 5 put % Dingbats

/FDepVector [
vg&bfont /-UC-Latin vg&nconcat UCLatinEncoding
vg&bfont vg&newbasefont

vg&bfont vg&skewmatrix
vg&bfont /-UC-Greek vg&nconcat UCGreekEncoding
/Symbol vg&newskewedbasefont

vg&bfont /-UC-Punctuation vg&nconcat UCPunctuationEncoding
vg&bfont vg&newbasefont

/Arrows-UC findfont
/MathOps-UC findfont
/Dingbats-UC findfont
/Undefined-UC findfont ]
>>
vg&fname exch definefont pop
} def

% Null encoding vector (all elements set to .notdef)
/NullEncoding [ 256 {/.notdef} repeat ] def

% Unicode Latin encoding (unicode codes \u0000-\u00ff)
/UCLatinEncoding
  ISOLatin1Encoding dup length array copy
  dup 16#60 /grave put
  [ 16#90 16#91 16#92 16#93 16#94 16#95 16#96
    16#97 16#98 16#9a 16#9b 16#9d 16#9e 16#9f
  ] vg&undef
  def

% Unicode Greek encoding (unicode codes \u0370-\u03ff)
/UCGreekEncoding
  NullEncoding dup length array copy
  << 16#91 /Alpha    16#92 /Beta      16#93 /Gamma    16#94 /Delta
     16#95 /Epsilon  16#96 /Zeta      16#97 /Eta      16#98 /Theta
     16#99 /Iota     16#9a /Kappa     16#9b /Lambda   16#9c /Mu
     16#9d /Nu       16#9e /Xi        16#9f /Omicron  16#a0 /Pi
     16#a1 /Rho      16#a3 /Sigma     16#a4 /Tau      16#a5 /Upsilon
     16#a6 /Phi      16#a7 /Chi       16#a8 /Psi      16#a9 /Omega
     16#b1 /alpha    16#b2 /beta      16#b3 /gamma    16#b4 /delta
     16#b5 /epsilon  16#b6 /zeta      16#b7 /eta      16#b8 /theta
     16#b9 /iota     16#ba /kappa     16#bb /lambda   16#bc /mu
     16#bd /nu       16#be /xi        16#bf /omicron  16#c0 /pi
     16#c1 /rho      16#c2 /sigma1    16#c3 /sigma    16#c4 /tau
     16#c5 /upsilon  16#c6 /phi1      16#c7 /chi      16#c8 /psi
     16#c9 /omega    16#7e /semicolon 16#87 /dotmath  16#d1 /theta1
     16#d2 /Upsilon1 16#d5 /phi       16#d6 /omega1
  >> vg&redef
  def

% Unicode punctuation encoding (unicode codes \u2000-\u206f)
/UCPunctuationEncoding
  NullEncoding dup length array copy
  << 16#10 /hyphen          16#11 /hyphen              16#12 /endash
     16#13 /emdash          16#18 /quoteleft           16#19 /quoteright
     16#1a /quotesinglbase  16#1b /quotesingle         16#1c /quotedblleft
     16#1d /quotedblright   16#1e /quotedblbase        16#1f /quotedbl
     16#20 /dagger          16#21 /daggerdbl           16#22 /bullet
     16#24 /period          16#26 /ellipsis            16#27 /periodcentered
     16#30 /perthousand     16#44 /fraction
     16#70 /zerosuperior    16#74 /foursuperior        16#75 /fivesuperior
     16#76 /sixsuperior     16#77 /sevensuperior       16#78 /eightsuperior
     16#79 /ninesuperior    16#7b /hyphensuperior      16#7d /parenleftsuperior
     16#7e /parenrightsuperior
     16#80 /zeroinferior    16#84 /fourinferior        16#85 /fiveinferior
     16#81 /oneinferior     16#82 /twoinferior         16#83 /threeinferior
     16#86 /sixinferior     16#87 /seveninferior       16#88 /eightinferior
     16#89 /nineinferior    16#8b /hypheninferior      16#8d /parenleftinferior
     16#8e /parenrightinferior
  >> vg&redef
  def

% Unicode mathematical operators encoding (unicode codes \u2200-\u22ff)
/UCMathOpsEncoding
  NullEncoding dup length array copy
  << 16#00 /universal       16#02 /partialdiff         16#03 /existential
     16#05 /emptyset        16#06 /Delta               16#07 /gradient
     16#08 /element         16#09 /notelement          16#0b /suchthat
     16#0f /product         16#11 /summation           16#12 /minus
     16#15 /fraction        16#17 /asteriskmath        16#19 /bullet
     16#1a /radical         16#1d /proportional        16#1e /infinity
     16#20 /angle           16#23 /bar                 16#27 /logicaland
     16#28 /logicalor       16#29 /intersection        16#2a /union
     16#2b /integral        16#34 /therefore           16#36 /colon
     16#3c /similar         16#45 /congruent           16#48 /approxequal
     16#60 /notequal        16#61 /equivalence         16#64 /lessequal
     16#65 /greaterequal    16#82 /propersubset        16#83 /propersuperset
     16#86 /reflexsubset    16#87 /reflexsuperset      16#95 /circleplus
     16#97 /circlemultiply  16#a5 /perpendicular       16#03 /existential
     16#c0 /logicaland      16#c1 /logicalor           16#c2 /intersection
     16#c3 /union           16#c4 /diamond             16#c5 /dotmath
  >> vg&redef
  def

% Unicode arrows encoding (unicode codes \u2190-\u21ff)
% Also includes those "Letterlike" unicode characters
% which are available in the symbol font. (unicode codes \u2100-\u214f)
/UCArrowsEncoding
  NullEncoding dup length array copy
  << 16#11 /Ifraktur        16#1c /Rfraktur            16#22 /trademarkserif
     16#35 /aleph
     16#90 /arrowleft       16#91 /arrowup             16#92 /arrowright
     16#93 /arrowdown       16#94 /arrowboth           16#d0 /arrowdblleft
     16#d1 /arrowdblup      16#d2 /arrowdblright       16#d3 /arrowdbldown
     16#d4 /arrowdblboth
  >> vg&redef
  def

/ZapfDingbats findfont /Encoding get
dup length array copy /UCDingbatsEncoding exch def
16#20 1 16#7f {
  dup 16#20 sub exch
  UCDingbatsEncoding exch get
  UCDingbatsEncoding 3 1 roll put
} for
16#a0 1 16#ff {
  dup 16#40 sub exch
  UCDingbatsEncoding exch get
  UCDingbatsEncoding 3 1 roll put
} for
UCDingbatsEncoding [ 16#c0 1 16#ff {} for ] vg&undef
[ 16#00  16#05 16#0a 16#0b  16#28 16#4c 16#4e  16#53 16#54 16#55  16#57 16#5f
  16#60  16#68 16#69 16#6a  16#6b 16#6c 16#6d  16#6e 16#6f 16#70  16#71 16#72
  16#73  16#74 16#75 16#95  16#96 16#97 16#b0  16#bf
] vg&undef pop

% Define the base fonts which don't change.
/Undefined-UC NullEncoding       /Helvetica    vg&newbasefont pop
/MathOps-UC   UCMathOpsEncoding  /Symbol       vg&newbasefont pop
/Arrows-UC    UCArrowsEncoding   /Symbol       vg&newbasefont pop
/Dingbats-UC  UCDingbatsEncoding /ZapfDingbats vg&newbasefont pop

% Make the SansSerif composite fonts.
/SansSerif /Helvetica 16#00 vg&newcompositefont
/SansSerif-Bold /Helvetica-Bold 16#01 vg&newcompositefont
/SansSerif-Italic /Helvetica-Oblique 16#02 vg&newcompositefont
/SansSerif-BoldItalic /Helvetica-BoldOblique 16#03 vg&newcompositefont

% Make the Serif composite fonts.
/Serif /Times-Roman 16#00 vg&newcompositefont
/Serif-Bold /Times-Bold 16#01 vg&newcompositefont
/Serif-Italic /Times-Italic 16#02 vg&newcompositefont
/Serif-BoldItalic /Times-BoldItalic 16#03 vg&newcompositefont

% Make the Monospaced composite fonts.
/Monospaced /Courier 16#00 vg&newcompositefont
/Monospaced-Bold /Courier-Bold 16#01 vg&newcompositefont
/Monospaced-Italic /Courier-Oblique 16#02 vg&newcompositefont
/Monospaced-BoldItalic /Courier-BoldOblique 16#03 vg&newcompositefont

% Make the Dialog composite fonts.
/Dialog /Helvetica 16#00 vg&newcompositefont
/Dialog-Bold /Helvetica-Bold 16#01 vg&newcompositefont
/Dialog-Italic /Helvetica-Oblique 16#02 vg&newcompositefont
/Dialog-BoldItalic /Helvetica-BoldOblique 16#03 vg&newcompositefont

% Make the DialogInput composite fonts.
/DialogInput /Courier 16#00 vg&newcompositefont
/DialogInput-Bold /Courier-Bold 16#01 vg&newcompositefont
/DialogInput-Italic /Courier-Oblique 16#02 vg&newcompositefont
/DialogInput-BoldItalic /Courier-BoldOblique 16#03 vg&newcompositefont

% Make the Typewriter composite fonts (JDK 1.1 only).
/Typewriter /Courier 16#00 vg&newcompositefont
/Typewriter-Bold /Courier-Bold 16#01 vg&newcompositefont
/Typewriter-Italic /Courier-Oblique 16#02 vg&newcompositefont
/Typewriter-BoldItalic /Courier-BoldOblique 16#03 vg&newcompositefont


/cfontH {
 dup /fontsize exch def /SansSerif exch sf
 /vg&fontstyles [{cfontH} {cfontHB} {cfontHI} {cfontHBI}] def
} def
/cfontHB {
  dup /fontsize exch def /SansSerif-Bold exch sf
 /vg&fontstyles [{cfontH} {cfontHB} {cfontHI} {cfontHBI}] def
} def
/cfontHI {
 dup /fontsize exch def /SansSerif-Italic exch sf
 /vg&fontstyles [{cfontH} {cfontHB} {cfontHI} {cfontHBI}] def
} def
/cfontHBI {
 dup /fontsize exch def /SansSerif-BoldItalic exch sf
 /vg&fontstyles [{cfontH} {cfontHB} {cfontHI} {cfontHBI}] def
} def

/cfontT {
 dup /fontsize exch def /Serif exch sf
 /vg&fontstyles [{cfontT} {cfontTB} {cfontTI} {cfontTBI}] def
} def
/cfontTB {
 dup /fontsize exch def /Serif-Bold exch sf
 /vg&fontstyles [{cfontT} {cfontTB} {cfontTI} {cfontTBI}] def
} def
/cfontTI {
 dup /fontsize exch def /Serif-Italic exch sf
 /vg&fontstyles [{cfontT} {cfontTB} {cfontTI} {cfontTBI}] def
} def
/cfontTBI {
 dup /fontsize exch def /Serif-BoldItalic exch sf
 /vg&fontstyles [{cfontT} {cfontTB} {cfontTI} {cfontTBI}] def
} def

/cfontC {
 dup /fontsize exch def /Typewriter exch sf
 /vg&fontstyles [{cfontC} {cfontCB} {cfontCI} {cfontCBI}] def
} def
/cfontCB {
 dup /fontsize exch def /Typewriter-Bold exch sf
 /vg&fontstyles [{cfontC} {cfontCB} {cfontCI} {cfontCBI}] def
} def
/cfontCI {
 dup /fontsize exch def /Typewriter-Italic exch sf
 /vg&fontstyles [{cfontC} {cfontCB} {cfontCI} {cfontCBI}] def
} def
/cfontCBI {
 dup /fontsize exch def /Typewriter-BoldItalic exch sf
 /vg&fontstyles [{cfontC} {cfontCB} {cfontCI} {cfontCBI}] def
} def

% Darken or lighten the current color.
/darken {0.7 exch exp 3 copy
         q 4 -1 roll vg&C
         currentrgbcolor 3 {4 -2 roll mul} repeat
         3 array astore Q} def

/displayColorMap
<< /Cr   [1.00 0.00 0.00]       /Cg     [0.00 1.00 0.00]
   /Cb   [0.00 0.00 1.00]       /Cc     [1.00 0.00 0.00 0.00]
   /Cm   [0.00 1.00 0.00 0.00]  /Cy     [0.00 0.00 1.00 0.00]
   /Co   [1.00 0.78 0.00]       /Cp     [1.00 0.67 0.67]
   /Cw   [1   ]                 /Cgrl   [0.75]
   /Cgr  [0.50]                 /Cgrd   [0.25]
   /Ck   [0   ]
   /CGr  [1.00 0.00 0.00]       /CGg    [0.00 1.00 0.00]
   /CGb  [0.00 0.00 1.00]       /CGc    [1.00 0.00 0.00 0.00]
   /CGm  [0.00 1.00 0.00 0.00]  /CGy    [0.00 0.00 1.00 0.00]
   /CGo  [1.00 0.78 0.00]       /CGp    [1.00 0.67 0.67]
   /CGw  [1   ]                 /CGgrl  [0.75]
   /CGgr [0.50]                 /CGgrd  [0.25]
   /CGk  [0   ]
   /CIr  [1.00 0.00 0.00]       /CIg    [0.00 1.00 0.00]
   /CIb  [0.00 0.00 1.00]       /CIc    [1.00 0.00 0.00 0.00]
   /CIm  [0.00 1.00 0.00 0.00]  /CIy    [0.00 0.00 1.00 0.00]
   /CIo  [1.00 0.78 0.00]       /CIp    [1.00 0.67 0.67]
   /CIw  [1   ]                 /CIgrl  [0.75]
   /CIgr [0.50]                 /CIgrd  [0.25]
   /CIk  [0   ]
>> def

/printColorMap
<< /Cr   [1.00 0.33 0.33]       /Cg     [0.33 1.00 0.33]
   /Cb   [0.33 0.33 1.00]       /Cc     [1.00 0.00 0.00 0.00]
   /Cm   [0.00 1.00 0.00 0.00]  /Cy     [0.00 0.00 1.00 0.00]
   /Co   [1.00 0.78 0.00]       /Cp     [1.00 0.67 0.67]
   /Cw   [1   ]                 /Cgrl   [0.75]
   /Cgr  [0.50]                 /Cgrd   [0.25]
   /Ck   [0   ]
   /CGr  [1.00 0.33 0.33]       /CGg    [0.33 1.00 0.33]
   /CGb  [0.33 0.33 1.00]       /CGc    [1.00 0.00 0.00 0.00]
   /CGm  [0.00 1.00 0.00 0.00]  /CGy    [0.00 0.00 1.00 0.00]
   /CGo  [1.00 0.78 0.00]       /CGp    [1.00 0.67 0.67]
   /CGw  [1   ]                 /CGgrl  [0.75]
   /CGgr [0.50]                 /CGgrd  [0.25]
   /CGk  [0   ]
   /CIr  [1.00 0.33 0.33]       /CIg    [0.33 1.00 0.33]
   /CIb  [0.33 0.33 1.00]       /CIc    [1.00 0.00 0.00 0.00]
   /CIm  [0.00 1.00 0.00 0.00]  /CIy    [0.00 0.00 1.00 0.00]
   /CIo  [1.00 0.78 0.00]       /CIp    [1.00 0.67 0.67]
   /CIw  [1   ]                 /CIgrl  [0.75]
   /CIgr [0.50]                 /CIgrd  [0.25]
   /CIk  [0   ]
>> def

/grayColorMap
<< /Cr   [0   ]                 /Cg     [0   ]
   /Cb   [0   ]                 /Cc     [0   ]
   /Cm   [0   ]                 /Cy     [0   ]
   /Co   [0   ]                 /Cp     [0   ]
   /Cw   [0   ]                 /Cgrl   [0   ]
   /Cgr  [0   ]                 /Cgrd   [0   ]
   /Ck   [0   ]
   /CGr  [0.75]                 /CGg    [1   ]
   /CGb  [0.50]                 /CGc    [0.75]
   /CGm  [0.50]                 /CGy    [1   ]
   /CGo  [0.75]                 /CGp    [1   ]
   /CGw  [0   ]                 /CGgrl  [0.25]
   /CGgr [0.50]                 /CGgrd  [0.75]
   /CGk  [1   ]
   /CIr  [1   ]                 /CIg    [1   ]
   /CIb  [1   ]                 /CIc    [1   ]
   /CIm  [1   ]                 /CIy    [1   ]
   /CIo  [1   ]                 /CIp    [1   ]
   /CIw  [1   ]                 /CIgrl  [1   ]
   /CIgr [1   ]                 /CIgrd  [1   ]
   /CIk  [1   ]
>> def

/bwColorMap
<< /Cr   [0   ]                 /Cg     [0   ]
   /Cb   [0   ]                 /Cc     [0   ]
   /Cm   [0   ]                 /Cy     [0   ]
   /Co   [0   ]                 /Cp     [0   ]
   /Cw   [0   ]                 /Cgrl   [0   ]
   /Cgr  [0   ]                 /Cgrd   [0   ]
   /Ck   [0   ]
   /CGr  [1   ]                 /CGg    [1   ]
   /CGb  [1   ]                 /CGc    [1   ]
   /CGm  [1   ]                 /CGy    [1   ]
   /CGo  [1   ]                 /CGp    [1   ]
   /CGw  [0   ]                 /CGgrl  [1   ]
   /CGgr [1   ]                 /CGgrd  [1   ]
   /CGk  [1   ]
   /CIr  [1   ]                 /CIg    [1   ]
   /CIb  [1   ]                 /CIc    [1   ]
   /CIm  [1   ]                 /CIy    [1   ]
   /CIo  [1   ]                 /CIp    [1   ]
   /CIw  [1   ]                 /CIgrl  [1   ]
   /CIgr [1   ]                 /CIgrd  [1   ]
   /CIk  [1   ]
>> def

%
% The following routines handle the alignment of and printing of
% tagged strings.
%

% Predefine the bounding box values.
/bbllx 0 def /bblly 0 def /bburx 0 def /bbury 0 def

% This routine pops the first unicode character off of a string and returns
% the remainder of the string, the character code of first character,
% and a "true" if the string was non-zero length.
% <string>      popfirst <remaining string> <true>
% <null string> popfirst <false>
/popfirst {
  dup length 1 gt
    {dup 0 get /vg&fbyte exch def
     dup 1 get /vg&cbyte exch def
     dup length 2 sub 2 exch getinterval true}
    {pop false} ifelse
} def

% This routine shows a single unicode character given the font and
% character codes.
% <font code> <char code> unicharshow --
/unicharshow {
  2 string
  dup 0 5 -1 roll put
  dup 1 4 -1 roll put
  internalshow
} def

% This is an internal routine to alternate between determining the
% bounding box for stringsize and showing the string for recshow.
% <string> internalshow --
/internalshow {show} def

% This is an internal routine to alternate between determining the
% bounding box for stringsize and stroking various ornaments.
% <string> internalstroke --
/internalstroke {S} def

% Sets up internalshow to use the null device to determine string size.
% -- nullinternalshow --
/nullinternalshow {/internalshow {false charpath flattenpath
                                  pathbbox updatebbox} def} def

% Sets up internalstroke to use the null device to determine string size.
% -- nullinternalstroke --
/nullinternalstroke {
 /internalstroke {flattenpath pathbbox updatebbox} def} def

% This routine tests to see if the character code matches the first
% character of a string.
% <char code> <string> testchar <char code> <true or false>
/testchar {exch dup 3 -1 roll 0 get eq} def

% Raise the text baseline for superscripts.
% -- raise --
/raise {
  0 fontsize 2 div rmoveto
  /fontsize fontsize 2 mul 3 div def
  currentfont /FontName get fontsize sf
} def

% Un-raise the text baseline for superscripts.
% -- unraise --
/unraise {
  /fontsize fontsize 1.5 mul def
  0 fontsize 2 div neg rmoveto
} def

% Lower the text baseline for subscripts.
% -- lower --
/lower {
  0 fontsize 3 div neg rmoveto
  /fontsize fontsize 2 mul 3 div def
  currentfont /FontName get fontsize sf
} def

% Un-lower the text baseline for subscripts.
% -- unlower --
/unlower {
  /fontsize fontsize 1.5 mul def
  0 fontsize 3 div rmoveto
} def

% Compare the top two elements on the stack and leave only the
% larger one.
/maxval {2 copy gt {pop} {exch pop} ifelse} def

% Tokenize a string.  Do not use the usual PostScript token because
% parentheses will not be interpreted correctly because of rescanning
% of the string.
/vg&token {/vg&string exch def /vg&index -1 def /vg&level 0 def
0 2 vg&string length 2 sub {
  dup dup 1 add exch vg&string exch get 8 bitshift vg&string 3 -1 roll get or
  dup 16#f0fe eq {pop 1}{16#f0ff eq {-1}{0} ifelse} ifelse
  /vg&level exch vg&level add def
  vg&level 0 eq {/vg&index exch def exit} if pop
} for
vg&index 0 ge {
  vg&string vg&index 2 add dup vg&string length exch sub getinterval
  vg&index 2 gt {vg&string 2 vg&index 2 sub getinterval}{()} ifelse
  true}
{false} ifelse
} bind def

% Recursively show an unicode string.
% <string> recshow --
/recshow {
  popfirst
  {
    % Test to see if this is a string attribute.
    vg&fbyte 16#f0 and 16#e0 eq
    {
      q

      % Font style.
      currentfont dup /FontStyleBits known {/FontStyleBits get}{pop 0} ifelse
      vg&cbyte or vg&fontstyles exch get fontsize exch exec

      vg&token pop recshow currentpoint Q m recshow
    }
    {
      vg&fbyte 16#F8 and 16#F0 eq {

        % Superscript and/or subscript.
        vg&cbyte 16#00 eq {
          vg&token pop exch vg&token pop 3 -1 roll
          q raise recshow unraise currentpoint pop Q exch
          q lower recshow unlower currentpoint pop Q
          maxval currentpoint exch pop m recshow } if

        % Strikeout.
        vg&cbyte 16#01 eq {
          vg&token pop currentpoint 3 -1 roll recshow
          q 0 J vg&underline vg&uthick w
          currentpoint 4 -2 roll fontsize 3 div add moveto
          fontsize 3 div add lineto internalstroke Q
          recshow} if

        % Underline.
        vg&cbyte 16#02 eq {
          vg&token pop currentpoint 3 -1 roll recshow
          q 0 J vg&underline vg&uthick w
          currentpoint 4 -2 roll vg&uoffset add moveto
          vg&uoffset add lineto internalstroke Q
          recshow} if

        % Dashed underline.
        vg&cbyte 16#03 eq {
          vg&token pop currentpoint 3 -1 roll recshow
          q 0 J [ vg&uthick 5 mul vg&uthick 2 mul] 0 d
          vg&underline vg&uthick w
          currentpoint 4 -2 roll vg&uoffset add moveto
          vg&uoffset add lineto internalstroke Q
          recshow} if

        % Dotted underline.
        vg&cbyte 16#04 eq {
          vg&token pop currentpoint 3 -1 roll recshow
          q 1 J [ 0 vg&uthick 3 mul] 0 d
          vg&underline vg&uthick w
          currentpoint 4 -2 roll vg&uoffset add moveto
          vg&uoffset add lineto internalstroke Q
          recshow} if

        % Thick underline.
        vg&cbyte 16#05 eq {
          vg&token pop currentpoint 3 -1 roll recshow
          q 0 J vg&underline vg&uthick 2 mul w
          currentpoint 4 -2 roll vg&uoffset vg&uthick 2 div sub add moveto
          vg&uoffset vg&uthick 2 div sub add lineto internalstroke Q
          recshow} if

        % Gray thick underline.
        vg&cbyte 16#06 eq {
          vg&token pop currentpoint 3 -1 roll recshow
          q 0 J vg&underline vg&uthick 2 mul w 0.5 setgray
          currentpoint 4 -2 roll vg&uoffset vg&uthick 2 div sub add moveto
          vg&uoffset vg&uthick 2 div sub add lineto internalstroke Q
          recshow} if

        % Overbar.
        vg&cbyte 16#07 eq {
          vg&token pop dup stringsize relative 4 1 roll pop pop exch
          3 -1 roll recshow
          q 0 J vg&underline vg&uthick w
          vg&uoffset neg add dup currentpoint pop exch m l internalstroke Q
          recshow} if
      }
      {
        vg&fbyte vg&cbyte unicharshow recshow
      } ifelse
    } ifelse
  } if
} def

% Get the underline position and thickness from the current font.
/vg&underline {

currentfont dup /FontType get 0 eq {/FDepVector get 0 get} if
dup dup /FontInfo known {
  /FontInfo get dup
  dup /UnderlinePosition known {
    /UnderlinePosition get /vg&uoffset exch def
  }
  {
    pop /vg&uoffset 0 def
  } ifelse
  dup /UnderlineThickness known {
    /UnderlineThickness get /vg&uthick exch def
  }
  {
    pop /vg&uthick 0 def
  } ifelse
}
{
  pop /vg&uoffset 0 def /vg&uthick 0 def
} ifelse
/FontMatrix get
currentfont dup /FontType get 0 eq
{/FontMatrix get matrix concatmatrix}{pop} ifelse
dup 0 vg&uoffset 3 -1 roll transform /vg&uoffset exch def pop
0 vg&uthick 3 -1 roll transform /vg&uthick exch def pop
} def

% Make a frame with the coordinates on the stack.
% <llx> <lly> <urx> <ury> frame --
/frame {4 copy m 3 1 roll exch l 4 -2 roll l l h} def

% Resets the accumulated bounding box to a degenerate box at the
% current point.
% -- resetbbox --
/resetbbox {
  currentpoint 2 copy
  /bbury exch def
  /bburx exch def
  /bblly exch def
  /bbllx exch def
} def

% Update the accumulated bounding box.
% <llx'> <lly'> <urx'> <ury'> updatebbox --
/updatebbox {
  dup bbury gt {/bbury exch def} {pop} ifelse
  dup bburx gt {/bburx exch def} {pop} ifelse
  dup bblly lt {/bblly exch def} {pop} ifelse
  dup bbllx lt {/bbllx exch def} {pop} ifelse
} def

% Set the bounding box to the values on the stack.
% <llx'> <lly'> <urx'> <ury'> updatebbox --
/restorebbox {
  /bbury exch def /bburx exch def /bblly exch def /bbllx exch def
} def

% Push the accumulated bounding box onto the stack.
% -- pushbbox <llx> <lly> <urx> <ury>
/pushbbox {bbllx bblly bburx bbury} def

% Make the relative bounding box relative to the currentpoint.
% <llx'> <lly'> <urx'> <ury'> inflate <llx> <lly> <urx> <ury>
/inflate {
  2 {fontsize 0.2 mul add 4 1 roll} repeat
  2 {fontsize 0.2 mul sub 4 1 roll} repeat
} def

% Make the relative bounding box relative to the currentpoint.
% <llx'> <lly'> <urx'> <ury'> relative <llx> <lly> <urx> <ury>
/relative {
  currentpoint 3 -1 roll add 3 1 roll add exch 4 2 roll
  currentpoint 3 -1 roll add 3 1 roll add exch 4 2 roll
} def

% Returns the size of a string appropriate for recshow.
% <string> stringsize <llx> <lly> <urx> <ury>
/stringsize {
  pushbbox /internalshow load /internalstroke load 7 -1 roll
  q
  nulldevice 0 0 m
  nullinternalshow nullinternalstroke
  resetbbox
  recshow
  /internalstroke exch def /internalshow exch def
  pushbbox 8 -4 roll restorebbox
  Q
} def

% Calculate values for string positioning.
/calcval {4 copy
  3 -1 roll sub /widy exch def sub neg /widx exch def
  pop pop /dy exch def /dx exch def} def

% Utilities to position a string.
% First letter (U=upper, C=center, B=baseline, L=lower)
% Second letter (L=left, C=center, R=right)
/align [
{calcval dx neg widy dy add neg rmoveto} % UL
{calcval dx neg widy 2 div dy add neg rmoveto} % CL
{calcval dx neg 0 rmoveto} % BL
{calcval dx neg dy neg rmoveto} % LL
{calcval widx dx add neg widy dy add neg rmoveto} % UR
{calcval widx dx add neg widy 2 div dy add neg rmoveto} % CR
{calcval widx dx add neg 0 rmoveto} % BR
{calcval widx dx add neg dy neg rmoveto} % LR
{calcval widx 2 div dx add neg widy dy add neg rmoveto} % UC
{calcval widx 2 div dx add neg widy 2 div dy add neg rmoveto} % CC
{calcval widx 2 div dx add neg 0 rmoveto} % BC
{calcval widx 2 div dx add neg dy neg rmoveto} % LC
] def

/vg&str {m q 1 -1 scale dup stringsize 4 copy align 11 -1 roll get exec
         q inflate relative frame exch exec Q recshow Q} def

end /procDict exch def
%%EndProlog

%%BeginSetup
save
procDict begin
printColorMap begin
720 862 setpagesize
0 0 0 0 setmargins
0 0 setorigin
720 862 setsize
naturalsize
portrait
imagescale
cliptobounds
setbasematrix
/Helvetica 10 sf
defaultGraphicsState
%%EndSetup

0.00000 0.00000 0.00000 RG
[ 1.00000 0.00000 0.00000 1.00000 0.00000 0.00000 ] defaultmatrix matrix concatmatrix setmatrix
cliprestore
1.00000 1.00000 1.00000 RG
newpath
0.00000 0.00000 m
720.000 0.00000 l
720.000 862.000 l
0.00000 862.000 l
0.00000 0.00000 l
h
f
0.00000 0.00000 0.00000 RG
0.00000 0.00000 0.00000 RG
[ 1.00000 0.00000 0.00000 1.00000 0.00000 0.00000 ] defaultmatrix matrix concatmatrix setmatrix
cliprestore
1.00000 1.00000 1.00000 RG
newpath
0.00000 0.00000 m
720.000 0.00000 l
720.000 862.000 l
0.00000 862.000 l
0.00000 0.00000 l
h
f
0.00000 0.00000 0.00000 RG
0 0 720 862 rc
q
[ 1.00000 0.00000 0.00000 1.00000 0.00000 0.00000 ] concat
[ 1.00000 0.00000 0.00000 1.00000 -285.000 145.000 ] concat
1.00000 1.00000 1.00000 RG
newpath
285.000 -145.000 m
1005.00 -145.000 l
1005.00 717.000 l
285.000 717.000 l
285.000 -145.000 l
h
f
0.00000 0.00000 0.00000 RG
[ 1.00000 0.00000 0.00000 1.00000 -285.000 145.000 ] defaultmatrix matrix concatmatrix setmatrix
[ 1.00000 0.00000 0.00000 1.00000 -285.000 145.000 ] defaultmatrix matrix concatmatrix setmatrix
[ 1.00000 0.00000 0.00000 1.00000 0.00000 0.00000 ] defaultmatrix matrix concatmatrix setmatrix
[ 1.00000 0.00000 0.00000 1.00000 -285.000 145.000 ] defaultmatrix matrix concatmatrix setmatrix
q
<< /PatternType 2
   /Shading
   << /ShadingType 2
      /ColorSpace /DeviceRGB
      /Coords [322.6328125 -130.0 966.3185424804688 -110.0]
      /Function
      << /FunctionType 2
         /Domain [0 1]
         /Range [0 1 0 1 0 1]
         /C0 [1.0 1.0 1.0]
         /C1 [1.0 1.0 1.0]
         /N 1
      >>
      /Extend [true true]
   >>
>>
matrix makepattern setpattern
newpath
332.633 -130.000 m
956.319 -130.000 l
966.319 -120.000 l
966.319 -110.000 l
322.633 -110.000 l
322.633 -120.000 l
h
f
0 J
1.45000 M
0.00000 0.00000 0.00000 RG
newpath
332.633 -130.000 m
956.319 -130.000 l
966.319 -120.000 l
966.319 -110.000 l
322.633 -110.000 l
322.633 -120.000 l
h
S
2 J
10.0000 M
0 J
1.45000 M
q
[ 1.00000 0.00000 0.00000 -1.00000 595.456 -115.286 ] concat
0.00000 0.00000 moveto
/Helvetica findfont 12 scalefont setfont 10.0000 cfontH
(\000S\000e\000r\000i\000a\000l\000_\000R\000x\000C\000a\000l\000l\000b\000a\000c\000k) recshow
Q
2 J
10.0000 M
Q
q
<< /PatternType 2
   /Shading
   << /ShadingType 2
      /ColorSpace /DeviceRGB
      /Coords [322.6328125 690.0 966.808837890625 701.875]
      /Function
      << /FunctionType 2
         /Domain [0 1]
         /Range [0 1 0 1 0 1]
         /C0 [1.0 1.0 1.0]
         /C1 [1.0 1.0 1.0]
         /N 1
      >>
      /Extend [true true]
   >>
>>
matrix makepattern setpattern
newpath
322.633 690.000 m
966.809 690.000 l
966.809 695.938 l
960.871 701.875 l
328.570 701.875 l
322.633 695.938 l
h
f
0 J
1.45000 M
0.00000 0.00000 0.00000 RG
newpath
322.633 690.000 m
966.809 690.000 l
966.809 695.938 l
960.871 701.875 l
328.570 701.875 l
322.633 695.938 l
h
S
2 J
10.0000 M
Q
q
<< /PatternType 2
   /Shading
   << /ShadingType 2
      /ColorSpace /DeviceRGB
      /Coords [368.07373046875 68.75 490.92626953125 121.25]
      /Function
      << /FunctionType 2
         /Domain [0 1]
         /Range [0 1 0 1 0 1]
         /C0 [1.0 1.0 1.0]
         /C1 [1.0 1.0 1.0]
         /N 1
      >>
      /Extend [true true]
   >>
>>
matrix makepattern setpattern
newpath
429.500 68.7500 m
490.926 95.0000 l
429.500 121.250 l
368.074 95.0000 l
h
f
0 J
1.45000 M
0.00000 0.00000 0.00000 RG
newpath
429.500 68.7500 m
490.926 95.0000 l
429.500 121.250 l
368.074 95.0000 l
h
S
2 J
10.0000 M
0 J
1.45000 M
q
[ 1.00000 0.00000 0.00000 -1.00000 383.478 99.7139 ] concat
0.00000 0.00000 moveto
/Helvetica findfont 12 scalefont setfont 10.0000 cfontH
(\000?\000c\000u\000r\000r\000e\000n\000t\000R\000e\000q\000F\000i\000e\000l\000d) recshow
Q
2 J
10.0000 M
Q
q
<< /PatternType 2
   /Shading
   << /ShadingType 2
      /ColorSpace /DeviceRGB
      /Coords [402.982421875 -86.25 456.017578125 -66.25]
      /Function
      << /FunctionType 2
         /Domain [0 1]
         /Range [0 1 0 1 0 1]
         /C0 [1.0 1.0 1.0]
         /C1 [1.0 1.0 1.0]
         /N 1
      >>
      /Extend [true true]
   >>
>>
matrix makepattern setpattern
newpath
402.982 -86.2500 m
456.018 -86.2500 l
456.018 -66.2500 l
402.982 -66.2500 l
h
f
0 J
1.45000 M
0.00000 0.00000 0.00000 RG
newpath
402.982 -86.2500 m
456.018 -86.2500 l
456.018 -66.2500 l
402.982 -66.2500 l
h
S
2 J
10.0000 M
0 J
1.45000 M
q
[ 1.00000 0.00000 0.00000 -1.00000 409.982 -71.5361 ] concat
0.00000 0.00000 moveto
/Helvetica findfont 12 scalefont setfont 10.0000 cfontH
(\000r\000e\000q\000 \000=\000 \000{\000}) recshow
Q
2 J
10.0000 M
Q
q
<< /PatternType 2
   /Shading
   << /ShadingType 2
      /ColorSpace /DeviceRGB
      /Coords [576.6650390625 160.0 683.3349609375 200.0]
      /Function
      << /FunctionType 2
         /Domain [0 1]
         /Range [0 1 0 1 0 1]
         /C0 [1.0 1.0 1.0]
         /C1 [1.0 1.0 1.0]
         /N 1
      >>
      /Extend [true true]
   >>
>>
matrix makepattern setpattern
newpath
576.665 160.000 m
683.335 160.000 l
683.335 200.000 l
576.665 200.000 l
576.665 160.000 l
h
f
0 J
1.45000 M
0.00000 0.00000 0.00000 RG
newpath
576.665 160.000 m
683.335 160.000 l
683.335 200.000 l
576.665 200.000 l
576.665 160.000 l
h
S
newpath
586.665 160.000 m
586.665 200.000 l
673.335 160.000 m
673.335 200.000 l
586.665 160.000 m
h
S
2 J
10.0000 M
0 J
1.45000 M
q
[ 1.00000 0.00000 0.00000 -1.00000 596.651 184.714 ] concat
0.00000 0.00000 moveto
/Helvetica findfont 12 scalefont setfont 10.0000 cfontH
(\000D\000e\000c\000o\000d\000e\000C\000m\000d) recshow
Q
2 J
10.0000 M
Q
q
<< /PatternType 2
   /Shading
   << /ShadingType 2
      /ColorSpace /DeviceRGB
      /Coords [577.970703125 360.0 684.640625 400.0]
      /Function
      << /FunctionType 2
         /Domain [0 1]
         /Range [0 1 0 1 0 1]
         /C0 [1.0 1.0 1.0]
         /C1 [1.0 1.0 1.0]
         /N 1
      >>
      /Extend [true true]
   >>
>>
matrix makepattern setpattern
newpath
577.971 360.000 m
684.641 360.000 l
684.641 400.000 l
577.971 400.000 l
577.971 360.000 l
h
f
0 J
1.45000 M
0.00000 0.00000 0.00000 RG
newpath
577.971 360.000 m
684.641 360.000 l
684.641 400.000 l
577.971 400.000 l
577.971 360.000 l
h
S
newpath
587.971 360.000 m
587.971 400.000 l
674.641 360.000 m
674.641 400.000 l
587.971 360.000 m
h
S
2 J
10.0000 M
0 J
1.45000 M
q
[ 1.00000 0.00000 0.00000 -1.00000 592.953 384.714 ] concat
0.00000 0.00000 moveto
/Helvetica findfont 12 scalefont setfont 10.0000 cfontH
(\000D\000e\000c\000o\000d\000e\000P\000a\000r\000a\000m) recshow
Q
2 J
10.0000 M
Q
q
<< /PatternType 2
   /Shading
   << /ShadingType 2
      /ColorSpace /DeviceRGB
      /Coords [577.970703125 470.0 684.640625 510.0]
      /Function
      << /FunctionType 2
         /Domain [0 1]
         /Range [0 1 0 1 0 1]
         /C0 [1.0 1.0 1.0]
         /C1 [1.0 1.0 1.0]
         /N 1
      >>
      /Extend [true true]
   >>
>>
matrix makepattern setpattern
newpath
577.971 470.000 m
684.641 470.000 l
684.641 510.000 l
577.971 510.000 l
577.971 470.000 l
h
f
0 J
1.45000 M
0.00000 0.00000 0.00000 RG
newpath
577.971 470.000 m
684.641 470.000 l
684.641 510.000 l
577.971 510.000 l
577.971 470.000 l
h
S
newpath
587.971 470.000 m
587.971 510.000 l
674.641 470.000 m
674.641 510.000 l
587.971 470.000 m
h
S
2 J
10.0000 M
0 J
1.45000 M
q
[ 1.00000 0.00000 0.00000 -1.00000 595.279 494.714 ] concat
0.00000 0.00000 moveto
/Helvetica findfont 12 scalefont setfont 10.0000 cfontH
(\000D\000e\000c\000o\000d\000e\000V\000a\000l\000u\000e) recshow
Q
2 J
10.0000 M
Q
q
<< /PatternType 2
   /Shading
   << /ShadingType 2
      /ColorSpace /DeviceRGB
      /Coords [576.6650390625 260.0 683.3349609375 300.0]
      /Function
      << /FunctionType 2
         /Domain [0 1]
         /Range [0 1 0 1 0 1]
         /C0 [1.0 1.0 1.0]
         /C1 [1.0 1.0 1.0]
         /N 1
      >>
      /Extend [true true]
   >>
>>
matrix makepattern setpattern
newpath
576.665 260.000 m
683.335 260.000 l
683.335 300.000 l
576.665 300.000 l
576.665 260.000 l
h
f
0 J
1.45000 M
0.00000 0.00000 0.00000 RG
newpath
576.665 260.000 m
683.335 260.000 l
683.335 300.000 l
576.665 300.000 l
576.665 260.000 l
h
S
newpath
586.665 260.000 m
586.665 300.000 l
673.335 260.000 m
673.335 300.000 l
586.665 260.000 m
h
S
2 J
10.0000 M
0 J
1.45000 M
q
[ 1.00000 0.00000 0.00000 -1.00000 588.305 284.714 ] concat
0.00000 0.00000 moveto
/Helvetica findfont 12 scalefont setfont 10.0000 cfontH
(\000D\000e\000c\000o\000d\000e\000S\000t\000e\000p\000p\000e\000r) recshow
Q
2 J
10.0000 M
Q
q
<< /PatternType 2
   /Shading
   << /ShadingType 2
      /ColorSpace /DeviceRGB
      /Coords [729.92822265625 160.0 818.30712890625 200.0]
      /Function
      << /FunctionType 2
         /Domain [0 1]
         /Range [0 1 0 1 0 1]
         /C0 [1.0 1.0 1.0]
         /C1 [1.0 1.0 1.0]
         /N 1
      >>
      /Extend [true true]
   >>
>>
matrix makepattern setpattern
newpath
729.928 160.000 m
818.307 160.000 l
818.307 200.000 l
729.928 200.000 l
h
f
0 J
1.45000 M
0.00000 0.00000 0.00000 RG
newpath
729.928 160.000 m
818.307 160.000 l
818.307 200.000 l
729.928 200.000 l
h
S
2 J
10.0000 M
0 J
1.45000 M
q
[ 1.00000 0.00000 0.00000 -1.00000 745.606 177.363 ] concat
0.00000 0.00000 moveto
/Helvetica findfont 12 scalefont setfont 10.0000 cfontH
(\000r\000e\000q\000.\000c\000m\000d\000 \000=\000 ) recshow
Q
q
[ 1.00000 0.00000 0.00000 -1.00000 747.774 192.064 ] concat
0.00000 0.00000 moveto
/Helvetica findfont 12 scalefont setfont 10.0000 cfontH
(\000c\000o\000m\000m\000a\000n\000d) recshow
Q
2 J
10.0000 M
Q
q
<< /PatternType 2
   /Shading
   << /ShadingType 2
      /ColorSpace /DeviceRGB
      /Coords [837.4559326171875 75.0 966.808837890625 115.0]
      /Function
      << /FunctionType 2
         /Domain [0 1]
         /Range [0 1 0 1 0 1]
         /C0 [1.0 1.0 1.0]
         /C1 [1.0 1.0 1.0]
         /N 1
      >>
      /Extend [true true]
   >>
>>
matrix makepattern setpattern
newpath
837.456 75.0000 m
966.809 75.0000 l
966.809 115.000 l
837.456 115.000 l
h
f
0 J
1.45000 M
0.00000 0.00000 0.00000 RG
newpath
837.456 75.0000 m
966.809 75.0000 l
966.809 115.000 l
837.456 115.000 l
h
S
2 J
10.0000 M
0 J
1.45000 M
q
[ 1.00000 0.00000 0.00000 -1.00000 852.439 99.7139 ] concat
0.00000 0.00000 moveto
/Helvetica findfont 12 scalefont setfont 10.0000 cfontH
(\000c\000u\000r\000r\000e\000n\000t\000R\000e\000q\000F\000i\000e\000l\000d\000+\000+) recshow
Q
2 J
10.0000 M
Q
q
<< /PatternType 2
   /Shading
   << /ShadingType 2
      /ColorSpace /DeviceRGB
      /Coords [729.92822265625 260.0 818.30712890625 300.0]
      /Function
      << /FunctionType 2
         /Domain [0 1]
         /Range [0 1 0 1 0 1]
         /C0 [1.0 1.0 1.0]
         /C1 [1.0 1.0 1.0]
         /N 1
      >>
      /Extend [true true]
   >>
>>
matrix makepattern setpattern
newpath
729.928 260.000 m
818.307 260.000 l
818.307 300.000 l
729.928 300.000 l
h
f
0 J
1.45000 M
0.00000 0.00000 0.00000 RG
newpath
729.928 260.000 m
818.307 260.000 l
818.307 300.000 l
729.928 300.000 l
h
S
2 J
10.0000 M
0 J
1.45000 M
q
[ 1.00000 0.00000 0.00000 -1.00000 736.928 277.363 ] concat
0.00000 0.00000 moveto
/Helvetica findfont 12 scalefont setfont 10.0000 cfontH
(\000r\000e\000q\000.\000s\000t\000e\000p\000p\000e\000r\000 \000=\000 ) recshow
Q
q
[ 1.00000 0.00000 0.00000 -1.00000 754.105 292.064 ] concat
0.00000 0.00000 moveto
/Helvetica findfont 12 scalefont setfont 10.0000 cfontH
(\000s\000t\000e\000p\000p\000e\000r) recshow
Q
2 J
10.0000 M
Q
q
<< /PatternType 2
   /Shading
   << /ShadingType 2
      /ColorSpace /DeviceRGB
      /Coords [729.92822265625 360.0 818.30712890625 400.0]
      /Function
      << /FunctionType 2
         /Domain [0 1]
         /Range [0 1 0 1 0 1]
         /C0 [1.0 1.0 1.0]
         /C1 [1.0 1.0 1.0]
         /N 1
      >>
      /Extend [true true]
   >>
>>
matrix makepattern setpattern
newpath
729.928 360.000 m
818.307 360.000 l
818.307 400.000 l
729.928 400.000 l
h
f
0 J
1.45000 M
0.00000 0.00000 0.00000 RG
newpath
729.928 360.000 m
818.307 360.000 l
818.307 400.000 l
729.928 400.000 l
h
S
2 J
10.0000 M
0 J
1.45000 M
q
[ 1.00000 0.00000 0.00000 -1.00000 739.934 377.363 ] concat
0.00000 0.00000 moveto
/Helvetica findfont 12 scalefont setfont 10.0000 cfontH
(\000r\000e\000q\000.\000p\000a\000r\000a\000m\000 \000=\000 ) recshow
Q
q
[ 1.00000 0.00000 0.00000 -1.00000 746.772 392.064 ] concat
0.00000 0.00000 moveto
/Helvetica findfont 12 scalefont setfont 10.0000 cfontH
(\000p\000a\000r\000a\000m\000e\000t\000e\000r) recshow
Q
2 J
10.0000 M
Q
q
<< /PatternType 2
   /Shading
   << /ShadingType 2
      /ColorSpace /DeviceRGB
      /Coords [729.92822265625 470.0 818.30712890625 510.0]
      /Function
      << /FunctionType 2
         /Domain [0 1]
         /Range [0 1 0 1 0 1]
         /C0 [1.0 1.0 1.0]
         /C1 [1.0 1.0 1.0]
         /N 1
      >>
      /Extend [true true]
   >>
>>
matrix makepattern setpattern
newpath
729.928 470.000 m
818.307 470.000 l
818.307 510.000 l
729.928 510.000 l
h
f
0 J
1.45000 M
0.00000 0.00000 0.00000 RG
newpath
729.928 470.000 m
818.307 470.000 l
818.307 510.000 l
729.928 510.000 l
h
S
2 J
10.0000 M
0 J
1.45000 M
q
[ 1.00000 0.00000 0.00000 -1.00000 742.597 487.363 ] concat
0.00000 0.00000 moveto
/Helvetica findfont 12 scalefont setfont 10.0000 cfontH
(\000r\000e\000q\000.\000v\000a\000l\000u\000e\000 \000=\000 ) recshow
Q
q
[ 1.00000 0.00000 0.00000 -1.00000 759.774 502.064 ] concat
0.00000 0.00000 moveto
/Helvetica findfont 12 scalefont setfont 10.0000 cfontH
(\000v\000a\000l\000u\000e) recshow
Q
2 J
10.0000 M
Q
q
<< /PatternType 2
   /Shading
   << /ShadingType 2
      /ColorSpace /DeviceRGB
      /Coords [835.3235473632812 550.0 964.6764526367188 590.0]
      /Function
      << /FunctionType 2
         /Domain [0 1]
         /Range [0 1 0 1 0 1]
         /C0 [1.0 0.8 0.0]
         /C1 [1.0 0.6 0.0]
         /N 1
      >>
      /Extend [true true]
   >>
>>
matrix makepattern setpattern
newpath
835.324 550.000 m
964.676 550.000 l
964.676 590.000 l
835.324 590.000 l
835.324 550.000 l
h
f
0 J
1.45000 M
0.00000 0.00000 0.00000 RG
newpath
835.324 550.000 m
964.676 550.000 l
964.676 590.000 l
835.324 590.000 l
835.324 550.000 l
h
S
newpath
845.324 550.000 m
845.324 590.000 l
954.676 550.000 m
954.676 590.000 l
845.324 550.000 m
h
S
2 J
10.0000 M
0 J
1.45000 M
q
[ 1.00000 0.00000 0.00000 -1.00000 850.644 574.714 ] concat
0.00000 0.00000 moveto
/Helvetica findfont 12 scalefont setfont 10.0000 cfontH
(\000E\000x\000e\000c\000u\000t\000e\000C\000o\000m\000m\000a\000n\000d) recshow
Q
2 J
10.0000 M
Q
q
<< /PatternType 2
   /Shading
   << /ShadingType 2
      /ColorSpace /DeviceRGB
      /Coords [835.3235473632812 620.0 964.6764526367188 660.0]
      /Function
      << /FunctionType 2
         /Domain [0 1]
         /Range [0 1 0 1 0 1]
         /C0 [1.0 1.0 1.0]
         /C1 [1.0 1.0 1.0]
         /N 1
      >>
      /Extend [true true]
   >>
>>
matrix makepattern setpattern
newpath
835.324 620.000 m
964.676 620.000 l
964.676 660.000 l
835.324 660.000 l
835.324 620.000 l
h
f
0 J
1.45000 M
0.00000 0.00000 0.00000 RG
newpath
835.324 620.000 m
964.676 620.000 l
964.676 660.000 l
835.324 660.000 l
835.324 620.000 l
h
S
newpath
845.324 620.000 m
845.324 660.000 l
954.676 620.000 m
954.676 660.000 l
845.324 620.000 m
h
S
2 J
10.0000 M
0 J
1.45000 M
q
[ 1.00000 0.00000 0.00000 -1.00000 854.971 644.714 ] concat
0.00000 0.00000 moveto
/Helvetica findfont 12 scalefont setfont 10.0000 cfontH
(\000C\000l\000e\000a\000n\000u\000p\000D\000e\000c\000o\000d\000e\000r) recshow
Q
2 J
10.0000 M
Q
q
<< /PatternType 2
   /Shading
   << /ShadingType 2
      /ColorSpace /DeviceRGB
      /Coords [322.6328125 -36.25 536.3671875 -16.25]
      /Function
      << /FunctionType 2
         /Domain [0 1]
         /Range [0 1 0 1 0 1]
         /C0 [1.0 1.0 1.0]
         /C1 [1.0 1.0 1.0]
         /N 1
      >>
      /Extend [true true]
   >>
>>
matrix makepattern setpattern
newpath
322.633 -36.2500 m
536.367 -36.2500 l
536.367 -16.2500 l
322.633 -16.2500 l
h
f
0 J
1.45000 M
0.00000 0.00000 0.00000 RG
newpath
322.633 -36.2500 m
536.367 -36.2500 l
536.367 -16.2500 l
322.633 -16.2500 l
h
S
2 J
10.0000 M
0 J
1.45000 M
q
[ 1.00000 0.00000 0.00000 -1.00000 329.633 -21.5361 ] concat
0.00000 0.00000 moveto
/Helvetica findfont 12 scalefont setfont 10.0000 cfontH
(\000c\000u\000r\000r\000e\000n\000t\000R\000e\000q\000F\000i\000e\000l\000d\000 \000=\000 \000R\000E\000Q\000_\000F\000I\000E\000L\000D\000_\000C\000M\000D) recshow
Q
2 J
10.0000 M
Q
q
<< /PatternType 2
   /Shading
   << /ShadingType 2
      /ColorSpace /DeviceRGB
      /Coords [377.470703125 6.25 481.529296875 46.25]
      /Function
      << /FunctionType 2
         /Domain [0 1]
         /Range [0 1 0 1 0 1]
         /C0 [1.0 1.0 1.0]
         /C1 [1.0 1.0 1.0]
         /N 1
      >>
      /Extend [true true]
   >>
>>
matrix makepattern setpattern
newpath
377.471 6.25000 m
481.529 6.25000 l
481.529 46.2500 l
377.471 46.2500 l
377.471 6.25000 l
h
f
0 J
1.45000 M
0.00000 0.00000 0.00000 RG
newpath
377.471 6.25000 m
481.529 6.25000 l
481.529 46.2500 l
377.471 46.2500 l
377.471 6.25000 l
h
S
newpath
387.471 6.25000 m
387.471 46.2500 l
471.529 6.25000 m
471.529 46.2500 l
387.471 6.25000 m
h
S
2 J
10.0000 M
0 J
1.45000 M
q
[ 1.00000 0.00000 0.00000 -1.00000 408.819 30.9639 ] concat
0.00000 0.00000 moveto
/Helvetica findfont 12 scalefont setfont 10.0000 cfontH
(\000D\000e\000c\000o\000d\000e) recshow
Q
2 J
10.0000 M
Q
q
<< /PatternType 2
   /Shading
   << /ShadingType 2
      /ColorSpace /DeviceRGB
      /Coords [846.6650390625 353.75 953.3349609375 406.25]
      /Function
      << /FunctionType 2
         /Domain [0 1]
         /Range [0 1 0 1 0 1]
         /C0 [1.0 1.0 1.0]
         /C1 [1.0 1.0 1.0]
         /N 1
      >>
      /Extend [true true]
   >>
>>
matrix makepattern setpattern
newpath
900.000 353.750 m
953.335 380.000 l
900.000 406.250 l
846.665 380.000 l
h
f
0 J
1.45000 M
0.00000 0.00000 0.00000 RG
newpath
900.000 353.750 m
953.335 380.000 l
900.000 406.250 l
846.665 380.000 l
h
S
2 J
10.0000 M
0 J
1.45000 M
q
[ 1.00000 0.00000 0.00000 -1.00000 864.642 384.714 ] concat
0.00000 0.00000 moveto
/Helvetica findfont 12 scalefont setfont 10.0000 cfontH
(\000p\000a\000r\000a\000m\000 \000n\000e\000e\000d\000?) recshow
Q
2 J
10.0000 M
Q
0 J
1.45000 M
newpath
966.338 -120.000 m
990.000 -120.000 l
990.000 695.938 l
974.776 695.938 l
S
newpath
966.776 695.938 m
978.776 700.938 l
975.776 695.938 l
978.776 690.938 l
h
f
2 J
10.0000 M
0 J
1.45000 M
newpath
322.597 695.938 m
300.000 695.938 l
300.000 -120.000 l
314.665 -120.000 l
S
newpath
322.665 -120.000 m
310.665 -125.000 l
313.665 -120.000 l
310.665 -115.000 l
h
f
2 J
10.0000 M
0 J
1.45000 M
newpath
644.476 -109.960 m
644.476 -76.2500 l
464.031 -76.2500 l
S
newpath
456.031 -76.2500 m
468.031 -71.2500 l
465.031 -76.2500 l
468.031 -81.2500 l
h
f
2 J
10.0000 M
0 J
1.45000 M
newpath
429.500 121.272 m
429.500 180.000 l
568.693 180.000 l
S
newpath
576.693 180.000 m
564.693 175.000 l
567.693 180.000 l
564.693 185.000 l
h
f
q
[ 1.00000 0.00000 0.00000 -1.00000 435.545 171.378 ] concat
0.00000 0.00000 moveto
/Helvetica findfont 12 scalefont setfont 10.0000 cfontH
(\000R\000E\000Q\000_\000F\000I\000E\000L\000D\000_\000C\000M\000D) recshow
Q
2 J
10.0000 M
0 J
1.45000 M
newpath
429.500 121.266 m
429.500 380.000 l
569.947 380.000 l
S
newpath
577.947 380.000 m
565.947 375.000 l
568.947 380.000 l
565.947 385.000 l
h
f
q
[ 1.00000 0.00000 0.00000 -1.00000 434.780 371.965 ] concat
0.00000 0.00000 moveto
/Helvetica findfont 12 scalefont setfont 10.0000 cfontH
(\000R\000E\000Q\000_\000F\000I\000E\000L\000D\000_\000P\000A\000R\000A\000M) recshow
Q
2 J
10.0000 M
0 J
1.45000 M
newpath
429.500 121.279 m
429.500 490.000 l
569.947 490.000 l
S
newpath
577.947 490.000 m
565.947 485.000 l
568.947 490.000 l
565.947 495.000 l
h
f
q
[ 1.00000 0.00000 0.00000 -1.00000 434.232 482.151 ] concat
0.00000 0.00000 moveto
/Helvetica findfont 12 scalefont setfont 10.0000 cfontH
(\000R\000E\000Q\000_\000F\000I\000E\000L\000D\000_\000V\000A\000L\000U\000E) recshow
Q
2 J
10.0000 M
0 J
1.45000 M
newpath
429.500 121.241 m
429.500 280.000 l
568.693 280.000 l
S
newpath
576.693 280.000 m
564.693 275.000 l
567.693 280.000 l
564.693 285.000 l
h
f
q
[ 1.00000 0.00000 0.00000 -1.00000 434.790 272.457 ] concat
0.00000 0.00000 moveto
/Helvetica findfont 12 scalefont setfont 10.0000 cfontH
(\000R\000E\000Q\000_\000F\000I\000E\000L\000D\000_\000S\000T\000E\000P\000P\000E\000R) recshow
Q
2 J
10.0000 M
0 J
1.45000 M
newpath
683.365 180.000 m
721.883 180.000 l
S
newpath
729.883 180.000 m
717.883 175.000 l
720.883 180.000 l
717.883 185.000 l
h
f
2 J
10.0000 M
0 J
1.45000 M
newpath
818.281 180.000 m
900.000 180.000 l
900.000 122.991 l
S
newpath
900.000 114.991 m
895.000 126.991 l
900.000 123.991 l
905.000 126.991 l
h
f
2 J
10.0000 M
0 J
1.45000 M
newpath
837.438 95.0000 m
498.949 95.0000 l
S
newpath
490.949 95.0000 m
502.949 100.000 l
499.949 95.0000 l
502.949 90.0000 l
h
f
2 J
10.0000 M
0 J
1.45000 M
newpath
683.346 280.000 m
721.904 280.000 l
S
newpath
729.904 280.000 m
717.904 275.000 l
720.904 280.000 l
717.904 285.000 l
h
f
2 J
10.0000 M
0 J
1.45000 M
newpath
818.281 280.000 m
900.000 280.000 l
900.000 123.039 l
S
newpath
900.000 115.039 m
895.000 127.039 l
900.000 124.039 l
905.000 127.039 l
h
f
2 J
10.0000 M
0 J
1.45000 M
newpath
684.652 380.000 m
721.934 380.000 l
S
newpath
729.934 380.000 m
717.934 375.000 l
720.934 380.000 l
717.934 385.000 l
h
f
2 J
10.0000 M
0 J
1.45000 M
newpath
684.652 490.000 m
721.926 490.000 l
S
newpath
729.926 490.000 m
717.926 485.000 l
720.926 490.000 l
717.926 495.000 l
h
f
2 J
10.0000 M
0 J
1.45000 M
newpath
818.281 490.000 m
900.000 490.000 l
900.000 541.961 l
S
newpath
900.000 549.961 m
905.000 537.961 l
900.000 540.961 l
895.000 537.961 l
h
f
2 J
10.0000 M
0 J
1.45000 M
newpath
900.000 589.995 m
900.000 612.027 l
S
newpath
900.000 620.027 m
905.000 608.027 l
900.000 611.027 l
895.000 608.027 l
h
f
2 J
10.0000 M
0 J
1.45000 M
newpath
429.500 -66.2402 m
429.500 -44.2866 l
S
newpath
429.500 -36.2866 m
434.500 -48.2866 l
429.500 -45.2866 l
424.500 -48.2866 l
h
f
2 J
10.0000 M
0 J
1.45000 M
newpath
429.500 -16.2268 m
429.500 -1.78545 l
S
newpath
429.500 6.21455 m
434.500 -5.78545 l
429.500 -2.78545 l
424.500 -5.78545 l
h
f
2 J
10.0000 M
0 J
1.45000 M
newpath
835.325 640.000 m
330.000 640.000 l
330.000 26.2500 l
369.467 26.2500 l
S
newpath
377.467 26.2500 m
365.467 21.2500 l
368.467 26.2500 l
365.467 31.2500 l
h
f
2 J
10.0000 M
0 J
1.45000 M
newpath
429.500 46.2848 m
429.500 60.7324 l
S
newpath
429.500 68.7324 m
434.500 56.7324 l
429.500 59.7324 l
424.500 56.7324 l
h
f
2 J
10.0000 M
0 J
1.45000 M
newpath
818.281 380.000 m
838.651 380.000 l
S
newpath
846.651 380.000 m
834.651 375.000 l
837.651 380.000 l
834.651 385.000 l
h
f
2 J
10.0000 M
0 J
1.45000 M
newpath
900.000 353.781 m
900.000 122.983 l
S
newpath
900.000 114.983 m
895.000 126.983 l
900.000 123.983 l
905.000 126.983 l
h
f
q
[ 1.00000 0.00000 0.00000 -1.00000 924.160 342.355 ] concat
0.00000 0.00000 moveto
/Helvetica findfont 20 scalefont setfont 16.6667 cfontH
(\000+) recshow
Q
2 J
10.0000 M
0 J
1.45000 M
newpath
900.000 406.208 m
900.000 541.966 l
S
newpath
900.000 549.966 m
905.000 537.966 l
900.000 540.966 l
895.000 537.966 l
h
f
q
[ 1.00000 0.00000 0.00000 -1.00000 926.670 433.357 ] concat
0.00000 0.00000 moveto
/Helvetica findfont 20 scalefont setfont 16.6667 cfontH
(\000-) recshow
Q
2 J
10.0000 M
Q
[ 1.00000 0.00000 0.00000 1.00000 0.00000 0.00000 ] defaultmatrix matrix concatmatrix setmatrix
cliprestore

%%Trailer
%%EOF
