%!PS-Adobe-3.0 EPSF-3.0
%%Creator: cairo 1.16.0 (https://cairographics.org)
%%CreationDate: Wed May 08 02:36:56 2019
%%Pages: 1
%%DocumentData: Clean7Bit
%%LanguageLevel: 2
%%BoundingBox: 0 0 308 94
%%EndComments
%%BeginProlog
50 dict begin
/q { gsave } bind def
/Q { grestore } bind def
/cm { 6 array astore concat } bind def
/w { setlinewidth } bind def
/J { setlinecap } bind def
/j { setlinejoin } bind def
/M { setmiterlimit } bind def
/d { setdash } bind def
/m { moveto } bind def
/l { lineto } bind def
/c { curveto } bind def
/h { closepath } bind def
/re { exch dup neg 3 1 roll 5 3 roll moveto 0 rlineto
      0 exch rlineto 0 rlineto closepath } bind def
/S { stroke } bind def
/f { fill } bind def
/f* { eofill } bind def
/n { newpath } bind def
/W { clip } bind def
/W* { eoclip } bind def
/BT { } bind def
/ET { } bind def
/BDC { mark 3 1 roll /BDC pdfmark } bind def
/EMC { mark /EMC pdfmark } bind def
/cairo_store_point { /cairo_point_y exch def /cairo_point_x exch def } def
/Tj { show currentpoint cairo_store_point } bind def
/TJ {
  {
    dup
    type /stringtype eq
    { show } { -0.001 mul 0 cairo_font_matrix dtransform rmoveto } ifelse
  } forall
  currentpoint cairo_store_point
} bind def
/cairo_selectfont { cairo_font_matrix aload pop pop pop 0 0 6 array astore
    cairo_font exch selectfont cairo_point_x cairo_point_y moveto } bind def
/Tf { pop /cairo_font exch def /cairo_font_matrix where
      { pop cairo_selectfont } if } bind def
/Td { matrix translate cairo_font_matrix matrix concatmatrix dup
      /cairo_font_matrix exch def dup 4 get exch 5 get cairo_store_point
      /cairo_font where { pop cairo_selectfont } if } bind def
/Tm { 2 copy 8 2 roll 6 array astore /cairo_font_matrix exch def
      cairo_store_point /cairo_font where { pop cairo_selectfont } if } bind def
/g { setgray } bind def
/rg { setrgbcolor } bind def
/d1 { setcachedevice } bind def
/cairo_data_source {
  CairoDataIndex CairoData length lt
    { CairoData CairoDataIndex get /CairoDataIndex CairoDataIndex 1 add def }
    { () } ifelse
} def
/cairo_flush_ascii85_file { cairo_ascii85_file status { cairo_ascii85_file flushfile } if } def
/cairo_image { image cairo_flush_ascii85_file } def
/cairo_imagemask { imagemask cairo_flush_ascii85_file } def
%%EndProlog
%%BeginSetup
%%EndSetup
%%Page: 1 1
%%BeginPageSetup
%%PageBoundingBox: 0 0 308 94
%%EndPageSetup
q 0 0 308 94 rectclip
1 0 0 -1 0 94 cm q
1 1 0.856471 rg
102.461 14.113 57.598 28.801 re f
0.517647 0 0 rg
0.72 w
1 J
1 j
[] 0.0 d
4 M q 1 0 0 1 0 0 cm
102.461 14.113 57.598 28.801 re S Q
0.432 w
q 1 0 0 1 0 0 cm
102.461 21.316 m 95.258 21.316 l S Q
0 0.517647 0.517647 rg
q 1 0 0 1 0 0 cm
104.402 19.301 m 105.629 22.898 l 106.852 19.301 l S Q
q 1 0 0 1 0 0 cm
108.004 22.898 m 108.004 19.301 l S Q
q 1 0 0 1 0 0 cm
109.73 22.898 m 109.73 19.301 l 111.82 22.898 l 111.82 19.301 l S Q
0.517647 0 0 rg
q 1 0 0 1 0 0 cm
99.867 20.379 m 97.777 20.379 l S Q
q 1 0 0 1 0 0 cm
98.859 20.379 m 98.859 16.777 l 98.5 17.281 l 98.141 17.645 l 97.777 17.785
 l S Q
q 1 0 0 1 0 0 cm
160.059 35.715 m 167.258 35.715 l S Q
0 0.517647 0.517647 rg
q 1 0 0 1 0 0 cm
149.617 33.699 m 150.34 33.699 l 150.629 33.914 l 150.988 34.203 l 151.203
 34.922 l 151.203 36.074 l 150.988 36.797 l 150.629 37.156 l 150.34 37.301
 l 149.617 37.301 l 149.258 37.156 l 148.973 36.797 l 148.754 36.074 l 148.754
 34.922 l 148.973 34.203 l 149.258 33.914 l 149.617 33.699 l S Q
q 1 0 0 1 0 0 cm
152.715 33.699 m 152.715 36.652 l 152.859 36.938 l 153.074 37.156 l 153.363
 37.301 l 154.082 37.301 l 154.441 37.156 l 154.586 36.938 l 154.805 36.652
 l 154.805 33.699 l S Q
q 1 0 0 1 0 0 cm
155.953 33.699 m 158.043 33.699 l S Q
q 1 0 0 1 0 0 cm
156.965 37.301 m 156.965 33.699 l S Q
0.517647 0 0 rg
q 1 0 0 1 0 0 cm
162.578 31.539 m 162.797 31.395 l 163.082 31.18 l 163.945 31.18 l 164.309
 31.395 l 164.449 31.539 l 164.668 31.898 l 164.668 32.188 l 164.449 32.762
 l 162.434 34.777 l 164.668 34.777 l S Q
q 1 0 0 1 0 0 cm
131.258 42.914 m 131.258 50.113 l S Q
0 0.517647 0.517647 rg
q 1 0 0 1 0 0 cm
129.461 38.449 m 129.242 38.813 l 129.242 39.316 l 129.461 39.82 l 129.746
 40.18 l 130.105 40.395 l 130.828 40.539 l 131.332 40.539 l 131.98 40.395
 l 132.34 40.18 l 132.699 39.82 l 132.844 39.316 l 132.844 39.027 l 132.699
 38.449 l 132.484 38.309 l 131.332 38.309 l 131.332 39.027 l S Q
q 1 0 0 1 0 0 cm
132.844 36.797 m 129.242 36.797 l 132.844 34.707 l 129.242 34.707 l S Q
q 1 0 0 1 0 0 cm
132.844 32.98 m 129.242 32.98 l 129.242 32.113 l 129.461 31.609 l 129.746
 31.25 l 130.105 31.105 l 130.828 30.965 l 131.332 30.965 l 131.98 31.105
 l 132.34 31.25 l 132.699 31.609 l 132.844 32.113 l 132.844 32.98 l S Q
0.517647 0 0 rg
q 1 0 0 1 0 0 cm
126.723 47.668 m 126.723 45.434 l 128.09 46.66 l 128.09 46.156 l 128.309
 45.797 l 128.449 45.652 l 128.813 45.434 l 129.676 45.434 l 129.965 45.652
 l 130.18 45.797 l 130.324 46.156 l 130.324 47.164 l 130.18 47.523 l 129.965
 47.668 l S Q
q 1 0 0 1 0 0 cm
160.059 21.316 m 167.258 21.316 l S Q
0 0.517647 0.517647 rg
q 1 0 0 1 0 0 cm
153.723 21.027 m 152.57 21.027 l S Q
q 1 0 0 1 0 0 cm
152.57 22.898 m 152.57 19.301 l 154.227 19.301 l S Q
q 1 0 0 1 0 0 cm
156.82 21.027 m 157.324 21.172 l 157.539 21.387 l 157.684 21.676 l 157.684
 22.25 l 157.539 22.539 l 157.324 22.754 l 156.965 22.898 l 155.594 22.898
 l 155.594 19.301 l 156.82 19.301 l 157.18 19.516 l 157.324 19.66 l 157.539
 20.02 l 157.539 20.309 l 157.324 20.668 l 157.18 20.883 l 156.82 21.027
 l 155.594 21.027 l S Q
0.517647 0 0 rg
q 1 0 0 1 0 0 cm
164.309 18.004 m 164.309 20.379 l S Q
q 1 0 0 1 0 0 cm
163.441 16.637 m 162.578 19.156 l 164.813 19.156 l S Q
q 1 0 0 1 0 0 cm
102.461 35.715 m 95.258 35.715 l S Q
0 0.517647 0.517647 rg
q 1 0 0 1 0 0 cm
104.113 32.691 m 107.859 32.691 l S Q
q 1 0 0 1 0 0 cm
105.629 33.699 m 106.273 33.699 l 106.637 33.914 l 106.996 34.203 l 107.141
 34.922 l 107.141 36.074 l 106.996 36.797 l 106.637 37.156 l 106.273 37.301
 l 105.629 37.301 l 105.266 37.156 l 104.906 36.797 l 104.762 36.074 l 104.762
 34.922 l 104.906 34.203 l 105.266 33.914 l 105.629 33.699 l S Q
q 1 0 0 1 0 0 cm
107.859 32.691 m 111.602 32.691 l S Q
q 1 0 0 1 0 0 cm
108.723 37.301 m 108.723 33.699 l 110.738 37.301 l 110.738 33.699 l S Q
q 1 0 0 1 0 0 cm
115.059 33.555 m 111.965 38.164 l S Q
q 1 0 0 1 0 0 cm
116.93 33.699 m 117.652 33.699 l 117.938 33.914 l 118.301 34.203 l 118.516
 34.922 l 118.516 36.074 l 118.301 36.797 l 117.938 37.156 l 117.652 37.301
 l 116.93 37.301 l 116.57 37.156 l 116.281 36.797 l 116.066 36.074 l 116.066
 34.922 l 116.281 34.203 l 116.57 33.914 l 116.93 33.699 l S Q
q 1 0 0 1 0 0 cm
121.25 35.426 m 120.027 35.426 l S Q
q 1 0 0 1 0 0 cm
120.027 37.301 m 120.027 33.699 l 121.754 33.699 l S Q
q 1 0 0 1 0 0 cm
124.273 35.426 m 123.125 35.426 l S Q
q 1 0 0 1 0 0 cm
123.125 37.301 m 123.125 33.699 l 124.852 33.699 l S Q
0.517647 0 0 rg
q 1 0 0 1 0 0 cm
99.652 31.18 m 97.996 31.18 l 97.777 32.906 l 97.996 32.762 l 98.281 32.547
 l 99.148 32.547 l 99.508 32.762 l 99.652 32.906 l 99.867 33.266 l 99.867
 34.133 l 99.652 34.418 l 99.508 34.637 l 99.148 34.777 l 98.281 34.777 
l 97.996 34.637 l 97.777 34.418 l S Q
0 0.517647 0.517647 rg
q 1 0 0 1 0 0 cm
128.449 0.219 m 128.449 3.172 l 128.668 3.461 l 128.813 3.676 l 129.172
 3.82 l 129.82 3.82 l 130.18 3.676 l 130.395 3.461 l 130.539 3.172 l 130.539
 0.219 l S Q
q 1 0 0 1 0 0 cm
132.051 0.578 m 132.266 0.434 l 132.629 0.219 l 133.418 0.219 l 133.777
 0.434 l 133.996 0.578 l 134.141 0.938 l 134.141 1.227 l 133.996 1.805 l
 131.906 3.82 l 134.141 3.82 l S Q
q 1 0 0 1 0 0 cm
115.203 10.371 m 113.477 10.371 l 113.477 6.77 l S Q
q 1 0 0 1 0 0 cm
116.426 10.371 m 116.426 6.77 l 117.578 9.363 l 118.805 6.77 l 118.805 
10.371 l S Q
q 1 0 0 1 0 0 cm
120.316 7.133 m 120.531 6.988 l 120.82 6.77 l 121.684 6.77 l 122.043 6.988
 l 122.258 7.133 l 122.402 7.492 l 122.402 7.777 l 122.258 8.355 l 120.172
 10.371 l 122.402 10.371 l S Q
q 1 0 0 1 0 0 cm
125.645 6.77 m 123.914 6.77 l 123.77 8.5 l 123.914 8.355 l 124.273 8.141
 l 125.141 8.141 l 125.5 8.355 l 125.645 8.5 l 125.859 8.859 l 125.859 9.723
 l 125.645 10.012 l 125.5 10.227 l 125.141 10.371 l 124.273 10.371 l 123.914
 10.227 l 123.77 10.012 l S Q
q 1 0 0 1 0 0 cm
127.516 10.371 m 128.234 10.371 l 128.594 10.227 l 128.738 10.012 l 129.098
 9.508 l 129.242 8.859 l 129.242 7.492 l 129.098 7.133 l 128.883 6.988 l
 128.594 6.77 l 127.875 6.77 l 127.516 6.988 l 127.371 7.133 l 127.227 7.492
 l 127.227 8.355 l 127.371 8.645 l 127.516 8.859 l 127.875 9.004 l 128.594
 9.004 l 128.883 8.859 l 129.098 8.645 l 129.242 8.355 l S Q
q 1 0 0 1 0 0 cm
132.34 6.77 m 131.617 6.77 l 131.332 6.988 l 131.113 7.133 l 130.828 7.637
 l 130.609 8.355 l 130.609 9.723 l 130.828 10.012 l 130.973 10.227 l 131.332
 10.371 l 131.98 10.371 l 132.34 10.227 l 132.484 10.012 l 132.699 9.723
 l 132.699 8.859 l 132.484 8.5 l 132.34 8.355 l 131.98 8.141 l 131.332 8.141
 l 130.973 8.355 l 130.828 8.5 l 130.609 8.859 l S Q
q 1 0 0 1 0 0 cm
134.066 10.227 m 134.57 10.371 l 135.434 10.371 l 135.797 10.227 l 135.938
 10.012 l 136.082 9.723 l 136.082 9.363 l 135.938 9.004 l 135.797 8.859 
l 135.434 8.645 l 134.715 8.5 l 134.426 8.355 l 134.211 8.141 l 134.066 
7.777 l 134.066 7.492 l 134.211 7.133 l 134.426 6.988 l 134.715 6.77 l 135.578
 6.77 l 136.082 6.988 l S Q
q 1 0 0 1 0 0 cm
137.668 9.004 m 140.402 9.004 l S Q
q 1 0 0 1 0 0 cm
141.77 6.77 m 144.004 6.77 l 142.777 8.141 l 143.281 8.141 l 143.645 8.355
 l 143.859 8.5 l 144.004 8.859 l 144.004 9.723 l 143.859 10.012 l 143.645
 10.227 l 143.281 10.371 l 142.273 10.371 l 141.914 10.227 l 141.77 10.012
 l S Q
q 1 0 0 1 0 0 cm
145.516 10.012 m 145.73 10.227 l 145.516 10.371 l 145.371 10.227 l 145.516
 10.012 l 145.516 10.371 l S Q
q 1 0 0 1 0 0 cm
146.883 6.77 m 149.113 6.77 l 147.965 8.141 l 148.469 8.141 l 148.828 8.355
 l 148.973 8.5 l 149.113 8.859 l 149.113 9.723 l 148.973 10.012 l 148.828
 10.227 l 148.469 10.371 l 147.461 10.371 l 147.098 10.227 l 146.883 10.012
 l S Q
0.517647 0 0 rg
q 1 0 0 1 0 0 cm
19.66 23.477 m 16.059 21.316 l h
19.66 23.477 m S Q
q 1 0 0 1 0 0 cm
23.258 21.316 m 16.059 21.316 l h
23.258 21.316 m S Q
q 1 0 0 1 0 0 cm
16.059 21.316 m 19.66 19.156 l h
16.059 21.316 m S Q
0 0.517647 0.517647 rg
q 1 0 0 1 0 0 cm
0.219 20.234 m 3.027 20.234 l S Q
q 1 0 0 1 0 0 cm
1.586 21.602 m 1.586 18.867 l S Q
q 1 0 0 1 0 0 cm
4.539 18.363 m 4.684 18.219 l 5.043 18.004 l 5.906 18.004 l 6.266 18.219
 l 6.41 18.363 l 6.629 18.723 l 6.629 19.012 l 6.41 19.586 l 4.395 21.602
 l 6.629 21.602 l S Q
q 1 0 0 1 0 0 cm
9.652 19.227 m 9.652 21.602 l S Q
q 1 0 0 1 0 0 cm
8.785 17.859 m 7.996 20.379 l 10.227 20.379 l S Q
q 1 0 0 1 0 0 cm
11.02 18.004 m 12.242 21.602 l 13.469 18.004 l S Q
0.517647 0 0 rg
q 1 0 0 1 0 0 cm
286.059 33.555 m 289.66 35.715 l h
286.059 33.555 m S Q
q 1 0 0 1 0 0 cm
282.461 35.715 m 289.66 35.715 l h
282.461 35.715 m S Q
q 1 0 0 1 0 0 cm
289.66 35.715 m 286.059 37.875 l h
289.66 35.715 m S Q
0 0.517647 0.517647 rg
q 1 0 0 1 0 0 cm
292.754 37.156 m 295.492 37.156 l S Q
q 1 0 0 1 0 0 cm
294.125 38.523 m 294.125 35.785 l S Q
q 1 0 0 1 0 0 cm
296.859 34.922 m 299.09 34.922 l 297.867 36.293 l 298.371 36.293 l 298.73
 36.508 l 298.875 36.652 l 299.09 37.012 l 299.09 37.875 l 298.875 38.164
 l 298.73 38.379 l 298.371 38.523 l 297.363 38.523 l 297.004 38.379 l 296.859
 38.164 l S Q
q 1 0 0 1 0 0 cm
300.602 38.164 m 300.746 38.379 l 300.602 38.523 l 300.461 38.379 l 300.602
 38.164 l 300.602 38.523 l S Q
q 1 0 0 1 0 0 cm
301.973 34.922 m 304.203 34.922 l 302.98 36.293 l 303.555 36.293 l 303.844
 36.508 l 304.059 36.652 l 304.203 37.012 l 304.203 37.875 l 304.059 38.164
 l 303.844 38.379 l 303.555 38.523 l 302.477 38.523 l 302.113 38.379 l 301.973
 38.164 l S Q
q 1 0 0 1 0 0 cm
305.211 34.922 m 306.434 38.523 l 307.66 34.922 l S Q
0.517647 0 0 rg
q 1 0 0 1 0 0 cm
185.258 78.914 m 185.258 82.516 l 188.859 82.516 l 185.258 86.113 l 181.66
 82.516 l 185.258 82.516 l h
185.258 78.914 m S Q
0 0.517647 0.517647 rg
q 1 0 0 1 0 0 cm
182.813 89.715 m 182.523 89.5 l 182.02 89.5 l 181.441 89.715 l 181.156 
90.004 l 180.938 90.363 l 180.797 91.082 l 180.797 91.586 l 180.938 92.234
 l 181.156 92.594 l 181.441 92.957 l 182.02 93.098 l 182.309 93.098 l 182.813
 92.957 l 183.027 92.738 l 183.027 91.586 l 182.309 91.586 l S Q
q 1 0 0 1 0 0 cm
184.539 93.098 m 184.539 89.5 l 186.629 93.098 l 186.629 89.5 l S Q
q 1 0 0 1 0 0 cm
188.355 93.098 m 188.355 89.5 l 189.219 89.5 l 189.723 89.715 l 190.012
 90.004 l 190.227 90.363 l 190.371 91.082 l 190.371 91.586 l 190.227 92.234
 l 190.012 92.594 l 189.723 92.957 l 189.219 93.098 l 188.355 93.098 l S Q
0.517647 0 0 rg
q 1 0 0 1 0 0 cm
131.258 78.914 m 131.258 82.516 l 134.859 82.516 l 131.258 86.113 l 127.66
 82.516 l 131.258 82.516 l h
131.258 78.914 m S Q
0 0.517647 0.517647 rg
q 1 0 0 1 0 0 cm
128.813 89.715 m 128.523 89.5 l 128.02 89.5 l 127.441 89.715 l 127.156 
90.004 l 126.938 90.363 l 126.797 91.082 l 126.797 91.586 l 126.938 92.234
 l 127.156 92.594 l 127.441 92.957 l 128.02 93.098 l 128.309 93.098 l 128.813
 92.957 l 129.027 92.738 l 129.027 91.586 l 128.309 91.586 l S Q
q 1 0 0 1 0 0 cm
130.539 93.098 m 130.539 89.5 l 132.629 93.098 l 132.629 89.5 l S Q
q 1 0 0 1 0 0 cm
134.355 93.098 m 134.355 89.5 l 135.219 89.5 l 135.723 89.715 l 136.012
 90.004 l 136.227 90.363 l 136.371 91.082 l 136.371 91.586 l 136.227 92.234
 l 136.012 92.594 l 135.723 92.957 l 135.219 93.098 l 134.355 93.098 l S Q
0 0.517647 0 rg
q 1 0 0 1 0 0 cm
23.258 21.316 m 41.258 21.316 l S Q
q 1 0 0 1 0 0 cm
41.258 21.316 m 41.258 50.113 l S Q
q 1 0 0 1 0 0 cm
41.258 21.316 m 95.258 21.316 l S Q
41.98 21.316 m 41.98 21.711 41.656 22.035 41.258 22.035 c 40.863 22.035
 40.539 21.711 40.539 21.316 c 40.539 20.918 40.863 20.594 41.258 20.594
 c 41.656 20.594 41.98 20.918 41.98 21.316 c h
41.98 21.316 m f
0.72 w
q 1 0 0 1 0 0 cm
41.98 21.316 m 41.98 21.711 41.656 22.035 41.258 22.035 c 40.863 22.035
 40.539 21.711 40.539 21.316 c 40.539 20.918 40.863 20.594 41.258 20.594
 c 41.656 20.594 41.98 20.918 41.98 21.316 c h
41.98 21.316 m S Q
0.517647 0 0 rg
0.432 w
q 1 0 0 1 0 0 cm
41.258 78.914 m 41.258 82.516 l 44.859 82.516 l 41.258 86.113 l 37.66 82.516
 l 41.258 82.516 l h
41.258 78.914 m S Q
0 0.517647 0.517647 rg
q 1 0 0 1 0 0 cm
38.813 89.715 m 38.523 89.5 l 38.02 89.5 l 37.441 89.715 l 37.156 90.004
 l 36.938 90.363 l 36.797 91.082 l 36.797 91.586 l 36.938 92.234 l 37.156
 92.594 l 37.441 92.957 l 38.02 93.098 l 38.309 93.098 l 38.813 92.957 l
 39.027 92.738 l 39.027 91.586 l 38.309 91.586 l S Q
q 1 0 0 1 0 0 cm
40.539 93.098 m 40.539 89.5 l 42.629 93.098 l 42.629 89.5 l S Q
q 1 0 0 1 0 0 cm
44.355 93.098 m 44.355 89.5 l 45.219 89.5 l 45.723 89.715 l 46.012 90.004
 l 46.227 90.363 l 46.371 91.082 l 46.371 91.586 l 46.227 92.234 l 46.012
 92.594 l 45.723 92.957 l 45.219 93.098 l 44.355 93.098 l S Q
0 0.517647 0 rg
q 1 0 0 1 0 0 cm
41.258 78.914 m 41.258 71.715 l S Q
0.517647 0 0 rg
q 1 0 0 1 0 0 cm
91.66 78.914 m 91.66 82.516 l 95.258 82.516 l 91.66 86.113 l 88.059 82.516
 l 91.66 82.516 l h
91.66 78.914 m S Q
0 0.517647 0.517647 rg
q 1 0 0 1 0 0 cm
89.211 89.715 m 88.922 89.5 l 88.418 89.5 l 87.844 89.715 l 87.555 90.004
 l 87.34 90.363 l 87.195 91.082 l 87.195 91.586 l 87.34 92.234 l 87.555 
92.594 l 87.844 92.957 l 88.418 93.098 l 88.707 93.098 l 89.211 92.957 l
 89.426 92.738 l 89.426 91.586 l 88.707 91.586 l S Q
q 1 0 0 1 0 0 cm
90.938 93.098 m 90.938 89.5 l 93.027 93.098 l 93.027 89.5 l S Q
q 1 0 0 1 0 0 cm
94.754 93.098 m 94.754 89.5 l 95.617 89.5 l 96.125 89.715 l 96.41 90.004
 l 96.629 90.363 l 96.77 91.082 l 96.77 91.586 l 96.629 92.234 l 96.41 92.594
 l 96.125 92.957 l 95.617 93.098 l 94.754 93.098 l S Q
0 0.517647 0 rg
q 1 0 0 1 0 0 cm
91.66 35.715 m 91.66 78.914 l S Q
q 1 0 0 1 0 0 cm
91.66 35.715 m 95.258 35.715 l S Q
q 1 0 0 1 0 0 cm
131.258 78.914 m 131.258 50.113 l S Q
0.517647 0 0 rg
q 1 0 0 1 0 0 cm
243.578 58.035 12.961 1.441 re S Q
243.578 62.355 12.961 1.441 re f
q 1 0 0 1 0 0 cm
243.578 62.355 12.961 1.441 re S Q
q 1 0 0 1 0 0 cm
245.02 54.434 m 247.898 54.434 l h
245.02 54.434 m S Q
q 1 0 0 1 0 0 cm
246.461 52.996 m 246.461 55.875 l h
246.461 52.996 m S Q
q 1 0 0 1 0 0 cm
250.059 58.035 m 250.059 50.113 l S Q
q 1 0 0 1 0 0 cm
250.059 63.797 m 250.059 71.715 l S Q
0 0.517647 0.517647 rg
q 1 0 0 1 0 0 cm
261.578 55.73 m 261.434 55.945 l 260.93 56.09 l 260.57 56.09 l 260.066 
55.945 l 259.707 55.586 l 259.563 55.227 l 259.348 54.578 l 259.348 54.074
 l 259.563 53.355 l 259.707 52.996 l 260.066 52.707 l 260.57 52.492 l 260.93
 52.492 l 261.434 52.707 l 261.578 52.852 l S Q
q 1 0 0 1 0 0 cm
265.035 56.09 m 262.945 56.09 l S Q
q 1 0 0 1 0 0 cm
264.027 56.09 m 264.027 52.492 l 263.668 52.996 l 263.309 53.355 l 262.945
 53.5 l S Q
q 1 0 0 1 0 0 cm
266.402 52.852 m 266.547 52.707 l 266.906 52.492 l 267.77 52.492 l 268.133
 52.707 l 268.273 52.852 l 268.492 53.211 l 268.492 53.5 l 268.273 54.074
 l 266.258 56.09 l 268.492 56.09 l S Q
q 1 0 0 1 0 0 cm
261.074 59.043 m 260.426 59.043 l 260.066 59.258 l 259.922 59.402 l 259.563
 59.906 l 259.348 60.629 l 259.348 61.996 l 259.563 62.281 l 259.707 62.5
 l 260.066 62.645 l 260.715 62.645 l 261.074 62.5 l 261.293 62.281 l 261.434
 61.996 l 261.434 61.133 l 261.293 60.77 l 261.074 60.629 l 260.715 60.41
 l 260.066 60.41 l 259.707 60.629 l 259.563 60.77 l 259.348 61.133 l S Q
q 1 0 0 1 0 0 cm
262.945 62.281 m 263.164 62.5 l 262.945 62.645 l 262.805 62.5 l 262.945
 62.281 l 262.945 62.645 l S Q
q 1 0 0 1 0 0 cm
264.316 59.043 m 266.547 59.043 l 265.395 60.41 l 265.898 60.41 l 266.258
 60.629 l 266.402 60.77 l 266.547 61.133 l 266.547 61.996 l 266.402 62.281
 l 266.258 62.5 l 265.898 62.645 l 264.891 62.645 l 264.531 62.5 l 264.316
 62.281 l S Q
q 1 0 0 1 0 0 cm
267.629 59.043 m 268.777 62.645 l 270.004 59.043 l S Q
q 1 0 0 1 0 0 cm
273.746 58.898 m 270.723 63.508 l S Q
q 1 0 0 1 0 0 cm
274.609 59.043 m 276.844 59.043 l 275.691 60.41 l 276.195 60.41 l 276.555
 60.629 l 276.699 60.77 l 276.844 61.133 l 276.844 61.996 l 276.699 62.281
 l 276.555 62.5 l 276.195 62.645 l 275.113 62.645 l 274.828 62.5 l 274.609
 62.281 l S Q
q 1 0 0 1 0 0 cm
278.066 59.043 m 280.301 59.043 l 279.074 60.41 l 279.578 60.41 l 279.938
 60.629 l 280.156 60.77 l 280.301 61.133 l 280.301 61.996 l 280.156 62.281
 l 279.938 62.5 l 279.578 62.645 l 278.57 62.645 l 278.211 62.5 l 278.066
 62.281 l S Q
q 1 0 0 1 0 0 cm
282.531 59.043 m 282.891 59.043 l 283.18 59.258 l 283.395 59.402 l 283.539
 59.762 l 283.754 60.41 l 283.754 61.273 l 283.539 61.996 l 283.395 62.281
 l 283.18 62.5 l 282.891 62.645 l 282.531 62.645 l 282.172 62.5 l 282.027
 62.281 l 281.813 61.996 l 281.668 61.273 l 281.668 60.41 l 281.813 59.762
 l 282.027 59.402 l 282.172 59.258 l 282.531 59.043 l S Q
q 1 0 0 1 0 0 cm
286.777 60.266 m 286.777 62.645 l S Q
q 1 0 0 1 0 0 cm
285.266 60.266 m 285.266 62.141 l 285.41 62.5 l 285.77 62.645 l 286.273
 62.645 l 286.637 62.5 l 286.777 62.281 l S Q
q 1 0 0 1 0 0 cm
289.73 60.77 m 288.508 60.77 l S Q
q 1 0 0 1 0 0 cm
288.508 62.645 m 288.508 59.043 l 290.234 59.043 l S Q
0.517647 0 0.517647 rg
q 1 0 0 1 0 0 cm
259.563 67.324 m 260.785 67.324 l S Q
q 1 0 0 1 0 0 cm
261.293 69.195 m 259.563 69.195 l 259.563 65.594 l 261.293 65.594 l S Q
q 1 0 0 1 0 0 cm
262.805 67.324 m 264.027 67.324 l S Q
q 1 0 0 1 0 0 cm
264.531 69.195 m 262.805 69.195 l 262.805 65.594 l 264.531 65.594 l S Q
q 1 0 0 1 0 0 cm
266.043 67.324 m 267.266 67.324 l S Q
q 1 0 0 1 0 0 cm
267.77 69.195 m 266.043 69.195 l 266.043 65.594 l 267.77 65.594 l S Q
q 1 0 0 1 0 0 cm
270.508 67.324 m 269.355 67.324 l S Q
q 1 0 0 1 0 0 cm
269.355 69.195 m 269.355 65.594 l 271.082 65.594 l S Q
q 1 0 0 1 0 0 cm
272.449 69.195 m 272.449 65.594 l S Q
q 1 0 0 1 0 0 cm
274.469 69.195 m 272.953 67.18 l S Q
q 1 0 0 1 0 0 cm
274.469 65.594 m 272.449 67.684 l S Q
q 1 0 0 1 0 0 cm
276.699 65.594 m 277.059 65.594 l 277.418 65.813 l 277.563 65.957 l 277.707
 66.316 l 277.922 66.965 l 277.922 67.828 l 277.707 68.547 l 277.563 68.836
 l 277.418 69.051 l 277.059 69.195 l 276.699 69.195 l 276.34 69.051 l 276.195
 68.836 l 276.051 68.547 l 275.836 67.828 l 275.836 66.965 l 276.051 66.316
 l 276.195 65.957 l 276.34 65.813 l 276.699 65.594 l S Q
q 1 0 0 1 0 0 cm
280.441 65.594 m 280.441 68.188 l 280.301 68.691 l 279.938 69.051 l 279.434
 69.195 l 279.074 69.195 l S Q
q 1 0 0 1 0 0 cm
281.883 65.594 m 284.043 65.594 l 282.891 66.965 l 283.395 66.965 l 283.754
 67.18 l 283.898 67.324 l 284.043 67.684 l 284.043 68.547 l 283.898 68.836
 l 283.754 69.051 l 283.395 69.195 l 282.387 69.195 l 282.027 69.051 l 281.883
 68.836 l S Q
q 1 0 0 1 0 0 cm
285.266 65.594 m 287.5 65.594 l 286.273 66.965 l 286.852 66.965 l 287.141
 67.18 l 287.355 67.324 l 287.5 67.684 l 287.5 68.547 l 287.355 68.836 l
 287.141 69.051 l 286.852 69.195 l 285.77 69.195 l 285.484 69.051 l 285.266
 68.836 l S Q
q 1 0 0 1 0 0 cm
290.953 69.195 m 288.867 69.195 l S Q
q 1 0 0 1 0 0 cm
289.875 69.195 m 289.875 65.594 l 289.586 66.098 l 289.227 66.461 l 288.867
 66.602 l S Q
q 1 0 0 1 0 0 cm
292.324 68.188 m 294.051 68.188 l S Q
q 1 0 0 1 0 0 cm
291.965 69.195 m 293.188 65.594 l 294.34 69.195 l S Q
q 1 0 0 1 0 0 cm
295.059 65.594 m 296.281 69.195 l 297.434 65.594 l S Q
0 0.517647 0 rg
q 1 0 0 1 0 0 cm
167.258 35.715 m 185.258 35.715 l S Q
q 1 0 0 1 0 0 cm
185.258 35.715 m 185.258 50.113 l S Q
185.98 35.715 m 185.98 36.113 185.656 36.434 185.258 36.434 c 184.863 36.434
 184.539 36.113 184.539 35.715 c 184.539 35.316 184.863 34.996 185.258 34.996
 c 185.656 34.996 185.98 35.316 185.98 35.715 c h
185.98 35.715 m f
0.72 w
q 1 0 0 1 0 0 cm
185.98 35.715 m 185.98 36.113 185.656 36.434 185.258 36.434 c 184.863 36.434
 184.539 36.113 184.539 35.715 c 184.539 35.316 184.863 34.996 185.258 34.996
 c 185.656 34.996 185.98 35.316 185.98 35.715 c h
185.98 35.715 m S Q
0.432 w
q 1 0 0 1 0 0 cm
185.258 35.715 m 203.258 35.715 l S Q
q 1 0 0 1 0 0 cm
185.258 71.715 m 185.258 78.914 l S Q
q 1 0 0 1 0 0 cm
224.859 35.715 m 250.059 35.715 l S Q
q 1 0 0 1 0 0 cm
250.059 35.715 m 250.059 50.113 l S Q
q 1 0 0 1 0 0 cm
167.258 21.316 m 250.059 21.316 l S Q
q 1 0 0 1 0 0 cm
250.059 21.316 m 250.059 35.715 l S Q
250.777 35.715 m 250.777 36.113 250.457 36.434 250.059 36.434 c 249.66 
36.434 249.34 36.113 249.34 35.715 c 249.34 35.316 249.66 34.996 250.059
 34.996 c 250.457 34.996 250.777 35.316 250.777 35.715 c h
250.777 35.715 m f
0.72 w
q 1 0 0 1 0 0 cm
250.777 35.715 m 250.777 36.113 250.457 36.434 250.059 36.434 c 249.66 
36.434 249.34 36.113 249.34 35.715 c 249.34 35.316 249.66 34.996 250.059
 34.996 c 250.457 34.996 250.777 35.316 250.777 35.715 c h
250.777 35.715 m S Q
0.517647 0 0 rg
0.432 w
q 1 0 0 1 0 0 cm
250.059 78.914 m 250.059 82.516 l 253.66 82.516 l 250.059 86.113 l 246.461
 82.516 l 250.059 82.516 l h
250.059 78.914 m S Q
0 0.517647 0.517647 rg
q 1 0 0 1 0 0 cm
247.609 89.715 m 247.324 89.5 l 246.82 89.5 l 246.242 89.715 l 245.953 
90.004 l 245.738 90.363 l 245.594 91.082 l 245.594 91.586 l 245.738 92.234
 l 245.953 92.594 l 246.242 92.957 l 246.82 93.098 l 247.105 93.098 l 247.609
 92.957 l 247.828 92.738 l 247.828 91.586 l 247.105 91.586 l S Q
q 1 0 0 1 0 0 cm
249.34 93.098 m 249.34 89.5 l 251.426 93.098 l 251.426 89.5 l S Q
q 1 0 0 1 0 0 cm
253.156 93.098 m 253.156 89.5 l 254.02 89.5 l 254.523 89.715 l 254.813 
90.004 l 255.027 90.363 l 255.172 91.082 l 255.172 91.586 l 255.027 92.234
 l 254.813 92.594 l 254.523 92.957 l 254.02 93.098 l 253.156 93.098 l S Q
0 0.517647 0 rg
q 1 0 0 1 0 0 cm
250.059 78.914 m 250.059 71.715 l S Q
q 1 0 0 1 0 0 cm
282.461 35.715 m 250.059 35.715 l S Q
0.517647 0 0 rg
q 1 0 0 1 0 0 cm
185.258 64.516 m 185.258 57.316 l h
185.258 64.516 m S Q
0.576 w
q 1 0 0 1 0 0 cm
188.859 64.516 m 181.66 64.516 l 185.258 57.316 l h
188.859 64.516 m S Q
q 1 0 0 1 0 0 cm
187.059 55.516 m 188.859 55.516 l 188.859 57.316 l 181.66 57.316 l 181.66
 59.113 l 183.461 59.113 l h
187.059 55.516 m S Q
0.432 w
q 1 0 0 1 0 0 cm
185.258 57.316 m 185.258 50.113 l S Q
q 1 0 0 1 0 0 cm
185.258 64.516 m 185.258 71.715 l S Q
0 0.517647 0.517647 rg
q 1 0 0 1 0 0 cm
192.027 56.09 m 192.027 52.492 l 192.891 52.492 l 193.395 52.707 l 193.684
 52.996 l 193.898 53.355 l 194.043 54.074 l 194.043 54.578 l 193.898 55.227
 l 193.684 55.586 l 193.395 55.945 l 192.891 56.09 l 192.027 56.09 l S Q
q 1 0 0 1 0 0 cm
197.5 56.09 m 195.41 56.09 l S Q
q 1 0 0 1 0 0 cm
196.492 56.09 m 196.492 52.492 l 196.133 52.996 l 195.77 53.355 l 195.41
 53.5 l S Q
q 1 0 0 1 0 0 cm
193.539 59.043 m 192.82 59.043 l 192.461 59.258 l 192.316 59.402 l 191.953
 59.906 l 191.813 60.629 l 191.813 61.996 l 191.953 62.281 l 192.172 62.5
 l 192.461 62.645 l 193.18 62.645 l 193.539 62.5 l 193.684 62.281 l 193.828
 61.996 l 193.828 61.133 l 193.684 60.77 l 193.539 60.629 l 193.18 60.41
 l 192.461 60.41 l 192.172 60.629 l 191.953 60.77 l 191.813 61.133 l S Q
q 1 0 0 1 0 0 cm
196.059 59.043 m 196.418 59.043 l 196.777 59.258 l 196.922 59.402 l 197.141
 59.762 l 197.281 60.41 l 197.281 61.273 l 197.141 61.996 l 196.922 62.281
 l 196.777 62.5 l 196.418 62.645 l 196.059 62.645 l 195.77 62.5 l 195.555
 62.281 l 195.41 61.996 l 195.195 61.273 l 195.195 60.41 l 195.41 59.762
 l 195.555 59.402 l 195.77 59.258 l 196.059 59.043 l S Q
q 1 0 0 1 0 0 cm
198.293 59.043 m 199.516 62.645 l 200.738 59.043 l S Q
q 1 0 0 1 0 0 cm
204.484 58.898 m 201.387 63.508 l S Q
q 1 0 0 1 0 0 cm
205.348 59.043 m 207.578 59.043 l 206.355 60.41 l 206.859 60.41 l 207.219
 60.629 l 207.434 60.77 l 207.578 61.133 l 207.578 61.996 l 207.434 62.281
 l 207.219 62.5 l 206.859 62.645 l 205.852 62.645 l 205.492 62.5 l 205.348
 62.281 l S Q
q 1 0 0 1 0 0 cm
209.09 62.281 m 209.309 62.5 l 209.09 62.645 l 208.945 62.5 l 209.09 62.281
 l 209.09 62.645 l S Q
q 1 0 0 1 0 0 cm
211.539 59.043 m 211.828 59.043 l 212.188 59.258 l 212.402 59.402 l 212.547
 59.762 l 212.691 60.41 l 212.691 61.273 l 212.547 61.996 l 212.402 62.281
 l 212.188 62.5 l 211.828 62.645 l 211.539 62.645 l 211.18 62.5 l 211.035
 62.281 l 210.82 61.996 l 210.676 61.273 l 210.676 60.41 l 210.82 59.762
 l 211.035 59.402 l 211.18 59.258 l 211.539 59.043 l S Q
q 1 0 0 1 0 0 cm
214.059 61.637 m 215.785 61.637 l S Q
q 1 0 0 1 0 0 cm
213.77 62.645 m 214.922 59.043 l 216.148 62.645 l S Q
0.517647 0 0.517647 rg
q 1 0 0 1 0 0 cm
191.594 65.594 m 194.043 69.195 l S Q
q 1 0 0 1 0 0 cm
194.043 65.594 m 191.594 69.195 l S Q
q 1 0 0 1 0 0 cm
196.563 67.324 m 197.066 67.469 l 197.281 67.684 l 197.426 67.973 l 197.426
 68.547 l 197.281 68.836 l 197.066 69.051 l 196.777 69.195 l 195.41 69.195
 l 195.41 65.594 l 196.563 65.594 l 196.922 65.813 l 197.066 65.957 l 197.281
 66.316 l 197.281 66.602 l 197.066 66.965 l 196.922 67.18 l 196.563 67.324
 l 195.41 67.324 l S Q
q 1 0 0 1 0 0 cm
198.797 69.051 m 199.301 69.195 l 200.164 69.195 l 200.523 69.051 l 200.668
 68.836 l 200.883 68.547 l 200.883 68.188 l 200.668 67.828 l 200.523 67.684
 l 200.164 67.469 l 199.516 67.324 l 199.156 67.18 l 199.012 66.965 l 198.797
 66.602 l 198.797 66.316 l 199.012 65.957 l 199.156 65.813 l 199.516 65.594
 l 200.379 65.594 l 200.883 65.813 l S Q
q 1 0 0 1 0 0 cm
202.035 65.594 m 204.266 65.594 l 203.113 66.965 l 203.617 66.965 l 203.98
 67.18 l 204.125 67.324 l 204.266 67.684 l 204.266 68.547 l 204.125 68.836
 l 203.98 69.051 l 203.617 69.195 l 202.609 69.195 l 202.25 69.051 l 202.035
 68.836 l S Q
q 1 0 0 1 0 0 cm
206.5 65.594 m 206.859 65.594 l 207.219 65.813 l 207.363 65.957 l 207.578
 66.316 l 207.723 66.965 l 207.723 67.828 l 207.578 68.547 l 207.363 68.836
 l 207.219 69.051 l 206.859 69.195 l 206.5 69.195 l 206.211 69.051 l 205.996
 68.836 l 205.852 68.547 l 205.637 67.828 l 205.637 66.965 l 205.852 66.316
 l 205.996 65.957 l 206.211 65.813 l 206.5 65.594 l S Q
q 1 0 0 1 0 0 cm
210.82 65.594 m 210.098 65.594 l 209.813 65.813 l 209.594 65.957 l 209.234
 66.461 l 209.09 67.18 l 209.09 68.547 l 209.234 68.836 l 209.449 69.051
 l 209.813 69.195 l 210.461 69.195 l 210.82 69.051 l 210.965 68.836 l 211.18
 68.547 l 211.18 67.684 l 210.965 67.324 l 210.82 67.18 l 210.461 66.965
 l 209.813 66.965 l 209.449 67.18 l 209.234 67.324 l 209.09 67.684 l S Q
q 1 0 0 1 0 0 cm
212.547 69.051 m 213.051 69.195 l 213.914 69.195 l 214.273 69.051 l 214.418
 68.836 l 214.563 68.547 l 214.563 68.188 l 214.418 67.828 l 214.273 67.684
 l 213.914 67.469 l 213.195 67.324 l 212.836 67.18 l 212.691 66.965 l 212.547
 66.602 l 212.547 66.316 l 212.691 65.957 l 212.836 65.813 l 213.195 65.594
 l 214.059 65.594 l 214.563 65.813 l S Q
q 1 0 0 1 0 0 cm
218.02 69.195 m 215.93 69.195 l S Q
q 1 0 0 1 0 0 cm
217.012 69.195 m 217.012 65.594 l 216.652 66.098 l 216.293 66.461 l 215.93
 66.602 l S Q
q 1 0 0 1 0 0 cm
219.242 65.594 m 221.617 65.594 l 220.035 69.195 l S Q
q 1 0 0 1 0 0 cm
225.074 69.195 m 223.852 67.469 l S Q
q 1 0 0 1 0 0 cm
222.988 69.195 m 222.988 65.594 l 224.355 65.594 l 224.715 65.813 l 224.859
 65.957 l 225.074 66.316 l 225.074 66.82 l 224.859 67.18 l 224.715 67.324
 l 224.355 67.469 l 222.988 67.469 l S Q
q 1 0 0 1 0 0 cm
226.586 67.828 m 229.324 67.828 l S Q
q 1 0 0 1 0 0 cm
232.922 65.813 m 232.563 65.594 l 232.059 65.594 l 231.555 65.813 l 231.195
 66.098 l 231.051 66.461 l 230.836 67.18 l 230.836 67.684 l 231.051 68.332
 l 231.195 68.691 l 231.555 69.051 l 232.059 69.195 l 232.418 69.195 l 232.922
 69.051 l 233.066 68.836 l 233.066 67.684 l 232.418 67.684 l S Q
0.517647 0 0 rg
q 1 0 0 1 0 0 cm
34.777 58.035 12.961 1.441 re S Q
34.777 62.355 12.961 1.441 re f
q 1 0 0 1 0 0 cm
34.777 62.355 12.961 1.441 re S Q
q 1 0 0 1 0 0 cm
36.219 54.434 m 39.098 54.434 l h
36.219 54.434 m S Q
q 1 0 0 1 0 0 cm
37.66 52.996 m 37.66 55.875 l h
37.66 52.996 m S Q
q 1 0 0 1 0 0 cm
41.258 58.035 m 41.258 50.113 l S Q
q 1 0 0 1 0 0 cm
41.258 63.797 m 41.258 71.715 l S Q
0 0.517647 0.517647 rg
q 1 0 0 1 0 0 cm
52.852 55.73 m 52.707 55.945 l 52.203 56.09 l 51.844 56.09 l 51.34 55.945
 l 50.98 55.586 l 50.836 55.227 l 50.617 54.578 l 50.617 54.074 l 50.836
 53.355 l 50.98 52.996 l 51.34 52.707 l 51.844 52.492 l 52.203 52.492 l 
52.707 52.707 l 52.852 52.852 l S Q
q 1 0 0 1 0 0 cm
56.309 56.09 m 54.219 56.09 l S Q
q 1 0 0 1 0 0 cm
55.301 56.09 m 55.301 52.492 l 54.938 52.996 l 54.578 53.355 l 54.219 53.5
 l S Q
q 1 0 0 1 0 0 cm
50.402 59.043 m 52.637 59.043 l 51.41 60.41 l 51.914 60.41 l 52.273 60.629
 l 52.492 60.77 l 52.637 61.133 l 52.637 61.996 l 52.492 62.281 l 52.273
 62.5 l 51.914 62.645 l 50.906 62.645 l 50.547 62.5 l 50.402 62.281 l S Q
q 1 0 0 1 0 0 cm
55.875 59.043 m 54.148 59.043 l 54.004 60.77 l 54.148 60.629 l 54.508 60.41
 l 55.371 60.41 l 55.73 60.629 l 55.875 60.77 l 56.09 61.133 l 56.09 61.996
 l 55.875 62.281 l 55.73 62.5 l 55.371 62.645 l 54.508 62.645 l 54.148 62.5
 l 54.004 62.281 l S Q
q 1 0 0 1 0 0 cm
57.098 59.043 m 58.25 62.645 l 59.477 59.043 l S Q
q 1 0 0 1 0 0 cm
63.293 58.898 m 60.195 63.508 l S Q
q 1 0 0 1 0 0 cm
64.082 59.043 m 66.316 59.043 l 65.164 60.41 l 65.668 60.41 l 66.027 60.629
 l 66.172 60.77 l 66.316 61.133 l 66.316 61.996 l 66.172 62.281 l 66.027
 62.5 l 65.668 62.645 l 64.66 62.645 l 64.301 62.5 l 64.082 62.281 l S Q
q 1 0 0 1 0 0 cm
67.539 59.043 m 69.77 59.043 l 68.547 60.41 l 69.051 60.41 l 69.41 60.629
 l 69.629 60.77 l 69.77 61.133 l 69.77 61.996 l 69.629 62.281 l 69.41 62.5
 l 69.051 62.645 l 68.043 62.645 l 67.684 62.5 l 67.539 62.281 l S Q
q 1 0 0 1 0 0 cm
72.004 59.043 m 72.363 59.043 l 72.652 59.258 l 72.867 59.402 l 73.012 
59.762 l 73.227 60.41 l 73.227 61.273 l 73.012 61.996 l 72.867 62.281 l 
72.652 62.5 l 72.363 62.645 l 72.004 62.645 l 71.645 62.5 l 71.5 62.281 
l 71.281 61.996 l 71.141 61.273 l 71.141 60.41 l 71.281 59.762 l 71.5 59.402
 l 71.645 59.258 l 72.004 59.043 l S Q
q 1 0 0 1 0 0 cm
76.25 60.266 m 76.25 62.645 l S Q
q 1 0 0 1 0 0 cm
74.738 60.266 m 74.738 62.141 l 74.883 62.5 l 75.242 62.645 l 75.746 62.645
 l 76.105 62.5 l 76.25 62.281 l S Q
q 1 0 0 1 0 0 cm
79.203 60.77 m 77.98 60.77 l S Q
q 1 0 0 1 0 0 cm
77.98 62.645 m 77.98 59.043 l 79.707 59.043 l S Q
0.517647 0 0.517647 rg
q 1 0 0 1 0 0 cm
50.762 67.324 m 51.988 67.324 l S Q
q 1 0 0 1 0 0 cm
52.492 69.195 m 50.762 69.195 l 50.762 65.594 l 52.492 65.594 l S Q
q 1 0 0 1 0 0 cm
54.074 67.324 m 55.227 67.324 l S Q
q 1 0 0 1 0 0 cm
55.805 69.195 m 54.074 69.195 l 54.074 65.594 l 55.805 65.594 l S Q
q 1 0 0 1 0 0 cm
57.316 67.324 m 58.539 67.324 l S Q
q 1 0 0 1 0 0 cm
59.043 69.195 m 57.316 69.195 l 57.316 65.594 l 59.043 65.594 l S Q
q 1 0 0 1 0 0 cm
61.777 67.324 m 60.555 67.324 l S Q
q 1 0 0 1 0 0 cm
60.555 69.195 m 60.555 65.594 l 62.281 65.594 l S Q
q 1 0 0 1 0 0 cm
63.652 69.195 m 63.652 65.594 l S Q
q 1 0 0 1 0 0 cm
65.738 69.195 m 64.156 67.18 l S Q
q 1 0 0 1 0 0 cm
65.738 65.594 m 63.652 67.684 l S Q
q 1 0 0 1 0 0 cm
69.125 69.195 m 67.105 69.195 l S Q
q 1 0 0 1 0 0 cm
68.113 69.195 m 68.113 65.594 l 67.754 66.098 l 67.395 66.461 l 67.105 
66.602 l S Q
q 1 0 0 1 0 0 cm
70.203 65.594 m 71.355 69.195 l 72.578 65.594 l S Q
q 1 0 0 1 0 0 cm
73.441 65.594 m 75.676 65.594 l 74.449 66.965 l 74.953 66.965 l 75.316 
67.18 l 75.461 67.324 l 75.676 67.684 l 75.676 68.547 l 75.461 68.836 l 
75.316 69.051 l 74.953 69.195 l 73.945 69.195 l 73.586 69.051 l 73.441 68.836
 l S Q
q 1 0 0 1 0 0 cm
76.828 65.594 m 79.059 65.594 l 77.906 66.965 l 78.41 66.965 l 78.77 67.18
 l 78.914 67.324 l 79.059 67.684 l 79.059 68.547 l 78.914 68.836 l 78.77
 69.051 l 78.41 69.195 l 77.402 69.195 l 77.043 69.051 l 76.828 68.836 l
 S Q
q 1 0 0 1 0 0 cm
82.516 69.195 m 80.426 69.195 l S Q
q 1 0 0 1 0 0 cm
81.508 69.195 m 81.508 65.594 l 81.148 66.098 l 80.785 66.461 l 80.426 
66.602 l S Q
q 1 0 0 1 0 0 cm
84.027 69.195 m 84.027 65.594 l 85.395 65.594 l 85.754 65.813 l 85.973 
65.957 l 86.113 66.316 l 86.113 66.82 l 85.973 67.18 l 85.754 67.324 l 85.395
 67.469 l 84.027 67.469 l S Q
0.517647 0 0 rg
q 1 0 0 1 0 0 cm
221.258 35.711 m 221.258 33.313 217.66 33.313 217.66 35.711 c S Q
q 1 0 0 1 0 0 cm
217.66 35.711 m 217.66 33.313 214.059 33.313 214.059 35.711 c S Q
q 1 0 0 1 0 0 cm
214.059 35.711 m 214.059 33.313 210.461 33.313 210.461 35.711 c S Q
q 1 0 0 1 0 0 cm
210.461 35.711 m 210.461 33.313 206.859 33.313 206.859 35.711 c S Q
q 1 0 0 1 0 0 cm
206.859 35.715 m 203.258 35.715 l S Q
q 1 0 0 1 0 0 cm
221.258 35.715 m 224.859 35.715 l S Q
0 0.517647 0.517647 rg
q 1 0 0 1 0 0 cm
213.41 29.883 m 211.684 29.883 l 211.684 26.281 l S Q
q 1 0 0 1 0 0 cm
214.418 26.645 m 214.637 26.5 l 214.996 26.281 l 215.859 26.281 l 216.148
 26.5 l 216.363 26.645 l 216.508 27.004 l 216.508 27.293 l 216.363 27.867
 l 214.273 29.883 l 216.508 29.883 l S Q
q 1 0 0 1 0 0 cm
192.531 40.684 m 190.805 40.684 l 190.805 37.082 l S Q
q 1 0 0 1 0 0 cm
195.266 38.309 m 195.266 40.684 l S Q
q 1 0 0 1 0 0 cm
194.402 36.938 m 193.539 39.461 l 195.77 39.461 l S Q
q 1 0 0 1 0 0 cm
197.859 37.082 m 198.148 37.082 l 198.508 37.301 l 198.723 37.441 l 198.867
 37.805 l 199.012 38.449 l 199.012 39.316 l 198.867 40.035 l 198.723 40.324
 l 198.508 40.539 l 198.148 40.684 l 197.859 40.684 l 197.5 40.539 l 197.355
 40.324 l 197.141 40.035 l 196.996 39.316 l 196.996 38.449 l 197.141 37.805
 l 197.355 37.441 l 197.5 37.301 l 197.859 37.082 l S Q
q 1 0 0 1 0 0 cm
203.188 36.938 m 200.09 41.547 l S Q
q 1 0 0 1 0 0 cm
203.98 37.082 m 206.211 37.082 l 205.059 38.449 l 205.563 38.449 l 205.922
 38.668 l 206.066 38.813 l 206.211 39.172 l 206.211 40.035 l 206.066 40.324
 l 205.922 40.539 l 205.563 40.684 l 204.555 40.684 l 204.195 40.539 l 203.98
 40.324 l S Q
q 1 0 0 1 0 0 cm
207.797 40.324 m 207.938 40.539 l 207.797 40.684 l 207.578 40.539 l 207.797
 40.324 l 207.797 40.684 l S Q
q 1 0 0 1 0 0 cm
209.164 37.082 m 211.395 37.082 l 210.172 38.449 l 210.676 38.449 l 211.035
 38.668 l 211.18 38.813 l 211.395 39.172 l 211.395 40.035 l 211.18 40.324
 l 211.035 40.539 l 210.676 40.684 l 209.668 40.684 l 209.309 40.539 l 209.164
 40.324 l S Q
q 1 0 0 1 0 0 cm
214.492 38.309 m 214.492 40.684 l S Q
q 1 0 0 1 0 0 cm
212.906 38.309 m 212.906 40.18 l 213.125 40.539 l 213.41 40.684 l 213.988
 40.684 l 214.273 40.539 l 214.492 40.324 l S Q
q 1 0 0 1 0 0 cm
216.148 40.684 m 216.148 37.082 l S Q
q 1 0 0 1 0 0 cm
216.148 38.813 m 218.234 38.813 l S Q
q 1 0 0 1 0 0 cm
218.234 40.684 m 218.234 37.082 l S Q
q 1 0 0 1 0 0 cm
222.555 36.938 m 219.461 41.547 l S Q
q 1 0 0 1 0 0 cm
223.348 37.082 m 225.578 37.082 l 224.426 38.449 l 224.93 38.449 l 225.293
 38.668 l 225.434 38.813 l 225.578 39.172 l 225.578 40.035 l 225.434 40.324
 l 225.293 40.539 l 224.93 40.684 l 223.922 40.684 l 223.563 40.539 l 223.348
 40.324 l S Q
q 1 0 0 1 0 0 cm
227.164 40.324 m 227.309 40.539 l 227.164 40.684 l 226.945 40.539 l 227.164
 40.324 l 227.164 40.684 l S Q
q 1 0 0 1 0 0 cm
230.547 37.082 m 228.891 37.082 l 228.676 38.813 l 228.891 38.668 l 229.18
 38.449 l 230.043 38.449 l 230.402 38.668 l 230.547 38.813 l 230.762 39.172
 l 230.762 40.035 l 230.547 40.324 l 230.402 40.539 l 230.043 40.684 l 229.18
 40.684 l 228.891 40.539 l 228.676 40.324 l S Q
q 1 0 0 1 0 0 cm
232.996 37.082 m 233.355 37.082 l 233.645 37.301 l 233.859 37.441 l 234.004
 37.805 l 234.148 38.449 l 234.148 39.316 l 234.004 40.035 l 233.859 40.324
 l 233.645 40.539 l 233.355 40.684 l 232.996 40.684 l 232.637 40.539 l 232.492
 40.324 l 232.273 40.035 l 232.133 39.316 l 232.133 38.449 l 232.273 37.805
 l 232.492 37.441 l 232.637 37.301 l 232.996 37.082 l S Q
q 1 0 0 1 0 0 cm
235.586 39.676 m 237.242 39.676 l S Q
q 1 0 0 1 0 0 cm
235.227 40.684 m 236.379 37.082 l 237.602 40.684 l S Q
0.517647 0 0.517647 rg
q 1 0 0 1 0 0 cm
191.953 47.738 m 192.461 47.883 l 193.324 47.883 l 193.609 47.738 l 193.828
 47.523 l 193.973 47.234 l 193.973 46.875 l 193.828 46.516 l 193.609 46.371
 l 193.324 46.156 l 192.602 46.012 l 192.242 45.867 l 192.098 45.652 l 191.953
 45.293 l 191.953 45.004 l 192.098 44.645 l 192.242 44.5 l 192.602 44.281
 l 193.469 44.281 l 193.973 44.5 l S Q
q 1 0 0 1 0 0 cm
197.57 47.883 m 196.348 46.156 l S Q
q 1 0 0 1 0 0 cm
195.555 47.883 m 195.555 44.281 l 196.922 44.281 l 197.211 44.5 l 197.426
 44.645 l 197.57 45.004 l 197.57 45.508 l 197.426 45.867 l 197.211 46.012
 l 196.922 46.156 l 195.555 46.156 l S Q
q 1 0 0 1 0 0 cm
201.172 47.883 m 199.945 46.156 l S Q
q 1 0 0 1 0 0 cm
199.156 47.883 m 199.156 44.281 l 200.523 44.281 l 200.813 44.5 l 201.027
 44.645 l 201.172 45.004 l 201.172 45.508 l 201.027 45.867 l 200.813 46.012
 l 200.523 46.156 l 199.156 46.156 l S Q
q 1 0 0 1 0 0 cm
204.266 44.281 m 203.547 44.281 l 203.258 44.5 l 203.043 44.645 l 202.754
 45.148 l 202.539 45.867 l 202.539 47.234 l 202.754 47.523 l 202.898 47.738
 l 203.258 47.883 l 203.906 47.883 l 204.266 47.738 l 204.41 47.523 l 204.629
 47.234 l 204.629 46.371 l 204.41 46.012 l 204.266 45.867 l 203.906 45.652
 l 203.258 45.652 l 202.898 45.867 l 202.754 46.012 l 202.539 46.371 l S Q
q 1 0 0 1 0 0 cm
206.859 44.281 m 207.148 44.281 l 207.508 44.5 l 207.723 44.645 l 207.867
 45.004 l 208.012 45.652 l 208.012 46.516 l 207.867 47.234 l 207.723 47.523
 l 207.508 47.738 l 207.148 47.883 l 206.859 47.883 l 206.5 47.738 l 206.355
 47.523 l 206.141 47.234 l 205.996 46.516 l 205.996 45.652 l 206.141 45.004
 l 206.355 44.645 l 206.5 44.5 l 206.859 44.281 l S Q
q 1 0 0 1 0 0 cm
211.105 45.508 m 211.105 47.883 l S Q
q 1 0 0 1 0 0 cm
210.242 44.141 m 209.379 46.66 l 211.609 46.66 l S Q
q 1 0 0 1 0 0 cm
213.699 44.281 m 214.059 44.281 l 214.348 44.5 l 214.563 44.645 l 214.707
 45.004 l 214.922 45.652 l 214.922 46.516 l 214.707 47.234 l 214.563 47.523
 l 214.348 47.738 l 214.059 47.883 l 213.699 47.883 l 213.34 47.738 l 213.195
 47.523 l 212.98 47.234 l 212.836 46.516 l 212.836 45.652 l 212.98 45.004
 l 213.195 44.645 l 213.34 44.5 l 213.699 44.281 l S Q
q 1 0 0 1 0 0 cm
216.293 46.875 m 217.945 46.875 l S Q
q 1 0 0 1 0 0 cm
215.93 47.883 m 217.156 44.281 l 218.309 47.883 l S Q
q 1 0 0 1 0 0 cm
219.531 46.516 m 222.266 46.516 l S Q
q 1 0 0 1 0 0 cm
223.637 44.281 m 225.867 44.281 l 224.645 45.652 l 225.148 45.652 l 225.508
 45.867 l 225.723 46.012 l 225.867 46.371 l 225.867 47.234 l 225.723 47.523
 l 225.508 47.738 l 225.148 47.883 l 224.141 47.883 l 223.777 47.738 l 223.637
 47.523 l S Q
q 1 0 0 1 0 0 cm
229.469 47.883 m 228.242 46.156 l S Q
q 1 0 0 1 0 0 cm
227.379 47.883 m 227.379 44.281 l 228.746 44.281 l 229.105 44.5 l 229.324
 44.645 l 229.469 45.004 l 229.469 45.508 l 229.324 45.867 l 229.105 46.012
 l 228.746 46.156 l 227.379 46.156 l S Q
q 1 0 0 1 0 0 cm
231.699 44.281 m 232.059 44.281 l 232.348 44.5 l 232.563 44.645 l 232.707
 45.004 l 232.922 45.652 l 232.922 46.516 l 232.707 47.234 l 232.563 47.523
 l 232.348 47.738 l 232.059 47.883 l 231.699 47.883 l 231.34 47.738 l 231.195
 47.523 l 230.98 47.234 l 230.836 46.516 l 230.836 45.652 l 230.98 45.004
 l 231.195 44.645 l 231.34 44.5 l 231.699 44.281 l S Q
q 1 0 0 1 0 0 cm
235.156 46.156 m 235.156 47.883 l S Q
q 1 0 0 1 0 0 cm
233.93 44.281 m 235.156 46.156 l 236.309 44.281 l S Q
Q Q
showpage
%%Trailer
end
%%EOF
