%!PS-Adobe-3.0 EPSF-3.0
%%Creator: cairo 1.16.0 (https://cairographics.org)
%%CreationDate: Sat May 11 02:03:36 2019
%%Pages: 1
%%DocumentData: Clean7Bit
%%LanguageLevel: 2
%%BoundingBox: 0 0 125 61
%%EndComments
%%BeginProlog
50 dict begin
/q { gsave } bind def
/Q { grestore } bind def
/cm { 6 array astore concat } bind def
/w { setlinewidth } bind def
/J { setlinecap } bind def
/j { setlinejoin } bind def
/M { setmiterlimit } bind def
/d { setdash } bind def
/m { moveto } bind def
/l { lineto } bind def
/c { curveto } bind def
/h { closepath } bind def
/re { exch dup neg 3 1 roll 5 3 roll moveto 0 rlineto
      0 exch rlineto 0 rlineto closepath } bind def
/S { stroke } bind def
/f { fill } bind def
/f* { eofill } bind def
/n { newpath } bind def
/W { clip } bind def
/W* { eoclip } bind def
/BT { } bind def
/ET { } bind def
/BDC { mark 3 1 roll /BDC pdfmark } bind def
/EMC { mark /EMC pdfmark } bind def
/cairo_store_point { /cairo_point_y exch def /cairo_point_x exch def } def
/Tj { show currentpoint cairo_store_point } bind def
/TJ {
  {
    dup
    type /stringtype eq
    { show } { -0.001 mul 0 cairo_font_matrix dtransform rmoveto } ifelse
  } forall
  currentpoint cairo_store_point
} bind def
/cairo_selectfont { cairo_font_matrix aload pop pop pop 0 0 6 array astore
    cairo_font exch selectfont cairo_point_x cairo_point_y moveto } bind def
/Tf { pop /cairo_font exch def /cairo_font_matrix where
      { pop cairo_selectfont } if } bind def
/Td { matrix translate cairo_font_matrix matrix concatmatrix dup
      /cairo_font_matrix exch def dup 4 get exch 5 get cairo_store_point
      /cairo_font where { pop cairo_selectfont } if } bind def
/Tm { 2 copy 8 2 roll 6 array astore /cairo_font_matrix exch def
      cairo_store_point /cairo_font where { pop cairo_selectfont } if } bind def
/g { setgray } bind def
/rg { setrgbcolor } bind def
/d1 { setcachedevice } bind def
/cairo_data_source {
  CairoDataIndex CairoData length lt
    { CairoData CairoDataIndex get /CairoDataIndex CairoDataIndex 1 add def }
    { () } ifelse
} def
/cairo_flush_ascii85_file { cairo_ascii85_file status { cairo_ascii85_file flushfile } if } def
/cairo_image { image cairo_flush_ascii85_file } def
/cairo_imagemask { imagemask cairo_flush_ascii85_file } def
%%EndProlog
%%BeginSetup
%%EndSetup
%%Page: 1 1
%%BeginPageSetup
%%PageBoundingBox: 0 0 125 61
%%EndPageSetup
q 0 0 125 61 rectclip
1 0 0 -1 0 61 cm q
0.517647 0 0 rg
0.936 w
1 J
1 j
[] 0.0 d
4 M q 1 0 0 1 0 0 cm
81.578 51.77 m 81.578 60.406 l h
81.578 51.77 m S Q
0.864 w
q 1 0 0 1 0 0 cm
84.461 51.77 m 84.461 60.406 l h
84.461 51.77 m S Q
0.432 w
q 1 0 0 1 0 0 cm
84.461 56.09 m 90.219 56.09 l S Q
q 1 0 0 1 0 0 cm
81.578 56.09 m 75.82 56.09 l S Q
0 0.517647 0.517647 rg
q 1 0 0 1 0 0 cm
82.371 40.969 m 82.227 41.184 l 81.723 41.328 l 81.363 41.328 l 80.859 
41.184 l 80.5 40.824 l 80.355 40.465 l 80.141 39.816 l 80.141 39.313 l 80.355
 38.594 l 80.5 38.23 l 80.859 37.945 l 81.363 37.727 l 81.723 37.727 l 82.227
 37.945 l 82.371 38.09 l S Q
q 1 0 0 1 0 0 cm
83.594 37.727 m 85.828 37.727 l 84.602 39.098 l 85.105 39.098 l 85.469 
39.313 l 85.609 39.457 l 85.828 39.816 l 85.828 40.68 l 85.609 40.969 l 
85.469 41.184 l 85.105 41.328 l 84.098 41.328 l 83.738 41.184 l 83.594 40.969
 l S Q
q 1 0 0 1 0 0 cm
77.617 44.641 m 77.762 44.496 l 78.125 44.281 l 78.988 44.281 l 79.273 
44.496 l 79.492 44.641 l 79.637 45 l 79.637 45.289 l 79.492 45.863 l 77.402
 47.879 l 79.637 47.879 l S Q
q 1 0 0 1 0 0 cm
81.867 44.281 m 82.227 44.281 l 82.586 44.496 l 82.73 44.641 l 82.875 45
 l 83.09 45.648 l 83.09 46.512 l 82.875 47.23 l 82.73 47.52 l 82.586 47.734
 l 82.227 47.879 l 81.867 47.879 l 81.508 47.734 l 81.363 47.52 l 81.219
 47.23 l 81.004 46.512 l 81.004 45.648 l 81.219 45 l 81.363 44.641 l 81.508
 44.496 l 81.867 44.281 l S Q
q 1 0 0 1 0 0 cm
84.602 45.504 m 84.602 49.105 l S Q
q 1 0 0 1 0 0 cm
84.602 45.648 m 84.965 45.504 l 85.609 45.504 l 85.973 45.648 l 86.188 
45.863 l 86.332 46.152 l 86.332 47.23 l 86.188 47.52 l 85.973 47.734 l 85.609
 47.879 l 84.965 47.879 l 84.602 47.734 l S Q
q 1 0 0 1 0 0 cm
87.34 45.504 m 88.707 45.504 l S Q
q 1 0 0 1 0 0 cm
87.844 47.879 m 87.844 44.785 l 88.059 44.496 l 88.418 44.281 l 88.707 
44.281 l S Q
0 0.517647 0 rg
q 1 0 0 1 0 0 cm
0.219 56.09 m 65.02 56.09 l S Q
q 1 0 0 1 0 0 cm
65.02 56.09 m 65.02 45.289 l S Q
65.738 56.09 m 65.738 56.484 65.418 56.809 65.02 56.809 c 64.621 56.809
 64.301 56.484 64.301 56.09 c 64.301 55.691 64.621 55.367 65.02 55.367 c
 65.418 55.367 65.738 55.691 65.738 56.09 c h
65.738 56.09 m f
0.72 w
q 1 0 0 1 0 0 cm
65.738 56.09 m 65.738 56.484 65.418 56.809 65.02 56.809 c 64.621 56.809
 64.301 56.484 64.301 56.09 c 64.301 55.691 64.621 55.367 65.02 55.367 c
 65.418 55.367 65.738 55.691 65.738 56.09 c h
65.738 56.09 m S Q
0.432 w
q 1 0 0 1 0 0 cm
65.02 56.09 m 75.82 56.09 l S Q
0.517647 0 0 rg
q 1 0 0 1 0 0 cm
104.617 56.09 m 108.219 56.09 l 108.219 52.488 l 111.82 56.09 l 108.219
 59.688 l 108.219 56.09 l h
104.617 56.09 m S Q
0 0.517647 0.517647 rg
q 1 0 0 1 0 0 cm
116.715 53.711 m 116.426 53.496 l 115.922 53.496 l 115.348 53.711 l 115.059
 54 l 114.844 54.359 l 114.699 55.078 l 114.699 55.582 l 114.844 56.23 l
 115.059 56.594 l 115.348 56.953 l 115.922 57.098 l 116.211 57.098 l 116.715
 56.953 l 116.93 56.734 l 116.93 55.582 l 116.211 55.582 l S Q
q 1 0 0 1 0 0 cm
118.441 57.098 m 118.441 53.496 l 120.531 57.098 l 120.531 53.496 l S Q
q 1 0 0 1 0 0 cm
122.258 57.098 m 122.258 53.496 l 123.121 53.496 l 123.629 53.711 l 123.914
 54 l 124.133 54.359 l 124.273 55.078 l 124.273 55.582 l 124.133 56.23 l
 123.914 56.594 l 123.629 56.953 l 123.121 57.098 l 122.258 57.098 l S Q
0 0.517647 0 rg
q 1 0 0 1 0 0 cm
104.617 56.09 m 90.219 56.09 l S Q
0 g
q 1 0 0 1 0 0 cm
1.945 51.551 m 2.594 51.551 l 2.953 51.77 l 3.316 52.055 l 3.461 52.777
 l 3.461 53.93 l 3.316 54.648 l 2.953 55.008 l 2.594 55.152 l 1.945 55.152
 l 1.586 55.008 l 1.227 54.648 l 1.082 53.93 l 1.082 52.777 l 1.227 52.055
 l 1.586 51.77 l 1.945 51.551 l S Q
q 1 0 0 1 0 0 cm
4.828 55.008 m 5.402 55.152 l 6.195 55.152 l 6.555 55.008 l 6.77 54.793
 l 6.914 54.504 l 6.914 54.145 l 6.77 53.785 l 6.555 53.641 l 6.195 53.426
 l 5.547 53.281 l 5.188 53.137 l 5.043 52.922 l 4.828 52.559 l 4.828 52.273
 l 5.043 51.91 l 5.188 51.77 l 5.547 51.551 l 6.41 51.551 l 6.914 51.77 
l S Q
q 1 0 0 1 0 0 cm
10.516 54.793 m 10.371 55.008 l 9.797 55.152 l 9.508 55.152 l 9.004 55.008
 l 8.645 54.648 l 8.426 54.289 l 8.281 53.641 l 8.281 53.137 l 8.426 52.414
 l 8.645 52.055 l 9.004 51.77 l 9.508 51.551 l 9.797 51.551 l 10.371 51.77
 l 10.516 51.91 l S Q
q 1 0 0 1 0 0 cm
11.234 55.512 m 13.973 55.512 l S Q
q 1 0 0 1 0 0 cm
14.836 55.152 m 14.836 51.551 l S Q
q 1 0 0 1 0 0 cm
16.492 55.152 m 16.492 51.551 l 18.578 55.152 l 18.578 51.551 l S Q
0.517647 0 0 rg
0.936 w
q 1 0 0 1 0 0 cm
81.578 15.77 m 81.578 24.406 l h
81.578 15.77 m S Q
0.864 w
q 1 0 0 1 0 0 cm
84.461 15.77 m 84.461 24.406 l h
84.461 15.77 m S Q
0.432 w
q 1 0 0 1 0 0 cm
84.461 20.09 m 90.219 20.09 l S Q
q 1 0 0 1 0 0 cm
81.578 20.09 m 75.82 20.09 l S Q
0 0.517647 0.517647 rg
q 1 0 0 1 0 0 cm
82.371 3.457 m 82.227 3.672 l 81.723 3.816 l 81.363 3.816 l 80.859 3.672
 l 80.5 3.313 l 80.355 2.953 l 80.141 2.305 l 80.141 1.801 l 80.355 1.078
 l 80.5 0.719 l 80.859 0.434 l 81.363 0.215 l 81.723 0.215 l 82.227 0.434
 l 82.371 0.574 l S Q
q 1 0 0 1 0 0 cm
83.738 0.574 m 83.953 0.434 l 84.242 0.215 l 85.105 0.215 l 85.469 0.434
 l 85.609 0.574 l 85.828 0.938 l 85.828 1.223 l 85.609 1.801 l 83.594 3.816
 l 85.828 3.816 l S Q
q 1 0 0 1 0 0 cm
77.617 7.777 m 77.762 7.633 l 78.125 7.414 l 78.988 7.414 l 79.273 7.633
 l 79.492 7.777 l 79.637 8.137 l 79.637 8.426 l 79.492 9 l 77.402 11.016
 l 79.637 11.016 l S Q
q 1 0 0 1 0 0 cm
81.867 7.414 m 82.227 7.414 l 82.586 7.633 l 82.73 7.777 l 82.875 8.137
 l 83.09 8.785 l 83.09 9.648 l 82.875 10.367 l 82.73 10.656 l 82.586 10.871
 l 82.227 11.016 l 81.867 11.016 l 81.508 10.871 l 81.363 10.656 l 81.219
 10.367 l 81.004 9.648 l 81.004 8.785 l 81.219 8.137 l 81.363 7.777 l 81.508
 7.633 l 81.867 7.414 l S Q
q 1 0 0 1 0 0 cm
84.602 8.641 m 84.602 12.238 l S Q
q 1 0 0 1 0 0 cm
84.602 8.785 m 84.965 8.641 l 85.609 8.641 l 85.973 8.785 l 86.188 9 l 
86.332 9.289 l 86.332 10.367 l 86.188 10.656 l 85.973 10.871 l 85.609 11.016
 l 84.965 11.016 l 84.602 10.871 l S Q
q 1 0 0 1 0 0 cm
87.34 8.641 m 88.707 8.641 l S Q
q 1 0 0 1 0 0 cm
87.844 11.016 m 87.844 7.922 l 88.059 7.633 l 88.418 7.414 l 88.707 7.414
 l S Q
0 g
q 1 0 0 1 0 0 cm
1.945 15.551 m 2.594 15.551 l 2.953 15.77 l 3.316 16.055 l 3.461 16.777
 l 3.461 17.93 l 3.316 18.648 l 2.953 19.008 l 2.594 19.152 l 1.945 19.152
 l 1.586 19.008 l 1.227 18.648 l 1.082 17.93 l 1.082 16.777 l 1.227 16.055
 l 1.586 15.77 l 1.945 15.551 l S Q
q 1 0 0 1 0 0 cm
4.828 19.008 m 5.402 19.152 l 6.195 19.152 l 6.555 19.008 l 6.77 18.793
 l 6.914 18.504 l 6.914 18.145 l 6.77 17.785 l 6.555 17.641 l 6.195 17.426
 l 5.547 17.281 l 5.188 17.137 l 5.043 16.922 l 4.828 16.559 l 4.828 16.273
 l 5.043 15.91 l 5.188 15.77 l 5.547 15.551 l 6.41 15.551 l 6.914 15.77 
l S Q
q 1 0 0 1 0 0 cm
10.516 18.793 m 10.371 19.008 l 9.797 19.152 l 9.508 19.152 l 9.004 19.008
 l 8.645 18.648 l 8.426 18.289 l 8.281 17.641 l 8.281 17.137 l 8.426 16.414
 l 8.645 16.055 l 9.004 15.77 l 9.508 15.551 l 9.797 15.551 l 10.371 15.77
 l 10.516 15.91 l S Q
q 1 0 0 1 0 0 cm
11.234 19.512 m 13.973 19.512 l S Q
q 1 0 0 1 0 0 cm
15.484 15.551 m 16.203 15.551 l 16.492 15.77 l 16.852 16.055 l 16.996 16.777
 l 16.996 17.93 l 16.852 18.648 l 16.492 19.008 l 16.203 19.152 l 15.484
 19.152 l 15.125 19.008 l 14.836 18.648 l 14.617 17.93 l 14.617 16.777 l
 14.836 16.055 l 15.125 15.77 l 15.484 15.551 l S Q
q 1 0 0 1 0 0 cm
18.578 15.551 m 18.578 18.504 l 18.723 18.793 l 18.938 19.008 l 19.227 
19.152 l 19.945 19.152 l 20.309 19.008 l 20.449 18.793 l 20.594 18.504 l
 20.594 15.551 l S Q
q 1 0 0 1 0 0 cm
21.82 15.551 m 23.906 15.551 l S Q
q 1 0 0 1 0 0 cm
22.828 19.152 m 22.828 15.551 l S Q
0 0.517647 0 rg
q 1 0 0 1 0 0 cm
65.02 20.09 m 65.02 30.887 l S Q
65.738 20.09 m 65.738 20.484 65.418 20.809 65.02 20.809 c 64.621 20.809
 64.301 20.484 64.301 20.09 c 64.301 19.691 64.621 19.367 65.02 19.367 c
 65.418 19.367 65.738 19.691 65.738 20.09 c h
65.738 20.09 m f
0.72 w
q 1 0 0 1 0 0 cm
65.738 20.09 m 65.738 20.484 65.418 20.809 65.02 20.809 c 64.621 20.809
 64.301 20.484 64.301 20.09 c 64.301 19.691 64.621 19.367 65.02 19.367 c
 65.418 19.367 65.738 19.691 65.738 20.09 c h
65.738 20.09 m S Q
0.432 w
q 1 0 0 1 0 0 cm
65.02 20.09 m 75.82 20.09 l S Q
0.517647 0 0 rg
q 1 0 0 1 0 0 cm
104.617 20.09 m 108.219 20.09 l 108.219 16.488 l 111.82 20.09 l 108.219
 23.688 l 108.219 20.09 l h
104.617 20.09 m S Q
0 0.517647 0.517647 rg
q 1 0 0 1 0 0 cm
116.715 17.711 m 116.426 17.496 l 115.922 17.496 l 115.348 17.711 l 115.059
 18 l 114.844 18.359 l 114.699 19.078 l 114.699 19.586 l 114.844 20.23 l
 115.059 20.594 l 115.348 20.953 l 115.922 21.098 l 116.211 21.098 l 116.715
 20.953 l 116.93 20.734 l 116.93 19.586 l 116.211 19.586 l S Q
q 1 0 0 1 0 0 cm
118.441 21.098 m 118.441 17.496 l 120.531 21.098 l 120.531 17.496 l S Q
q 1 0 0 1 0 0 cm
122.258 21.098 m 122.258 17.496 l 123.121 17.496 l 123.629 17.711 l 123.914
 18 l 124.133 18.359 l 124.273 19.078 l 124.273 19.586 l 124.133 20.23 l
 123.914 20.594 l 123.629 20.953 l 123.121 21.098 l 122.258 21.098 l S Q
0 0.517647 0 rg
q 1 0 0 1 0 0 cm
104.617 20.09 m 90.219 20.09 l S Q
0.517647 0 0 rg
0.576 w
q 1 0 0 1 0 0 cm
31.18 17.93 10.078 4.316 re S Q
0.432 w
q 1 0 0 1 0 0 cm
41.258 20.09 m 43.418 20.09 l S Q
q 1 0 0 1 0 0 cm
31.18 20.09 m 29.02 20.09 l S Q
0 0.517647 0.517647 rg
q 1 0 0 1 0 0 cm
35.57 7.414 m 34.418 5.688 l S Q
q 1 0 0 1 0 0 cm
33.555 7.414 m 33.555 3.816 l 34.922 3.816 l 35.211 4.031 l 35.426 4.176
 l 35.57 4.535 l 35.57 5.039 l 35.426 5.398 l 35.211 5.543 l 34.922 5.688
 l 33.555 5.688 l S Q
q 1 0 0 1 0 0 cm
39.027 7.414 m 36.938 7.414 l S Q
q 1 0 0 1 0 0 cm
38.02 7.414 m 38.02 3.816 l 37.66 4.32 l 37.301 4.68 l 36.938 4.824 l S Q
q 1 0 0 1 0 0 cm
31.754 11.375 m 31.898 11.23 l 32.258 11.016 l 33.125 11.016 l 33.41 11.23
 l 33.629 11.375 l 33.77 11.734 l 33.77 12.023 l 33.629 12.602 l 31.539 
14.617 l 33.77 14.617 l S Q
q 1 0 0 1 0 0 cm
35.141 11.375 m 35.355 11.23 l 35.645 11.016 l 36.508 11.016 l 36.867 11.23
 l 37.012 11.375 l 37.227 11.734 l 37.227 12.023 l 37.012 12.602 l 34.996
 14.617 l 37.227 14.617 l S Q
q 1 0 0 1 0 0 cm
39.461 11.016 m 39.82 11.016 l 40.105 11.23 l 40.324 11.375 l 40.469 11.734
 l 40.609 12.383 l 40.609 13.246 l 40.469 13.969 l 40.324 14.258 l 40.105
 14.473 l 39.82 14.617 l 39.461 14.617 l 39.098 14.473 l 38.953 14.258 l
 38.738 13.969 l 38.594 13.246 l 38.594 12.383 l 38.738 11.734 l 38.953 
11.375 l 39.098 11.23 l 39.461 11.016 l S Q
0 0.517647 0 rg
q 1 0 0 1 0 0 cm
43.418 20.09 m 65.02 20.09 l S Q
q 1 0 0 1 0 0 cm
0.219 20.09 m 29.02 20.09 l S Q
0.517647 0 0 rg
q 1 0 0 1 0 0 cm
60.699 35.93 8.641 4.316 re S Q
1.08 w
q 1 0 0 1 0 0 cm
62.859 34.488 m 67.18 34.488 l h
62.859 34.488 m S Q
q 1 0 0 1 0 0 cm
62.859 41.688 m 67.18 41.688 l h
62.859 41.688 m S Q
0.432 w
q 1 0 0 1 0 0 cm
65.02 34.488 m 65.02 30.887 l S Q
q 1 0 0 1 0 0 cm
65.02 41.688 m 65.02 45.289 l S Q
0 0.517647 0.517647 rg
q 1 0 0 1 0 0 cm
52.637 30.887 m 52.637 32.617 l S Q
q 1 0 0 1 0 0 cm
51.41 29.016 m 52.637 30.887 l 53.785 29.016 l S Q
q 1 0 0 1 0 0 cm
56.883 32.617 m 54.867 32.617 l S Q
q 1 0 0 1 0 0 cm
55.875 32.617 m 55.875 29.016 l 55.516 29.52 l 55.156 29.879 l 54.867 30.023
 l S Q
q 1 0 0 1 0 0 cm
44.715 37.801 m 44.355 37.586 l 44.211 37.441 l 43.996 37.078 l 43.996 
36.938 l 44.211 36.574 l 44.355 36.434 l 44.715 36.215 l 45.363 36.215 l
 45.723 36.434 l 45.867 36.574 l 46.082 36.938 l 46.082 37.078 l 45.867 
37.441 l 45.723 37.586 l 45.363 37.801 l 44.715 37.801 l 44.355 37.945 l
 44.211 38.09 l 43.996 38.449 l 43.996 39.168 l 44.211 39.457 l 44.355 39.672
 l 44.715 39.816 l 45.363 39.816 l 45.723 39.672 l 45.867 39.457 l 46.082
 39.168 l 46.082 38.449 l 45.867 38.09 l 45.723 37.945 l 45.363 37.801 l
 S Q
q 1 0 0 1 0 0 cm
47.594 39.816 m 47.594 36.215 l 48.82 38.809 l 50.043 36.215 l 50.043 39.816
 l S Q
q 1 0 0 1 0 0 cm
51.699 39.816 m 51.699 36.215 l S Q
q 1 0 0 1 0 0 cm
51.699 37.945 m 53.785 37.945 l S Q
q 1 0 0 1 0 0 cm
53.785 39.816 m 53.785 36.215 l S Q
q 1 0 0 1 0 0 cm
55.156 37.441 m 57.027 37.441 l 55.156 39.816 l 57.027 39.816 l S Q
0.517647 0 0.517647 rg
q 1 0 0 1 0 0 cm
6.629 45.145 m 7.852 45.145 l S Q
q 1 0 0 1 0 0 cm
8.355 47.016 m 6.629 47.016 l 6.629 43.414 l 8.355 43.414 l S Q
q 1 0 0 1 0 0 cm
11.953 46.656 m 11.738 46.871 l 11.234 47.016 l 10.875 47.016 l 10.371 
46.871 l 10.082 46.512 l 9.867 46.152 l 9.723 45.504 l 9.723 45 l 9.867 
44.281 l 10.082 43.922 l 10.371 43.633 l 10.875 43.414 l 11.234 43.414 l
 11.738 43.633 l 11.953 43.777 l S Q
q 1 0 0 1 0 0 cm
13.324 46.871 m 13.828 47.016 l 14.691 47.016 l 15.051 46.871 l 15.195 
46.656 l 15.34 46.367 l 15.34 46.008 l 15.195 45.648 l 15.051 45.504 l 14.691
 45.289 l 13.973 45.145 l 13.684 45 l 13.469 44.785 l 13.324 44.426 l 13.324
 44.137 l 13.469 43.777 l 13.684 43.633 l 13.973 43.414 l 14.836 43.414 
l 15.34 43.633 l S Q
q 1 0 0 1 0 0 cm
16.922 45.648 m 19.66 45.648 l S Q
q 1 0 0 1 0 0 cm
22.035 43.414 m 22.395 43.414 l 22.754 43.633 l 22.898 43.777 l 23.043 
44.137 l 23.258 44.785 l 23.258 45.648 l 23.043 46.367 l 22.898 46.656 l
 22.754 46.871 l 22.395 47.016 l 22.035 47.016 l 21.676 46.871 l 21.531 
46.656 l 21.387 46.367 l 21.172 45.648 l 21.172 44.785 l 21.387 44.137 l
 21.531 43.777 l 21.676 43.633 l 22.035 43.414 l S Q
q 1 0 0 1 0 0 cm
25.273 45 m 24.988 44.785 l 24.77 44.641 l 24.629 44.281 l 24.629 44.137
 l 24.77 43.777 l 24.988 43.633 l 25.273 43.414 l 25.996 43.414 l 26.355
 43.633 l 26.5 43.777 l 26.645 44.137 l 26.645 44.281 l 26.5 44.641 l 26.355
 44.785 l 25.996 45 l 25.273 45 l 24.988 45.145 l 24.77 45.289 l 24.629 
45.648 l 24.629 46.367 l 24.77 46.656 l 24.988 46.871 l 25.273 47.016 l 
25.996 47.016 l 26.355 46.871 l 26.5 46.656 l 26.645 46.367 l 26.645 45.648
 l 26.5 45.289 l 26.355 45.145 l 25.996 45 l S Q
q 1 0 0 1 0 0 cm
28.875 43.414 m 29.234 43.414 l 29.594 43.633 l 29.738 43.777 l 29.953 
44.137 l 30.098 44.785 l 30.098 45.648 l 29.953 46.367 l 29.738 46.656 l
 29.594 46.871 l 29.234 47.016 l 28.875 47.016 l 28.586 46.871 l 28.371 
46.656 l 28.227 46.367 l 28.082 45.648 l 28.082 44.785 l 28.227 44.137 l
 28.371 43.777 l 28.586 43.633 l 28.875 43.414 l S Q
q 1 0 0 1 0 0 cm
31.684 45.648 m 34.418 45.648 l S Q
q 1 0 0 1 0 0 cm
38.02 47.016 m 35.93 47.016 l S Q
q 1 0 0 1 0 0 cm
36.938 47.016 m 36.938 43.414 l 36.652 43.922 l 36.293 44.281 l 35.93 44.426
 l S Q
q 1 0 0 1 0 0 cm
40.035 45 m 39.676 44.785 l 39.531 44.641 l 39.387 44.281 l 39.387 44.137
 l 39.531 43.777 l 39.676 43.633 l 40.035 43.414 l 40.754 43.414 l 41.043
 43.633 l 41.258 43.777 l 41.402 44.137 l 41.402 44.281 l 41.258 44.641 
l 41.043 44.785 l 40.754 45 l 40.035 45 l 39.676 45.145 l 39.531 45.289 
l 39.387 45.648 l 39.387 46.367 l 39.531 46.656 l 39.676 46.871 l 40.035
 47.016 l 40.754 47.016 l 41.043 46.871 l 41.258 46.656 l 41.402 46.367 
l 41.402 45.648 l 41.258 45.289 l 41.043 45.145 l 40.754 45 l S Q
q 1 0 0 1 0 0 cm
42.988 45.648 m 45.723 45.648 l S Q
q 1 0 0 1 0 0 cm
47.234 43.777 m 47.449 43.633 l 47.738 43.414 l 48.602 43.414 l 48.965 
43.633 l 49.105 43.777 l 49.324 44.137 l 49.324 44.426 l 49.105 45 l 47.09
 47.016 l 49.324 47.016 l S Q
q 1 0 0 1 0 0 cm
51.555 43.414 m 51.844 43.414 l 52.203 43.633 l 52.418 43.777 l 52.563 
44.137 l 52.707 44.785 l 52.707 45.648 l 52.563 46.367 l 52.418 46.656 l
 52.203 46.871 l 51.844 47.016 l 51.555 47.016 l 51.195 46.871 l 51.051 
46.656 l 50.836 46.367 l 50.691 45.648 l 50.691 44.785 l 50.836 44.137 l
 51.051 43.777 l 51.195 43.633 l 51.555 43.414 l S Q
q 1 0 0 1 0 0 cm
55.441 45.145 m 56.02 45.289 l 56.164 45.504 l 56.309 45.793 l 56.309 46.367
 l 56.164 46.656 l 56.02 46.871 l 55.66 47.016 l 54.293 47.016 l 54.293 
43.414 l 55.441 43.414 l 55.805 43.633 l 56.02 43.777 l 56.164 44.137 l 
56.164 44.426 l 56.02 44.785 l 55.805 45 l 55.441 45.145 l 54.293 45.145
 l S Q
q 1 0 0 1 0 0 cm
57.891 47.016 m 57.891 43.414 l 59.043 46.008 l 60.266 43.414 l 60.266 
47.016 l S Q
Q Q
showpage
%%Trailer
end
%%EOF
