%!PS-Adobe-3.0 EPSF-3.0
%%Creator: cairo 1.16.0 (https://cairographics.org)
%%CreationDate: Wed May 08 02:39:44 2019
%%Pages: 1
%%DocumentData: Clean7Bit
%%LanguageLevel: 2
%%BoundingBox: 0 0 114 65
%%EndComments
%%BeginProlog
50 dict begin
/q { gsave } bind def
/Q { grestore } bind def
/cm { 6 array astore concat } bind def
/w { setlinewidth } bind def
/J { setlinecap } bind def
/j { setlinejoin } bind def
/M { setmiterlimit } bind def
/d { setdash } bind def
/m { moveto } bind def
/l { lineto } bind def
/c { curveto } bind def
/h { closepath } bind def
/re { exch dup neg 3 1 roll 5 3 roll moveto 0 rlineto
      0 exch rlineto 0 rlineto closepath } bind def
/S { stroke } bind def
/f { fill } bind def
/f* { eofill } bind def
/n { newpath } bind def
/W { clip } bind def
/W* { eoclip } bind def
/BT { } bind def
/ET { } bind def
/BDC { mark 3 1 roll /BDC pdfmark } bind def
/EMC { mark /EMC pdfmark } bind def
/cairo_store_point { /cairo_point_y exch def /cairo_point_x exch def } def
/Tj { show currentpoint cairo_store_point } bind def
/TJ {
  {
    dup
    type /stringtype eq
    { show } { -0.001 mul 0 cairo_font_matrix dtransform rmoveto } ifelse
  } forall
  currentpoint cairo_store_point
} bind def
/cairo_selectfont { cairo_font_matrix aload pop pop pop 0 0 6 array astore
    cairo_font exch selectfont cairo_point_x cairo_point_y moveto } bind def
/Tf { pop /cairo_font exch def /cairo_font_matrix where
      { pop cairo_selectfont } if } bind def
/Td { matrix translate cairo_font_matrix matrix concatmatrix dup
      /cairo_font_matrix exch def dup 4 get exch 5 get cairo_store_point
      /cairo_font where { pop cairo_selectfont } if } bind def
/Tm { 2 copy 8 2 roll 6 array astore /cairo_font_matrix exch def
      cairo_store_point /cairo_font where { pop cairo_selectfont } if } bind def
/g { setgray } bind def
/rg { setrgbcolor } bind def
/d1 { setcachedevice } bind def
/cairo_data_source {
  CairoDataIndex CairoData length lt
    { CairoData CairoDataIndex get /CairoDataIndex CairoDataIndex 1 add def }
    { () } ifelse
} def
/cairo_flush_ascii85_file { cairo_ascii85_file status { cairo_ascii85_file flushfile } if } def
/cairo_image { image cairo_flush_ascii85_file } def
/cairo_imagemask { imagemask cairo_flush_ascii85_file } def
%%EndProlog
%%BeginSetup
%%EndSetup
%%Page: 1 1
%%BeginPageSetup
%%PageBoundingBox: 0 0 114 65
%%EndPageSetup
q 0 0 114 65 rectclip
1 0 0 -1 0 65 cm q
0.517647 0 0 rg
1.728 w
1 J
1 j
[] 0.0 d
4 M q 1 0 0 1 0 0 cm
-291.355 -709.27 1119.672 813.527 re S Q
0.936 w
q 1 0 0 1 0 0 cm
86.863 33.988 m 95.5 33.988 l h
86.863 33.988 m S Q
0.864 w
q 1 0 0 1 0 0 cm
86.863 31.105 m 95.5 31.105 l h
86.863 31.105 m S Q
0.432 w
q 1 0 0 1 0 0 cm
91.18 31.105 m 91.18 25.348 l S Q
q 1 0 0 1 0 0 cm
91.18 33.988 m 91.18 39.746 l S Q
0 0.517647 0.517647 rg
q 1 0 0 1 0 0 cm
100.828 30.602 m 100.684 30.82 l 100.18 30.965 l 99.82 30.965 l 99.316 
30.82 l 98.957 30.457 l 98.813 30.098 l 98.598 29.449 l 98.598 28.945 l 
98.813 28.227 l 98.957 27.867 l 99.316 27.578 l 99.82 27.363 l 100.18 27.363
 l 100.684 27.578 l 100.828 27.723 l S Q
q 1 0 0 1 0 0 cm
104.285 30.965 m 102.199 30.965 l S Q
q 1 0 0 1 0 0 cm
103.277 30.965 m 103.277 27.363 l 102.918 27.867 l 102.559 28.227 l 102.199
 28.371 l S Q
q 1 0 0 1 0 0 cm
107.742 30.965 m 105.652 30.965 l S Q
q 1 0 0 1 0 0 cm
106.66 30.965 m 106.66 27.363 l 106.375 27.867 l 106.012 28.227 l 105.652
 28.371 l S Q
q 1 0 0 1 0 0 cm
100.684 37.516 m 98.668 37.516 l S Q
q 1 0 0 1 0 0 cm
99.676 37.516 m 99.676 33.914 l 99.316 34.418 l 98.957 34.777 l 98.668 
34.922 l S Q
q 1 0 0 1 0 0 cm
102.918 33.914 m 103.277 33.914 l 103.637 34.133 l 103.781 34.273 l 103.996
 34.637 l 104.141 35.281 l 104.141 36.148 l 103.996 36.867 l 103.781 37.156
 l 103.637 37.371 l 103.277 37.516 l 102.918 37.516 l 102.559 37.371 l 102.414
 37.156 l 102.27 36.867 l 102.055 36.148 l 102.055 35.281 l 102.27 34.637
 l 102.414 34.273 l 102.559 34.133 l 102.918 33.914 l S Q
q 1 0 0 1 0 0 cm
106.375 33.914 m 106.734 33.914 l 107.02 34.133 l 107.238 34.273 l 107.383
 34.637 l 107.598 35.281 l 107.598 36.148 l 107.383 36.867 l 107.238 37.156
 l 107.02 37.371 l 106.734 37.516 l 106.375 37.516 l 106.012 37.371 l 105.871
 37.156 l 105.652 36.867 l 105.508 36.148 l 105.508 35.281 l 105.652 34.637
 l 105.871 34.273 l 106.012 34.133 l 106.375 33.914 l S Q
q 1 0 0 1 0 0 cm
109.109 35.141 m 109.109 37.516 l S Q
q 1 0 0 1 0 0 cm
109.109 35.5 m 109.254 35.281 l 109.613 35.141 l 110.117 35.141 l 110.477
 35.281 l 110.621 35.645 l 110.621 37.516 l S Q
q 1 0 0 1 0 0 cm
111.844 35.141 m 113.215 35.141 l S Q
q 1 0 0 1 0 0 cm
112.348 37.516 m 112.348 34.418 l 112.566 34.133 l 112.852 33.914 l 113.215
 33.914 l S Q
0.517647 0 0 rg
0.936 w
q 1 0 0 1 0 0 cm
29.262 33.988 m 37.902 33.988 l h
29.262 33.988 m S Q
0.864 w
q 1 0 0 1 0 0 cm
29.262 31.105 m 37.902 31.105 l h
29.262 31.105 m S Q
0.432 w
q 1 0 0 1 0 0 cm
33.582 31.105 m 33.582 25.348 l S Q
q 1 0 0 1 0 0 cm
33.582 33.988 m 33.582 39.746 l S Q
0 0.517647 0.517647 rg
q 1 0 0 1 0 0 cm
43.301 30.602 m 43.156 30.82 l 42.652 30.965 l 42.293 30.965 l 41.789 30.82
 l 41.43 30.457 l 41.285 30.098 l 41.07 29.449 l 41.07 28.945 l 41.285 28.227
 l 41.43 27.867 l 41.789 27.578 l 42.293 27.363 l 42.652 27.363 l 43.156
 27.578 l 43.301 27.723 l S Q
q 1 0 0 1 0 0 cm
45.391 28.945 m 45.031 28.73 l 44.887 28.586 l 44.668 28.227 l 44.668 28.082
 l 44.887 27.723 l 45.031 27.578 l 45.391 27.363 l 46.039 27.363 l 46.398
 27.578 l 46.543 27.723 l 46.758 28.082 l 46.758 28.227 l 46.543 28.586 
l 46.398 28.73 l 46.039 28.945 l 45.391 28.945 l 45.031 29.09 l 44.887 29.234
 l 44.668 29.594 l 44.668 30.316 l 44.887 30.602 l 45.031 30.82 l 45.391
 30.965 l 46.039 30.965 l 46.398 30.82 l 46.543 30.602 l 46.758 30.316 l
 46.758 29.594 l 46.543 29.234 l 46.398 29.09 l 46.039 28.945 l S Q
q 1 0 0 1 0 0 cm
43.086 37.516 m 41.07 37.516 l S Q
q 1 0 0 1 0 0 cm
42.078 37.516 m 42.078 33.914 l 41.719 34.418 l 41.359 34.777 l 41.07 34.922
 l S Q
q 1 0 0 1 0 0 cm
45.316 33.914 m 45.676 33.914 l 46.039 34.133 l 46.18 34.273 l 46.398 34.637
 l 46.543 35.281 l 46.543 36.148 l 46.398 36.867 l 46.18 37.156 l 46.039
 37.371 l 45.676 37.516 l 45.316 37.516 l 44.957 37.371 l 44.813 37.156 
l 44.668 36.867 l 44.453 36.148 l 44.453 35.281 l 44.668 34.637 l 44.813
 34.273 l 44.957 34.133 l 45.316 33.914 l S Q
q 1 0 0 1 0 0 cm
48.773 33.914 m 49.133 33.914 l 49.422 34.133 l 49.637 34.273 l 49.781 
34.637 l 49.996 35.281 l 49.996 36.148 l 49.781 36.867 l 49.637 37.156 l
 49.422 37.371 l 49.133 37.516 l 48.773 37.516 l 48.414 37.371 l 48.27 37.156
 l 48.055 36.867 l 47.91 36.148 l 47.91 35.281 l 48.055 34.637 l 48.27 34.273
 l 48.414 34.133 l 48.773 33.914 l S Q
q 1 0 0 1 0 0 cm
51.508 35.141 m 51.508 37.516 l S Q
q 1 0 0 1 0 0 cm
51.508 35.5 m 51.652 35.281 l 52.012 35.141 l 52.516 35.141 l 52.879 35.281
 l 53.02 35.645 l 53.02 37.516 l S Q
q 1 0 0 1 0 0 cm
54.246 35.141 m 55.613 35.141 l S Q
q 1 0 0 1 0 0 cm
54.75 37.516 m 54.75 34.418 l 54.965 34.133 l 55.254 33.914 l 55.613 33.914
 l S Q
0.517647 0 0 rg
0.936 w
q 1 0 0 1 0 0 cm
58.063 33.988 m 66.703 33.988 l h
58.063 33.988 m S Q
0.864 w
q 1 0 0 1 0 0 cm
58.063 31.105 m 66.703 31.105 l h
58.063 31.105 m S Q
0.432 w
q 1 0 0 1 0 0 cm
62.383 31.105 m 62.383 25.348 l S Q
q 1 0 0 1 0 0 cm
62.383 33.988 m 62.383 39.746 l S Q
0 0.517647 0.517647 rg
q 1 0 0 1 0 0 cm
72.031 30.602 m 71.887 30.82 l 71.383 30.965 l 71.02 30.965 l 70.516 30.82
 l 70.156 30.457 l 70.012 30.098 l 69.797 29.449 l 69.797 28.945 l 70.012
 28.227 l 70.156 27.867 l 70.516 27.578 l 71.02 27.363 l 71.383 27.363 l
 71.887 27.578 l 72.031 27.723 l S Q
q 1 0 0 1 0 0 cm
75.484 30.965 m 73.398 30.965 l S Q
q 1 0 0 1 0 0 cm
74.477 30.965 m 74.477 27.363 l 74.117 27.867 l 73.758 28.227 l 73.398 
28.371 l S Q
q 1 0 0 1 0 0 cm
77.719 27.363 m 78.078 27.363 l 78.367 27.578 l 78.582 27.723 l 78.727 
28.082 l 78.941 28.73 l 78.941 29.594 l 78.727 30.316 l 78.582 30.602 l 
78.367 30.82 l 78.078 30.965 l 77.719 30.965 l 77.359 30.82 l 77.215 30.602
 l 76.996 30.316 l 76.852 29.594 l 76.852 28.73 l 76.996 28.082 l 77.215
 27.723 l 77.359 27.578 l 77.719 27.363 l S Q
q 1 0 0 1 0 0 cm
71.887 37.516 m 69.871 37.516 l S Q
q 1 0 0 1 0 0 cm
70.879 37.516 m 70.879 33.914 l 70.516 34.418 l 70.156 34.777 l 69.871 
34.922 l S Q
q 1 0 0 1 0 0 cm
74.117 33.914 m 74.477 33.914 l 74.836 34.133 l 74.98 34.273 l 75.199 34.637
 l 75.34 35.281 l 75.34 36.148 l 75.199 36.867 l 74.98 37.156 l 74.836 37.371
 l 74.477 37.516 l 74.117 37.516 l 73.758 37.371 l 73.613 37.156 l 73.469
 36.867 l 73.254 36.148 l 73.254 35.281 l 73.469 34.637 l 73.613 34.273 
l 73.758 34.133 l 74.117 33.914 l S Q
q 1 0 0 1 0 0 cm
77.574 33.914 m 77.934 33.914 l 78.223 34.133 l 78.438 34.273 l 78.582 
34.637 l 78.797 35.281 l 78.797 36.148 l 78.582 36.867 l 78.438 37.156 l
 78.223 37.371 l 77.934 37.516 l 77.574 37.516 l 77.215 37.371 l 77.07 37.156
 l 76.852 36.867 l 76.711 36.148 l 76.711 35.281 l 76.852 34.637 l 77.07
 34.273 l 77.215 34.133 l 77.574 33.914 l S Q
q 1 0 0 1 0 0 cm
80.309 35.141 m 80.309 37.516 l S Q
q 1 0 0 1 0 0 cm
80.309 35.5 m 80.453 35.281 l 80.813 35.141 l 81.316 35.141 l 81.676 35.281
 l 81.82 35.645 l 81.82 37.516 l S Q
q 1 0 0 1 0 0 cm
83.047 35.141 m 84.414 35.141 l S Q
q 1 0 0 1 0 0 cm
83.551 37.516 m 83.551 34.418 l 83.766 34.133 l 84.055 33.914 l 84.414 
33.914 l S Q
0.517647 0 0 rg
q 1 0 0 1 0 0 cm
47.98 50.547 m 47.98 54.148 l 51.582 54.148 l 47.98 57.746 l 44.383 54.148
 l 47.98 54.148 l h
47.98 50.547 m S Q
0 0.517647 0.517647 rg
q 1 0 0 1 0 0 cm
45.535 61.348 m 45.246 61.133 l 44.742 61.133 l 44.164 61.348 l 43.879 
61.637 l 43.66 61.996 l 43.516 62.715 l 43.516 63.219 l 43.66 63.867 l 43.879
 64.227 l 44.164 64.586 l 44.742 64.73 l 45.031 64.73 l 45.535 64.586 l 
45.75 64.371 l 45.75 63.219 l 45.031 63.219 l S Q
q 1 0 0 1 0 0 cm
47.262 64.73 m 47.262 61.133 l 49.348 64.73 l 49.348 61.133 l S Q
q 1 0 0 1 0 0 cm
51.078 64.73 m 51.078 61.133 l 51.941 61.133 l 52.445 61.348 l 52.734 61.637
 l 52.949 61.996 l 53.094 62.715 l 53.094 63.219 l 52.949 63.867 l 52.734
 64.227 l 52.445 64.586 l 51.941 64.73 l 51.078 64.73 l S Q
0 0.517647 0 rg
q 1 0 0 1 0 0 cm
4.781 46.945 m 33.582 46.945 l S Q
q 1 0 0 1 0 0 cm
91.18 46.945 m 91.18 39.746 l S Q
q 1 0 0 1 0 0 cm
62.383 39.746 m 62.383 46.945 l S Q
63.102 46.945 m 63.102 47.344 62.777 47.668 62.383 47.668 c 61.984 47.668
 61.66 47.344 61.66 46.945 c 61.66 46.551 61.984 46.227 62.383 46.227 c 
62.777 46.227 63.102 46.551 63.102 46.945 c h
63.102 46.945 m f
0.72 w
q 1 0 0 1 0 0 cm
63.102 46.945 m 63.102 47.344 62.777 47.668 62.383 47.668 c 61.984 47.668
 61.66 47.344 61.66 46.945 c 61.66 46.551 61.984 46.227 62.383 46.227 c 
62.777 46.227 63.102 46.551 63.102 46.945 c h
63.102 46.945 m S Q
0.432 w
q 1 0 0 1 0 0 cm
62.383 46.945 m 91.18 46.945 l S Q
q 1 0 0 1 0 0 cm
33.582 39.746 m 33.582 46.945 l S Q
34.301 46.945 m 34.301 47.344 33.98 47.668 33.582 47.668 c 33.184 47.668
 32.863 47.344 32.863 46.945 c 32.863 46.551 33.184 46.227 33.582 46.227
 c 33.98 46.227 34.301 46.551 34.301 46.945 c h
34.301 46.945 m f
0.72 w
q 1 0 0 1 0 0 cm
34.301 46.945 m 34.301 47.344 33.98 47.668 33.582 47.668 c 33.184 47.668
 32.863 47.344 32.863 46.945 c 32.863 46.551 33.184 46.227 33.582 46.227
 c 33.98 46.227 34.301 46.551 34.301 46.945 c h
34.301 46.945 m S Q
0.432 w
q 1 0 0 1 0 0 cm
33.582 46.945 m 47.98 46.945 l S Q
q 1 0 0 1 0 0 cm
91.18 18.148 m 91.18 25.348 l S Q
q 1 0 0 1 0 0 cm
62.383 18.148 m 62.383 25.348 l S Q
63.102 18.148 m 63.102 18.543 62.777 18.867 62.383 18.867 c 61.984 18.867
 61.66 18.543 61.66 18.148 c 61.66 17.75 61.984 17.426 62.383 17.426 c 62.777
 17.426 63.102 17.75 63.102 18.148 c h
63.102 18.148 m f
0.72 w
q 1 0 0 1 0 0 cm
63.102 18.148 m 63.102 18.543 62.777 18.867 62.383 18.867 c 61.984 18.867
 61.66 18.543 61.66 18.148 c 61.66 17.75 61.984 17.426 62.383 17.426 c 62.777
 17.426 63.102 17.75 63.102 18.148 c h
63.102 18.148 m S Q
0.432 w
q 1 0 0 1 0 0 cm
62.383 18.148 m 91.18 18.148 l S Q
q 1 0 0 1 0 0 cm
33.582 18.148 m 33.582 25.348 l S Q
34.301 18.148 m 34.301 18.543 33.98 18.867 33.582 18.867 c 33.184 18.867
 32.863 18.543 32.863 18.148 c 32.863 17.75 33.184 17.426 33.582 17.426 
c 33.98 17.426 34.301 17.75 34.301 18.148 c h
34.301 18.148 m f
0.72 w
q 1 0 0 1 0 0 cm
34.301 18.148 m 34.301 18.543 33.98 18.867 33.582 18.867 c 33.184 18.867
 32.863 18.543 32.863 18.148 c 32.863 17.75 33.184 17.426 33.582 17.426 
c 33.98 17.426 34.301 17.75 34.301 18.148 c h
34.301 18.148 m S Q
0.432 w
q 1 0 0 1 0 0 cm
33.582 18.148 m 47.98 18.148 l S Q
q 1 0 0 1 0 0 cm
4.781 18.148 m 33.582 18.148 l S Q
q 1 0 0 1 0 0 cm
47.98 50.547 m 47.98 46.945 l S Q
q 1 0 0 1 0 0 cm
4.781 46.945 m 4.781 39.746 l S Q
q 1 0 0 1 0 0 cm
4.781 18.148 m 4.781 25.348 l S Q
0.517647 0 0 rg
0.936 w
q 1 0 0 1 0 0 cm
0.461 33.988 m 9.102 33.988 l h
0.461 33.988 m S Q
0.864 w
q 1 0 0 1 0 0 cm
0.461 31.105 m 9.102 31.105 l h
0.461 31.105 m S Q
0.432 w
q 1 0 0 1 0 0 cm
4.781 31.105 m 4.781 25.348 l S Q
q 1 0 0 1 0 0 cm
4.781 33.988 m 4.781 39.746 l S Q
0 0.517647 0.517647 rg
q 1 0 0 1 0 0 cm
14.5 30.602 m 14.359 30.82 l 13.852 30.965 l 13.492 30.965 l 12.988 30.82
 l 12.629 30.457 l 12.484 30.098 l 12.27 29.449 l 12.27 28.945 l 12.484 
28.227 l 12.629 27.867 l 12.988 27.578 l 13.492 27.363 l 13.852 27.363 l
 14.359 27.578 l 14.5 27.723 l S Q
q 1 0 0 1 0 0 cm
17.598 27.363 m 16.949 27.363 l 16.59 27.578 l 16.375 27.723 l 16.086 28.227
 l 15.871 28.945 l 15.871 30.316 l 16.086 30.602 l 16.23 30.82 l 16.59 30.965
 l 17.238 30.965 l 17.598 30.82 l 17.742 30.602 l 17.957 30.316 l 17.957
 29.449 l 17.742 29.09 l 17.598 28.945 l 17.238 28.73 l 16.59 28.73 l 16.23
 28.945 l 16.086 29.09 l 15.871 29.449 l S Q
q 1 0 0 1 0 0 cm
14.285 37.516 m 12.27 37.516 l S Q
q 1 0 0 1 0 0 cm
13.277 37.516 m 13.277 33.914 l 12.918 34.418 l 12.559 34.777 l 12.27 34.922
 l S Q
q 1 0 0 1 0 0 cm
16.516 33.914 m 16.879 33.914 l 17.238 34.133 l 17.383 34.273 l 17.598 
34.637 l 17.742 35.281 l 17.742 36.148 l 17.598 36.867 l 17.383 37.156 l
 17.238 37.371 l 16.879 37.516 l 16.516 37.516 l 16.156 37.371 l 16.012 
37.156 l 15.871 36.867 l 15.652 36.148 l 15.652 35.281 l 15.871 34.637 l
 16.012 34.273 l 16.156 34.133 l 16.516 33.914 l S Q
q 1 0 0 1 0 0 cm
19.973 33.914 m 20.332 33.914 l 20.621 34.133 l 20.836 34.273 l 20.98 34.637
 l 21.199 35.281 l 21.199 36.148 l 20.98 36.867 l 20.836 37.156 l 20.621
 37.371 l 20.332 37.516 l 19.973 37.516 l 19.613 37.371 l 19.469 37.156 
l 19.254 36.867 l 19.109 36.148 l 19.109 35.281 l 19.254 34.637 l 19.469
 34.273 l 19.613 34.133 l 19.973 33.914 l S Q
q 1 0 0 1 0 0 cm
22.711 35.141 m 22.711 37.516 l S Q
q 1 0 0 1 0 0 cm
22.711 35.5 m 22.852 35.281 l 23.215 35.141 l 23.719 35.141 l 24.078 35.281
 l 24.223 35.645 l 24.223 37.516 l S Q
q 1 0 0 1 0 0 cm
25.445 35.141 m 26.813 35.141 l S Q
q 1 0 0 1 0 0 cm
25.949 37.516 m 25.949 34.418 l 26.164 34.133 l 26.453 33.914 l 26.813 
33.914 l S Q
0 0.517647 0 rg
48.703 46.945 m 48.703 47.344 48.379 47.668 47.98 47.668 c 47.582 47.668
 47.262 47.344 47.262 46.945 c 47.262 46.551 47.582 46.227 47.98 46.227 
c 48.379 46.227 48.703 46.551 48.703 46.945 c h
48.703 46.945 m f
0.72 w
q 1 0 0 1 0 0 cm
48.703 46.945 m 48.703 47.344 48.379 47.668 47.98 47.668 c 47.582 47.668
 47.262 47.344 47.262 46.945 c 47.262 46.551 47.582 46.227 47.98 46.227 
c 48.379 46.227 48.703 46.551 48.703 46.945 c h
48.703 46.945 m S Q
0.432 w
q 1 0 0 1 0 0 cm
47.98 46.945 m 62.383 46.945 l S Q
0.517647 0 0 rg
q 1 0 0 1 0 0 cm
49.781 9.148 m 49.781 10.141 48.977 10.945 47.98 10.945 c 46.988 10.945
 46.18 10.141 46.18 9.148 c 46.18 8.152 46.988 7.348 47.98 7.348 c 48.977
 7.348 49.781 8.152 49.781 9.148 c h
49.781 9.148 m S Q
q 1 0 0 1 0 0 cm
47.98 14.547 m 47.98 10.945 l h
47.98 14.547 m S Q
0 0.517647 0.517647 rg
q 1 0 0 1 0 0 cm
44.453 0.219 m 45.676 3.82 l 46.828 0.219 l S Q
q 1 0 0 1 0 0 cm
48.055 3.82 m 48.055 0.219 l 48.918 0.219 l 49.422 0.434 l 49.781 0.723
 l 49.926 1.082 l 50.07 1.805 l 50.07 2.309 l 49.926 2.953 l 49.781 3.316
 l 49.422 3.676 l 48.918 3.82 l 48.055 3.82 l S Q
q 1 0 0 1 0 0 cm
51.652 3.82 m 51.652 0.219 l 52.516 0.219 l 53.02 0.434 l 53.383 0.723 
l 53.527 1.082 l 53.668 1.805 l 53.668 2.309 l 53.527 2.953 l 53.383 3.316
 l 53.02 3.676 l 52.516 3.82 l 51.652 3.82 l S Q
0 0.517647 0 rg
q 1 0 0 1 0 0 cm
47.98 14.547 m 47.98 18.148 l S Q
48.703 18.148 m 48.703 18.543 48.379 18.867 47.98 18.867 c 47.582 18.867
 47.262 18.543 47.262 18.148 c 47.262 17.75 47.582 17.426 47.98 17.426 c
 48.379 17.426 48.703 17.75 48.703 18.148 c h
48.703 18.148 m f
0.72 w
q 1 0 0 1 0 0 cm
48.703 18.148 m 48.703 18.543 48.379 18.867 47.98 18.867 c 47.582 18.867
 47.262 18.543 47.262 18.148 c 47.262 17.75 47.582 17.426 47.98 17.426 c
 48.379 17.426 48.703 17.75 48.703 18.148 c h
48.703 18.148 m S Q
0.432 w
q 1 0 0 1 0 0 cm
47.98 18.148 m 62.383 18.148 l S Q
Q Q
showpage
%%Trailer
end
%%EOF
