%!PS-Adobe-3.0 EPSF-3.0
%%Creator: cairo 1.16.0 (https://cairographics.org)
%%CreationDate: Wed May 08 14:15:08 2019
%%Pages: 1
%%DocumentData: Clean7Bit
%%LanguageLevel: 2
%%BoundingBox: 0 0 110 72
%%EndComments
%%BeginProlog
50 dict begin
/q { gsave } bind def
/Q { grestore } bind def
/cm { 6 array astore concat } bind def
/w { setlinewidth } bind def
/J { setlinecap } bind def
/j { setlinejoin } bind def
/M { setmiterlimit } bind def
/d { setdash } bind def
/m { moveto } bind def
/l { lineto } bind def
/c { curveto } bind def
/h { closepath } bind def
/re { exch dup neg 3 1 roll 5 3 roll moveto 0 rlineto
      0 exch rlineto 0 rlineto closepath } bind def
/S { stroke } bind def
/f { fill } bind def
/f* { eofill } bind def
/n { newpath } bind def
/W { clip } bind def
/W* { eoclip } bind def
/BT { } bind def
/ET { } bind def
/BDC { mark 3 1 roll /BDC pdfmark } bind def
/EMC { mark /EMC pdfmark } bind def
/cairo_store_point { /cairo_point_y exch def /cairo_point_x exch def } def
/Tj { show currentpoint cairo_store_point } bind def
/TJ {
  {
    dup
    type /stringtype eq
    { show } { -0.001 mul 0 cairo_font_matrix dtransform rmoveto } ifelse
  } forall
  currentpoint cairo_store_point
} bind def
/cairo_selectfont { cairo_font_matrix aload pop pop pop 0 0 6 array astore
    cairo_font exch selectfont cairo_point_x cairo_point_y moveto } bind def
/Tf { pop /cairo_font exch def /cairo_font_matrix where
      { pop cairo_selectfont } if } bind def
/Td { matrix translate cairo_font_matrix matrix concatmatrix dup
      /cairo_font_matrix exch def dup 4 get exch 5 get cairo_store_point
      /cairo_font where { pop cairo_selectfont } if } bind def
/Tm { 2 copy 8 2 roll 6 array astore /cairo_font_matrix exch def
      cairo_store_point /cairo_font where { pop cairo_selectfont } if } bind def
/g { setgray } bind def
/rg { setrgbcolor } bind def
/d1 { setcachedevice } bind def
/cairo_data_source {
  CairoDataIndex CairoData length lt
    { CairoData CairoDataIndex get /CairoDataIndex CairoDataIndex 1 add def }
    { () } ifelse
} def
/cairo_flush_ascii85_file { cairo_ascii85_file status { cairo_ascii85_file flushfile } if } def
/cairo_image { image cairo_flush_ascii85_file } def
/cairo_imagemask { imagemask cairo_flush_ascii85_file } def
%%EndProlog
%%BeginSetup
%%EndSetup
%%Page: 1 1
%%BeginPageSetup
%%PageBoundingBox: 0 0 110 72
%%EndPageSetup
q 0 0 110 72 rectclip
1 0 0 -1 0 72 cm q
1 g
57.039 12.734 m 57.039 13.047 56.785 13.301 56.473 13.301 c 56.156 13.301
 55.902 13.047 55.902 12.734 c 55.902 12.418 56.156 12.164 56.473 12.164
 c 56.785 12.164 57.039 12.418 57.039 12.734 c h
57.039 12.734 m f
40.879 46.75 m 40.879 47.063 40.625 47.316 40.313 47.316 c 40 47.316 39.746
 47.063 39.746 46.75 c 39.746 46.434 40 46.18 40.313 46.18 c 40.625 46.18
 40.879 46.434 40.879 46.75 c h
40.879 46.75 m f
56.473 62.621 m 56.473 62.934 56.219 63.188 55.906 63.188 c 55.59 63.188
 55.336 62.934 55.336 62.621 c 55.336 62.309 55.59 62.055 55.906 62.055 
c 56.219 62.055 56.473 62.309 56.473 62.621 c h
56.473 62.621 m f
78.016 49.582 m 78.016 49.895 77.762 50.148 77.449 50.148 c 77.133 50.148
 76.879 49.895 76.879 49.582 c 76.879 49.27 77.133 49.016 77.449 49.016 
c 77.762 49.016 78.016 49.27 78.016 49.582 c h
78.016 49.582 m f
97.289 24.922 m 97.289 25.234 97.035 25.488 96.723 25.488 c 96.41 25.488
 96.156 25.234 96.156 24.922 c 96.156 24.609 96.41 24.355 96.723 24.355 
c 97.035 24.355 97.289 24.609 97.289 24.922 c h
97.289 24.922 m f
68.375 49.582 m 68.375 49.895 68.121 50.148 67.809 50.148 c 67.496 50.148
 67.242 49.895 67.242 49.582 c 67.242 49.27 67.496 49.016 67.809 49.016 
c 68.121 49.016 68.375 49.27 68.375 49.582 c h
68.375 49.582 m f
64.238 12.734 m 64.238 13.047 63.984 13.301 63.672 13.301 c 63.359 13.301
 63.105 13.047 63.105 12.734 c 63.105 12.418 63.359 12.164 63.672 12.164
 c 63.984 12.164 64.238 12.418 64.238 12.734 c h
64.238 12.734 m f
71.438 12.734 m 71.438 13.047 71.184 13.301 70.871 13.301 c 70.559 13.301
 70.305 13.047 70.305 12.734 c 70.305 12.418 70.559 12.164 70.871 12.164
 c 71.184 12.164 71.438 12.418 71.438 12.734 c h
71.438 12.734 m f
78.637 12.734 m 78.637 13.047 78.383 13.301 78.07 13.301 c 77.758 13.301
 77.504 13.047 77.504 12.734 c 77.504 12.418 77.758 12.164 78.07 12.164 
c 78.383 12.164 78.637 12.418 78.637 12.734 c h
78.637 12.734 m f
57.039 19.934 m 57.039 20.246 56.785 20.5 56.473 20.5 c 56.156 20.5 55.902
 20.246 55.902 19.934 c 55.902 19.621 56.156 19.367 56.473 19.367 c 56.785
 19.367 57.039 19.621 57.039 19.934 c h
57.039 19.934 m f
64.238 19.934 m 64.238 20.246 63.984 20.5 63.672 20.5 c 63.359 20.5 63.105
 20.246 63.105 19.934 c 63.105 19.621 63.359 19.367 63.672 19.367 c 63.984
 19.367 64.238 19.621 64.238 19.934 c h
64.238 19.934 m f
71.438 19.934 m 71.438 20.246 71.184 20.5 70.871 20.5 c 70.559 20.5 70.305
 20.246 70.305 19.934 c 70.305 19.621 70.559 19.367 70.871 19.367 c 71.184
 19.367 71.438 19.621 71.438 19.934 c h
71.438 19.934 m f
78.637 19.934 m 78.637 20.246 78.383 20.5 78.07 20.5 c 77.758 20.5 77.504
 20.246 77.504 19.934 c 77.504 19.621 77.758 19.367 78.07 19.367 c 78.383
 19.367 78.637 19.621 78.637 19.934 c h
78.637 19.934 m f
57.039 27.133 m 57.039 27.445 56.785 27.699 56.473 27.699 c 56.156 27.699
 55.902 27.445 55.902 27.133 c 55.902 26.82 56.156 26.566 56.473 26.566 
c 56.785 26.566 57.039 26.82 57.039 27.133 c h
57.039 27.133 m f
64.238 27.133 m 64.238 27.445 63.984 27.699 63.672 27.699 c 63.359 27.699
 63.105 27.445 63.105 27.133 c 63.105 26.82 63.359 26.566 63.672 26.566 
c 63.984 26.566 64.238 26.82 64.238 27.133 c h
64.238 27.133 m f
71.438 27.133 m 71.438 27.445 71.184 27.699 70.871 27.699 c 70.559 27.699
 70.305 27.445 70.305 27.133 c 70.305 26.82 70.559 26.566 70.871 26.566 
c 71.184 26.566 71.438 26.82 71.438 27.133 c h
71.438 27.133 m f
78.637 27.133 m 78.637 27.445 78.383 27.699 78.07 27.699 c 77.758 27.699
 77.504 27.445 77.504 27.133 c 77.504 26.82 77.758 26.566 78.07 26.566 c
 78.383 26.566 78.637 26.82 78.637 27.133 c h
78.637 27.133 m f
57.039 34.332 m 57.039 34.645 56.785 34.898 56.473 34.898 c 56.156 34.898
 55.902 34.645 55.902 34.332 c 55.902 34.02 56.156 33.766 56.473 33.766 
c 56.785 33.766 57.039 34.02 57.039 34.332 c h
57.039 34.332 m f
64.238 34.332 m 64.238 34.645 63.984 34.898 63.672 34.898 c 63.359 34.898
 63.105 34.645 63.105 34.332 c 63.105 34.02 63.359 33.766 63.672 33.766 
c 63.984 33.766 64.238 34.02 64.238 34.332 c h
64.238 34.332 m f
71.438 34.332 m 71.438 34.645 71.184 34.898 70.871 34.898 c 70.559 34.898
 70.305 34.645 70.305 34.332 c 70.305 34.02 70.559 33.766 70.871 33.766 
c 71.184 33.766 71.438 34.02 71.438 34.332 c h
71.438 34.332 m f
78.637 34.332 m 78.637 34.645 78.383 34.898 78.07 34.898 c 77.758 34.898
 77.504 34.645 77.504 34.332 c 77.504 34.02 77.758 33.766 78.07 33.766 c
 78.383 33.766 78.637 34.02 78.637 34.332 c h
78.637 34.332 m f
24.863 40.258 m 24.863 41.195 24.102 41.957 23.164 41.957 c 22.223 41.957
 21.465 41.195 21.465 40.258 c 21.465 39.316 22.223 38.555 23.164 38.555
 c 24.102 38.555 24.863 39.316 24.863 40.258 c h
24.863 40.258 m f
24.863 29.457 m 24.863 30.395 24.102 31.156 23.164 31.156 c 22.223 31.156
 21.465 30.395 21.465 29.457 c 21.465 28.52 22.223 27.758 23.164 27.758 
c 24.102 27.758 24.863 28.52 24.863 29.457 c h
24.863 29.457 m f
24.863 18.656 m 24.863 19.598 24.102 20.359 23.164 20.359 c 22.223 20.359
 21.465 19.598 21.465 18.656 c 21.465 17.719 22.223 16.957 23.164 16.957
 c 24.102 16.957 24.863 17.719 24.863 18.656 c h
24.863 18.656 m f
24.863 7.855 m 24.863 8.797 24.102 9.559 23.164 9.559 c 22.223 9.559 21.465
 8.797 21.465 7.855 c 21.465 6.918 22.223 6.156 23.164 6.156 c 24.102 6.156
 24.863 6.918 24.863 7.855 c h
24.863 7.855 m f
0.517647 0 0 rg
52.5 60.207 7.086 5.105 re f*
63.836 60.207 7.09 5.105 re f*
99.555 19.324 m 99.617 19.332 l 99.691 19.352 l 99.754 19.375 l 99.82 19.402
 l 99.879 19.441 l 99.934 19.484 l 99.984 19.527 l 100.027 19.578 l 100.07
 19.633 l 100.109 19.691 l 100.137 19.758 l 100.16 19.82 l 100.18 19.895
 l 100.188 19.957 l 100.195 20.031 l 100.195 29.953 l 100.188 30.016 l 100.18
 30.09 l 100.16 30.152 l 100.137 30.219 l 100.109 30.281 l 100.07 30.34 
l 100.027 30.398 l 99.984 30.449 l 99.934 30.5 l 99.879 30.543 l 99.82 30.578
 l 99.754 30.605 l 99.691 30.629 l 99.617 30.645 l 99.555 30.656 l 93.742
 30.656 l 93.68 30.645 l 93.605 30.629 l 93.543 30.605 l 93.477 30.578 l
 93.418 30.543 l 93.363 30.5 l 93.313 30.449 l 93.27 30.398 l 93.227 30.34
 l 93.188 30.281 l 93.16 30.219 l 93.137 30.152 l 93.117 30.09 l 93.109 
30.016 l 93.102 29.953 l 93.102 20.031 l 93.109 19.957 l 93.117 19.895 l
 93.137 19.82 l 93.16 19.758 l 93.188 19.691 l 93.227 19.633 l 93.27 19.578
 l 93.313 19.527 l 93.363 19.484 l 93.418 19.441 l 93.477 19.402 l 93.543
 19.375 l 93.605 19.352 l 93.68 19.332 l 93.742 19.324 l 93.816 19.316 l
 99.48 19.316 l h
99.555 19.324 m f*
99.555 36.613 m 99.617 36.625 l 99.691 36.641 l 99.754 36.66 l 99.82 36.699
 l 99.879 36.734 l 99.934 36.77 l 99.984 36.82 l 100.027 36.871 l 100.07
 36.93 l 100.109 36.984 l 100.137 37.051 l 100.16 37.117 l 100.18 37.18 
l 100.188 37.254 l 100.195 37.316 l 100.195 47.238 l 100.188 47.313 l 100.18
 47.383 l 100.16 47.449 l 100.137 47.512 l 100.109 47.578 l 100.07 47.637
 l 100.027 47.691 l 99.984 47.742 l 99.934 47.785 l 99.879 47.828 l 99.82
 47.863 l 99.754 47.895 l 99.691 47.914 l 99.617 47.938 l 99.555 47.945 
l 99.48 47.953 l 93.816 47.953 l 93.742 47.945 l 93.68 47.938 l 93.605 47.914
 l 93.543 47.895 l 93.477 47.863 l 93.418 47.828 l 93.363 47.785 l 93.313
 47.742 l 93.27 47.691 l 93.227 47.637 l 93.188 47.578 l 93.16 47.512 l 
93.137 47.449 l 93.117 47.383 l 93.109 47.313 l 93.102 47.238 l 93.102 37.316
 l 93.109 37.254 l 93.117 37.18 l 93.137 37.117 l 93.16 37.051 l 93.188 
36.984 l 93.227 36.93 l 93.27 36.871 l 93.313 36.82 l 93.363 36.77 l 93.418
 36.734 l 93.477 36.699 l 93.543 36.66 l 93.605 36.641 l 93.68 36.625 l 
93.742 36.613 l h
99.555 36.613 m f*
52.5 10.535 30.617 26.645 re f*
75.887 43.273 3.117 13.039 re f*
71.063 43.273 3.117 13.039 re f*
66.246 43.273 3.117 13.039 re f*
61.43 43.273 3.117 13.039 re f*
56.605 43.273 3.125 13.039 re f*
98.352 50.43 4.535 16.156 re f*
85.023 50.43 4.535 16.156 re f*
42.082 41.715 m 42.148 41.723 l 42.219 41.746 l 42.285 41.766 l 42.344 
41.797 l 42.406 41.832 l 42.457 41.875 l 42.516 41.918 l 42.559 41.977 l
 42.602 42.027 l 42.637 42.09 l 42.668 42.148 l 42.688 42.215 l 42.703 42.285
 l 42.719 42.352 l 42.719 50.996 l 42.703 51.063 l 42.688 51.133 l 42.668
 51.199 l 42.637 51.262 l 42.602 51.32 l 42.559 51.379 l 42.516 51.43 l 
42.457 51.473 l 42.406 51.516 l 42.344 51.551 l 42.285 51.582 l 42.219 51.602
 l 42.148 51.625 l 42.082 51.629 l 42.012 51.637 l 38.895 51.637 l 38.82
 51.629 l 38.758 51.625 l 38.684 51.602 l 38.621 51.582 l 38.555 51.551 
l 38.496 51.516 l 38.441 51.473 l 38.391 51.43 l 38.348 51.379 l 38.305 
51.32 l 38.266 51.262 l 38.238 51.199 l 38.219 51.133 l 38.195 51.063 l 
38.188 50.996 l 38.18 50.926 l 38.18 42.422 l 38.188 42.352 l 38.195 42.285
 l 38.219 42.215 l 38.238 42.148 l 38.266 42.09 l 38.305 42.027 l 38.348
 41.977 l 38.391 41.918 l 38.441 41.875 l 38.496 41.832 l 38.555 41.797 
l 38.621 41.766 l 38.684 41.746 l 38.758 41.723 l 38.82 41.715 l h
42.082 41.715 m f*
42.082 26.41 m 42.148 26.422 l 42.219 26.438 l 42.285 26.461 l 42.344 26.488
 l 42.406 26.523 l 42.457 26.566 l 42.516 26.609 l 42.559 26.668 l 42.602
 26.719 l 42.637 26.785 l 42.668 26.84 l 42.688 26.906 l 42.703 26.977 l
 42.719 27.043 l 42.719 35.691 l 42.703 35.754 l 42.688 35.828 l 42.668 
35.891 l 42.637 35.957 l 42.602 36.016 l 42.559 36.07 l 42.516 36.121 l 
42.457 36.164 l 42.406 36.207 l 42.344 36.246 l 42.285 36.273 l 42.219 36.293
 l 42.148 36.316 l 42.082 36.324 l 42.012 36.332 l 38.895 36.332 l 38.82
 36.324 l 38.758 36.316 l 38.684 36.293 l 38.621 36.273 l 38.555 36.246 
l 38.496 36.207 l 38.441 36.164 l 38.391 36.121 l 38.348 36.07 l 38.305 
36.016 l 38.266 35.957 l 38.238 35.891 l 38.219 35.828 l 38.195 35.754 l
 38.188 35.691 l 38.18 35.617 l 38.18 27.113 l 38.188 27.043 l 38.195 26.977
 l 38.219 26.906 l 38.238 26.84 l 38.266 26.785 l 38.305 26.719 l 38.348
 26.668 l 38.391 26.609 l 38.441 26.566 l 38.496 26.523 l 38.555 26.488 
l 38.621 26.461 l 38.684 26.438 l 38.758 26.422 l 38.82 26.41 l h
42.082 26.41 m f*
0.517647 0.517647 0 rg
5.10235 w
1 J
1 j
[] 0.0 d
4 M q 1 0 0 1 0 0 cm
25.711 40.254 m 20.605 40.254 l S Q
q 1 0 0 1 0 0 cm
25.711 29.453 m 20.605 29.453 l S Q
q 1 0 0 1 0 0 cm
25.711 18.656 m 20.605 18.656 l S Q
27.625 5.305 m 27.691 5.313 l 27.762 5.336 l 27.828 5.355 l 27.887 5.387
 l 27.949 5.422 l 28 5.465 l 28.059 5.508 l 28.102 5.559 l 28.145 5.617 
l 28.18 5.68 l 28.207 5.738 l 28.23 5.805 l 28.254 5.875 l 28.258 5.941 
l 28.258 9.762 l 28.254 9.836 l 28.23 9.898 l 28.207 9.965 l 28.18 10.027
 l 28.145 10.086 l 28.102 10.145 l 28.059 10.195 l 28 10.246 l 27.949 10.289
 l 27.887 10.324 l 27.828 10.352 l 27.762 10.375 l 27.691 10.391 l 27.625
 10.402 l 18.699 10.402 l 18.625 10.391 l 18.563 10.375 l 18.496 10.352 
l 18.43 10.324 l 18.375 10.289 l 18.316 10.246 l 18.266 10.195 l 18.223 
10.145 l 18.18 10.086 l 18.145 10.027 l 18.113 9.965 l 18.086 9.898 l 18.07
 9.836 l 18.063 9.762 l 18.059 9.699 l 18.059 6.012 l 18.063 5.941 l 18.07
 5.875 l 18.086 5.805 l 18.113 5.738 l 18.145 5.68 l 18.18 5.617 l 18.223
 5.559 l 18.266 5.508 l 18.316 5.465 l 18.375 5.422 l 18.43 5.387 l 18.496
 5.355 l 18.563 5.336 l 18.625 5.313 l 18.699 5.305 l h
27.625 5.305 m f*
0.760784 g
57.605 12.734 m 57.605 13.359 57.098 13.867 56.473 13.867 c 55.844 13.867
 55.336 13.359 55.336 12.734 c 55.336 12.105 55.844 11.598 56.473 11.598
 c 57.098 11.598 57.605 12.105 57.605 12.734 c h
57.605 12.734 m f
41.449 46.75 m 41.449 47.375 40.941 47.883 40.313 47.883 c 39.688 47.883
 39.18 47.375 39.18 46.75 c 39.18 46.121 39.688 45.613 40.313 45.613 c 40.941
 45.613 41.449 46.121 41.449 46.75 c h
41.449 46.75 m f
57.039 62.621 m 57.039 63.25 56.531 63.758 55.906 63.758 c 55.277 63.758
 54.77 63.25 54.77 62.621 c 54.77 61.996 55.277 61.488 55.906 61.488 c 56.531
 61.488 57.039 61.996 57.039 62.621 c h
57.039 62.621 m f
78.582 49.582 m 78.582 50.211 78.074 50.719 77.449 50.719 c 76.82 50.719
 76.313 50.211 76.313 49.582 c 76.313 48.957 76.82 48.449 77.449 48.449 
c 78.074 48.449 78.582 48.957 78.582 49.582 c h
78.582 49.582 m f
97.855 24.922 m 97.855 25.547 97.348 26.055 96.723 26.055 c 96.098 26.055
 95.59 25.547 95.59 24.922 c 95.59 24.297 96.098 23.789 96.723 23.789 c 
97.348 23.789 97.855 24.297 97.855 24.922 c h
97.855 24.922 m f
68.945 49.582 m 68.945 50.211 68.438 50.719 67.809 50.719 c 67.184 50.719
 66.676 50.211 66.676 49.582 c 66.676 48.957 67.184 48.449 67.809 48.449
 c 68.438 48.449 68.945 48.957 68.945 49.582 c h
68.945 49.582 m f
64.805 12.734 m 64.805 13.359 64.297 13.867 63.672 13.867 c 63.043 13.867
 62.539 13.359 62.539 12.734 c 62.539 12.105 63.043 11.598 63.672 11.598
 c 64.297 11.598 64.805 12.105 64.805 12.734 c h
64.805 12.734 m f
72.004 12.734 m 72.004 13.359 71.496 13.867 70.871 13.867 c 70.246 13.867
 69.738 13.359 69.738 12.734 c 69.738 12.105 70.246 11.598 70.871 11.598
 c 71.496 11.598 72.004 12.105 72.004 12.734 c h
72.004 12.734 m f
79.203 12.734 m 79.203 13.359 78.695 13.867 78.07 13.867 c 77.445 13.867
 76.938 13.359 76.938 12.734 c 76.938 12.105 77.445 11.598 78.07 11.598 
c 78.695 11.598 79.203 12.105 79.203 12.734 c h
79.203 12.734 m f
57.605 19.934 m 57.605 20.559 57.098 21.066 56.473 21.066 c 55.844 21.066
 55.336 20.559 55.336 19.934 c 55.336 19.309 55.844 18.801 56.473 18.801
 c 57.098 18.801 57.605 19.309 57.605 19.934 c h
57.605 19.934 m f
64.805 19.934 m 64.805 20.559 64.297 21.066 63.672 21.066 c 63.043 21.066
 62.539 20.559 62.539 19.934 c 62.539 19.309 63.043 18.801 63.672 18.801
 c 64.297 18.801 64.805 19.309 64.805 19.934 c h
64.805 19.934 m f
72.004 19.934 m 72.004 20.559 71.496 21.066 70.871 21.066 c 70.246 21.066
 69.738 20.559 69.738 19.934 c 69.738 19.309 70.246 18.801 70.871 18.801
 c 71.496 18.801 72.004 19.309 72.004 19.934 c h
72.004 19.934 m f
79.203 19.934 m 79.203 20.559 78.695 21.066 78.07 21.066 c 77.445 21.066
 76.938 20.559 76.938 19.934 c 76.938 19.309 77.445 18.801 78.07 18.801 
c 78.695 18.801 79.203 19.309 79.203 19.934 c h
79.203 19.934 m f
57.605 27.133 m 57.605 27.758 57.098 28.266 56.473 28.266 c 55.844 28.266
 55.336 27.758 55.336 27.133 c 55.336 26.508 55.844 26 56.473 26 c 57.098
 26 57.605 26.508 57.605 27.133 c h
57.605 27.133 m f
64.805 27.133 m 64.805 27.758 64.297 28.266 63.672 28.266 c 63.043 28.266
 62.539 27.758 62.539 27.133 c 62.539 26.508 63.043 26 63.672 26 c 64.297
 26 64.805 26.508 64.805 27.133 c h
64.805 27.133 m f
72.004 27.133 m 72.004 27.758 71.496 28.266 70.871 28.266 c 70.246 28.266
 69.738 27.758 69.738 27.133 c 69.738 26.508 70.246 26 70.871 26 c 71.496
 26 72.004 26.508 72.004 27.133 c h
72.004 27.133 m f
79.203 27.133 m 79.203 27.758 78.695 28.266 78.07 28.266 c 77.445 28.266
 76.938 27.758 76.938 27.133 c 76.938 26.508 77.445 26 78.07 26 c 78.695
 26 79.203 26.508 79.203 27.133 c h
79.203 27.133 m f
57.605 34.332 m 57.605 34.961 57.098 35.465 56.473 35.465 c 55.844 35.465
 55.336 34.961 55.336 34.332 c 55.336 33.707 55.844 33.199 56.473 33.199
 c 57.098 33.199 57.605 33.707 57.605 34.332 c h
57.605 34.332 m f
64.805 34.332 m 64.805 34.961 64.297 35.465 63.672 35.465 c 63.043 35.465
 62.539 34.961 62.539 34.332 c 62.539 33.707 63.043 33.199 63.672 33.199
 c 64.297 33.199 64.805 33.707 64.805 34.332 c h
64.805 34.332 m f
72.004 34.332 m 72.004 34.961 71.496 35.465 70.871 35.465 c 70.246 35.465
 69.738 34.961 69.738 34.332 c 69.738 33.707 70.246 33.199 70.871 33.199
 c 71.496 33.199 72.004 33.707 72.004 34.332 c h
72.004 34.332 m f
79.203 34.332 m 79.203 34.961 78.695 35.465 78.07 35.465 c 77.445 35.465
 76.938 34.961 76.938 34.332 c 76.938 33.707 77.445 33.199 78.07 33.199 
c 78.695 33.199 79.203 33.707 79.203 34.332 c h
79.203 34.332 m f
0.517647 0 0 rg
2.834642 w
q 1 0 0 1 0 0 cm
40.383 31.434 m 40.449 31.371 l S Q
q 1 0 0 1 0 0 cm
34.078 31.434 m 40.383 31.434 l S Q
q 1 0 0 1 0 0 cm
23.16 29.453 m 32.09 29.453 l S Q
q 1 0 0 1 0 0 cm
32.09 29.453 m 34.078 31.434 l S Q
q 1 0 0 1 0 0 cm
40.449 35.836 m 45.129 40.508 l S Q
q 1 0 0 1 0 0 cm
40.449 31.371 m 40.449 35.836 l S Q
q 1 0 0 1 0 0 cm
45.129 40.508 m 55.898 40.508 l S Q
q 1 0 0 1 0 0 cm
55.898 40.508 m 58.168 42.773 l S Q
q 1 0 0 1 0 0 cm
58.168 42.773 m 58.168 49.793 l S Q
q 1 0 0 1 0 0 cm
52.078 62.762 m 56.043 62.762 l S Q
q 1 0 0 1 0 0 cm
47.965 58.652 m 52.078 62.762 l S Q
q 1 0 0 1 0 0 cm
47.965 50.715 m 47.965 58.652 l S Q
q 1 0 0 1 0 0 cm
40.313 46.742 m 44 46.742 l S Q
q 1 0 0 1 0 0 cm
44 46.742 m 47.965 50.715 l S Q
q 1 0 0 1 0 0 cm
29.281 40.254 m 35.488 46.461 l S Q
q 1 0 0 1 0 0 cm
23.16 40.254 m 29.281 40.254 l S Q
q 1 0 0 1 0 0 cm
35.488 46.461 m 40.238 46.461 l S Q
q 1 0 0 1 0 0 cm
55.898 62.617 m 56.043 62.762 l S Q
q 1 0 0 1 0 0 cm
96.652 24.992 m 68.73 24.992 l S Q
q 1 0 0 1 0 0 cm
89.137 42.277 m 96.652 42.277 l S Q
q 1 0 0 1 0 0 cm
87.363 40.508 m 89.137 42.277 l S Q
q 1 0 0 1 0 0 cm
75.074 40.508 m 87.363 40.508 l S Q
q 1 0 0 1 0 0 cm
72.625 49.793 m 72.625 42.961 l S Q
q 1 0 0 1 0 0 cm
72.625 42.961 m 75.074 40.508 l S Q
q 1 0 0 1 0 0 cm
96.652 54.539 m 100.621 58.508 l S Q
q 1 0 0 1 0 0 cm
96.652 42.277 m 96.652 54.539 l S Q
q 1 0 0 1 0 0 cm
62.984 58.371 m 62.984 49.793 l S Q
q 1 0 0 1 0 0 cm
67.383 62.762 m 62.984 58.371 l S Q
q 1 0 0 1 0 0 cm
82.121 58.508 m 87.293 58.508 l S Q
q 1 0 0 1 0 0 cm
67.383 62.762 m 77.867 62.762 l S Q
q 1 0 0 1 0 0 cm
77.867 62.762 m 82.121 58.508 l S Q
1 g
57.039 12.734 m 57.039 13.047 56.785 13.301 56.473 13.301 c 56.156 13.301
 55.902 13.047 55.902 12.734 c 55.902 12.418 56.156 12.164 56.473 12.164
 c 56.785 12.164 57.039 12.418 57.039 12.734 c h
57.039 12.734 m f
40.879 46.75 m 40.879 47.063 40.625 47.316 40.313 47.316 c 40 47.316 39.746
 47.063 39.746 46.75 c 39.746 46.434 40 46.18 40.313 46.18 c 40.625 46.18
 40.879 46.434 40.879 46.75 c h
40.879 46.75 m f
56.473 62.621 m 56.473 62.934 56.219 63.188 55.906 63.188 c 55.59 63.188
 55.336 62.934 55.336 62.621 c 55.336 62.309 55.59 62.055 55.906 62.055 
c 56.219 62.055 56.473 62.309 56.473 62.621 c h
56.473 62.621 m f
78.016 49.582 m 78.016 49.895 77.762 50.148 77.449 50.148 c 77.133 50.148
 76.879 49.895 76.879 49.582 c 76.879 49.27 77.133 49.016 77.449 49.016 
c 77.762 49.016 78.016 49.27 78.016 49.582 c h
78.016 49.582 m f
97.289 24.922 m 97.289 25.234 97.035 25.488 96.723 25.488 c 96.41 25.488
 96.156 25.234 96.156 24.922 c 96.156 24.609 96.41 24.355 96.723 24.355 
c 97.035 24.355 97.289 24.609 97.289 24.922 c h
97.289 24.922 m f
68.375 49.582 m 68.375 49.895 68.121 50.148 67.809 50.148 c 67.496 50.148
 67.242 49.895 67.242 49.582 c 67.242 49.27 67.496 49.016 67.809 49.016 
c 68.121 49.016 68.375 49.27 68.375 49.582 c h
68.375 49.582 m f
64.238 12.734 m 64.238 13.047 63.984 13.301 63.672 13.301 c 63.359 13.301
 63.105 13.047 63.105 12.734 c 63.105 12.418 63.359 12.164 63.672 12.164
 c 63.984 12.164 64.238 12.418 64.238 12.734 c h
64.238 12.734 m f
71.438 12.734 m 71.438 13.047 71.184 13.301 70.871 13.301 c 70.559 13.301
 70.305 13.047 70.305 12.734 c 70.305 12.418 70.559 12.164 70.871 12.164
 c 71.184 12.164 71.438 12.418 71.438 12.734 c h
71.438 12.734 m f
78.637 12.734 m 78.637 13.047 78.383 13.301 78.07 13.301 c 77.758 13.301
 77.504 13.047 77.504 12.734 c 77.504 12.418 77.758 12.164 78.07 12.164 
c 78.383 12.164 78.637 12.418 78.637 12.734 c h
78.637 12.734 m f
57.039 19.934 m 57.039 20.246 56.785 20.5 56.473 20.5 c 56.156 20.5 55.902
 20.246 55.902 19.934 c 55.902 19.621 56.156 19.367 56.473 19.367 c 56.785
 19.367 57.039 19.621 57.039 19.934 c h
57.039 19.934 m f
64.238 19.934 m 64.238 20.246 63.984 20.5 63.672 20.5 c 63.359 20.5 63.105
 20.246 63.105 19.934 c 63.105 19.621 63.359 19.367 63.672 19.367 c 63.984
 19.367 64.238 19.621 64.238 19.934 c h
64.238 19.934 m f
71.438 19.934 m 71.438 20.246 71.184 20.5 70.871 20.5 c 70.559 20.5 70.305
 20.246 70.305 19.934 c 70.305 19.621 70.559 19.367 70.871 19.367 c 71.184
 19.367 71.438 19.621 71.438 19.934 c h
71.438 19.934 m f
78.637 19.934 m 78.637 20.246 78.383 20.5 78.07 20.5 c 77.758 20.5 77.504
 20.246 77.504 19.934 c 77.504 19.621 77.758 19.367 78.07 19.367 c 78.383
 19.367 78.637 19.621 78.637 19.934 c h
78.637 19.934 m f
57.039 27.133 m 57.039 27.445 56.785 27.699 56.473 27.699 c 56.156 27.699
 55.902 27.445 55.902 27.133 c 55.902 26.82 56.156 26.566 56.473 26.566 
c 56.785 26.566 57.039 26.82 57.039 27.133 c h
57.039 27.133 m f
64.238 27.133 m 64.238 27.445 63.984 27.699 63.672 27.699 c 63.359 27.699
 63.105 27.445 63.105 27.133 c 63.105 26.82 63.359 26.566 63.672 26.566 
c 63.984 26.566 64.238 26.82 64.238 27.133 c h
64.238 27.133 m f
71.438 27.133 m 71.438 27.445 71.184 27.699 70.871 27.699 c 70.559 27.699
 70.305 27.445 70.305 27.133 c 70.305 26.82 70.559 26.566 70.871 26.566 
c 71.184 26.566 71.438 26.82 71.438 27.133 c h
71.438 27.133 m f
78.637 27.133 m 78.637 27.445 78.383 27.699 78.07 27.699 c 77.758 27.699
 77.504 27.445 77.504 27.133 c 77.504 26.82 77.758 26.566 78.07 26.566 c
 78.383 26.566 78.637 26.82 78.637 27.133 c h
78.637 27.133 m f
57.039 34.332 m 57.039 34.645 56.785 34.898 56.473 34.898 c 56.156 34.898
 55.902 34.645 55.902 34.332 c 55.902 34.02 56.156 33.766 56.473 33.766 
c 56.785 33.766 57.039 34.02 57.039 34.332 c h
57.039 34.332 m f
64.238 34.332 m 64.238 34.645 63.984 34.898 63.672 34.898 c 63.359 34.898
 63.105 34.645 63.105 34.332 c 63.105 34.02 63.359 33.766 63.672 33.766 
c 63.984 33.766 64.238 34.02 64.238 34.332 c h
64.238 34.332 m f
71.438 34.332 m 71.438 34.645 71.184 34.898 70.871 34.898 c 70.559 34.898
 70.305 34.645 70.305 34.332 c 70.305 34.02 70.559 33.766 70.871 33.766 
c 71.184 33.766 71.438 34.02 71.438 34.332 c h
71.438 34.332 m f
78.637 34.332 m 78.637 34.645 78.383 34.898 78.07 34.898 c 77.758 34.898
 77.504 34.645 77.504 34.332 c 77.504 34.02 77.758 33.766 78.07 33.766 c
 78.383 33.766 78.637 34.02 78.637 34.332 c h
78.637 34.332 m f
24.863 40.258 m 24.863 41.195 24.102 41.957 23.164 41.957 c 22.223 41.957
 21.465 41.195 21.465 40.258 c 21.465 39.316 22.223 38.555 23.164 38.555
 c 24.102 38.555 24.863 39.316 24.863 40.258 c h
24.863 40.258 m f
24.863 29.457 m 24.863 30.395 24.102 31.156 23.164 31.156 c 22.223 31.156
 21.465 30.395 21.465 29.457 c 21.465 28.52 22.223 27.758 23.164 27.758 
c 24.102 27.758 24.863 28.52 24.863 29.457 c h
24.863 29.457 m f
24.863 18.656 m 24.863 19.598 24.102 20.359 23.164 20.359 c 22.223 20.359
 21.465 19.598 21.465 18.656 c 21.465 17.719 22.223 16.957 23.164 16.957
 c 24.102 16.957 24.863 17.719 24.863 18.656 c h
24.863 18.656 m f
24.863 7.855 m 24.863 8.797 24.102 9.559 23.164 9.559 c 22.223 9.559 21.465
 8.797 21.465 7.855 c 21.465 6.918 22.223 6.156 23.164 6.156 c 24.102 6.156
 24.863 6.918 24.863 7.855 c h
24.863 7.855 m f
0 0.517647 0.517647 rg
0.340157 w
q 1 0 0 1 0 0 cm
71.352 67.434 m 56.043 67.434 l S Q
q 1 0 0 1 0 0 cm
71.352 58.082 m 56.043 58.082 l S Q
q 1 0 0 1 0 0 cm
71.352 67.434 m 71.352 58.082 l S Q
q 1 0 0 1 0 0 cm
88.113 47.809 m 90.949 47.809 l S Q
q 1 0 0 1 0 0 cm
89.531 49.227 m 89.531 46.391 l S Q
q 1 0 0 1 0 0 cm
105.711 45.711 m 108.727 42.695 l S Q
q 1 0 0 1 0 0 cm
87.586 45.711 m 84.57 42.695 l S Q
q 1 0 0 1 0 0 cm
87.586 45.711 m 92.367 45.711 l S Q
q 1 0 0 1 0 0 cm
105.711 45.711 m 100.93 45.711 l S Q
q 1 0 0 1 0 0 cm
108.727 42.695 m 108.727 21.555 l S Q
q 1 0 0 1 0 0 cm
84.57 42.695 m 84.57 21.555 l S Q
q 1 0 0 1 0 0 cm
84.57 21.555 m 92.367 21.555 l S Q
q 1 0 0 1 0 0 cm
108.727 21.555 m 100.93 21.555 l S Q
q 1 0 0 1 0 0 cm
79.855 41.781 m 79.855 44.906 l S Q
q 1 0 0 1 0 0 cm
82.547 41.781 m 79.855 41.781 l S Q
q 1 0 0 1 0 0 cm
82.547 37.535 m 82.547 41.781 l S Q
q 1 0 0 1 0 0 cm
55.758 41.781 m 55.758 56.313 l S Q
q 1 0 0 1 0 0 cm
53.063 41.781 m 55.758 41.781 l S Q
q 1 0 0 1 0 0 cm
53.063 37.535 m 53.063 41.781 l S Q
q 1 0 0 1 0 0 cm
84.32 67.578 m 88.285 67.578 l S Q
q 1 0 0 1 0 0 cm
103.594 67.578 m 99.625 67.578 l S Q
q 1 0 0 1 0 0 cm
84.32 67.578 m 84.32 64.18 l S Q
q 1 0 0 1 0 0 cm
103.594 67.578 m 103.594 64.18 l S Q
q 1 0 0 1 0 0 cm
103.594 49.434 m 103.594 52.84 l S Q
q 1 0 0 1 0 0 cm
103.594 49.434 m 99.625 49.434 l S Q
q 1 0 0 1 0 0 cm
84.32 49.434 m 88.285 49.434 l S Q
q 1 0 0 1 0 0 cm
84.32 49.434 m 84.32 52.84 l S Q
q 1 0 0 1 0 0 cm
46.805 27.563 m 44.574 27.563 l S Q
q 1 0 0 1 0 0 cm
45.691 26.445 m 45.691 28.676 l S Q
q 1 0 0 1 0 0 cm
33.805 29.355 m 30.785 32.371 l S Q
q 1 0 0 1 0 0 cm
47.102 29.355 m 50.117 32.371 l S Q
q 1 0 0 1 0 0 cm
47.102 29.355 m 43.457 29.355 l S Q
q 1 0 0 1 0 0 cm
33.805 29.355 m 37.445 29.355 l S Q
q 1 0 0 1 0 0 cm
30.785 32.371 m 30.785 48.688 l S Q
q 1 0 0 1 0 0 cm
50.117 32.371 m 50.117 48.688 l S Q
q 1 0 0 1 0 0 cm
50.117 48.688 m 43.457 48.688 l S Q
q 1 0 0 1 0 0 cm
30.785 48.688 m 37.445 48.688 l S Q
q 1 0 0 1 0 0 cm
30.527 7.004 m 30.527 8.703 l S Q
q 1 0 0 1 0 0 cm
28.828 7.855 m 30.527 7.004 l S Q
q 1 0 0 1 0 0 cm
30.527 8.703 m 28.828 7.855 l S Q
q 1 0 0 1 0 0 cm
9.555 0.172 m 9.555 47.938 l S Q
q 1 0 0 1 0 0 cm
26.875 32.43 m 26.875 37.273 l S Q
q 1 0 0 1 0 0 cm
26.875 21.629 m 26.875 26.473 l S Q
q 1 0 0 1 0 0 cm
26.875 10.828 m 26.875 15.676 l S Q
q 1 0 0 1 0 0 cm
26.875 47.938 m 26.875 43.227 l S Q
q 1 0 0 1 0 0 cm
26.875 0.172 m 26.875 4.875 l S Q
q 1 0 0 1 0 0 cm
0.172 47.938 m 26.875 47.938 l S Q
q 1 0 0 1 0 0 cm
0.172 0.172 m 0.172 47.938 l S Q
q 1 0 0 1 0 0 cm
26.875 0.172 m 0.172 0.172 l S Q
0.425196 w
q 1 0 0 1 0 0 cm
59.621 71.129 m 59.621 68.293 l 60.293 68.293 l 60.703 68.43 l 60.969 68.703
 l 61.105 68.969 l 61.242 69.508 l 61.242 69.91 l 61.105 70.453 l 60.969
 70.727 l 60.703 70.992 l 60.293 71.129 l 59.621 71.129 l S Q
q 1 0 0 1 0 0 cm
63.934 71.129 m 62.324 71.129 l S Q
q 1 0 0 1 0 0 cm
63.129 71.129 m 63.129 68.293 l 62.863 68.703 l 62.59 68.969 l 62.324 69.105
 l S Q
q 1 0 0 1 0 0 cm
103.688 19.98 m 103.551 20.117 l 103.145 20.246 l 102.871 20.246 l 102.469
 20.117 l 102.203 19.844 l 102.066 19.578 l 101.93 19.035 l 101.93 18.625
 l 102.066 18.086 l 102.203 17.82 l 102.469 17.547 l 102.871 17.418 l 103.145
 17.418 l 103.551 17.547 l 103.688 17.684 l S Q
q 1 0 0 1 0 0 cm
106.387 20.246 m 104.766 20.246 l S Q
q 1 0 0 1 0 0 cm
105.574 20.246 m 105.574 17.418 l 105.305 17.82 l 105.031 18.086 l 104.766
 18.223 l S Q
q 1 0 0 1 0 0 cm
107.465 17.684 m 107.598 17.547 l 107.871 17.418 l 108.547 17.418 l 108.813
 17.547 l 108.949 17.684 l 109.086 17.957 l 109.086 18.223 l 108.949 18.625
 l 107.328 20.246 l 109.086 20.246 l S Q
q 1 0 0 1 0 0 cm
51.762 6.355 m 51.762 8.652 l 51.891 8.922 l 52.027 9.059 l 52.301 9.195
 l 52.832 9.195 l 53.105 9.059 l 53.242 8.922 l 53.371 8.652 l 53.371 6.355
 l S Q
q 1 0 0 1 0 0 cm
54.59 6.633 m 54.727 6.492 l 54.992 6.355 l 55.668 6.355 l 55.941 6.492
 l 56.074 6.633 l 56.211 6.898 l 56.211 7.172 l 56.074 7.574 l 54.453 9.195
 l 56.211 9.195 l S Q
q 1 0 0 1 0 0 cm
93.484 71.129 m 92.129 71.129 l 92.129 68.293 l S Q
q 1 0 0 1 0 0 cm
94.289 68.566 m 94.426 68.43 l 94.699 68.293 l 95.371 68.293 l 95.645 68.43
 l 95.781 68.566 l 95.91 68.832 l 95.91 69.105 l 95.781 69.508 l 94.16 71.129
 l 95.91 71.129 l S Q
q 1 0 0 1 0 0 cm
49.262 52.32 m 49.391 52.453 l 49.527 52.863 l 49.527 53.129 l 49.391 53.531
 l 49.125 53.805 l 48.852 53.941 l 48.313 54.07 l 47.906 54.07 l 47.367 
53.941 l 47.102 53.805 l 46.828 53.531 l 46.691 53.129 l 46.691 52.863 l
 46.828 52.453 l 46.965 52.32 l S Q
q 1 0 0 1 0 0 cm
49.527 49.621 m 49.527 51.242 l S Q
q 1 0 0 1 0 0 cm
49.527 50.43 m 46.691 50.43 l 47.102 50.703 l 47.367 50.969 l 47.504 51.242
 l S Q
q 1 0 0 1 0 0 cm
30.109 25.012 m 32.141 25.012 l 32.543 25.148 l 32.809 25.414 l 32.945 
25.824 l 32.945 26.094 l S Q
q 1 0 0 1 0 0 cm
32.945 22.176 m 32.945 23.797 l S Q
q 1 0 0 1 0 0 cm
32.945 22.988 m 30.109 22.988 l 30.52 23.254 l 30.785 23.527 l 30.922 23.797
 l S Q
Q Q
showpage
%%Trailer
end
%%EOF
