%!PS-Adobe-3.0 EPSF-3.0
%%Creator: cairo 1.16.0 (https://cairographics.org)
%%CreationDate: Mon Mar  4 10:47:37 2019
%%Pages: 1
%%DocumentData: Clean7Bit
%%LanguageLevel: 2
%%BoundingBox: 76 39 524 336
%%EndComments
%%BeginProlog
50 dict begin
/q { gsave } bind def
/Q { grestore } bind def
/cm { 6 array astore concat } bind def
/w { setlinewidth } bind def
/J { setlinecap } bind def
/j { setlinejoin } bind def
/M { setmiterlimit } bind def
/d { setdash } bind def
/m { moveto } bind def
/l { lineto } bind def
/c { curveto } bind def
/h { closepath } bind def
/re { exch dup neg 3 1 roll 5 3 roll moveto 0 rlineto
      0 exch rlineto 0 rlineto closepath } bind def
/S { stroke } bind def
/f { fill } bind def
/f* { eofill } bind def
/n { newpath } bind def
/W { clip } bind def
/W* { eoclip } bind def
/BT { } bind def
/ET { } bind def
/BDC { mark 3 1 roll /BDC pdfmark } bind def
/EMC { mark /EMC pdfmark } bind def
/cairo_store_point { /cairo_point_y exch def /cairo_point_x exch def } def
/Tj { show currentpoint cairo_store_point } bind def
/TJ {
  {
    dup
    type /stringtype eq
    { show } { -0.001 mul 0 cairo_font_matrix dtransform rmoveto } ifelse
  } forall
  currentpoint cairo_store_point
} bind def
/cairo_selectfont { cairo_font_matrix aload pop pop pop 0 0 6 array astore
    cairo_font exch selectfont cairo_point_x cairo_point_y moveto } bind def
/Tf { pop /cairo_font exch def /cairo_font_matrix where
      { pop cairo_selectfont } if } bind def
/Td { matrix translate cairo_font_matrix matrix concatmatrix dup
      /cairo_font_matrix exch def dup 4 get exch 5 get cairo_store_point
      /cairo_font where { pop cairo_selectfont } if } bind def
/Tm { 2 copy 8 2 roll 6 array astore /cairo_font_matrix exch def
      cairo_store_point /cairo_font where { pop cairo_selectfont } if } bind def
/g { setgray } bind def
/rg { setrgbcolor } bind def
/d1 { setcachedevice } bind def
/cairo_data_source {
  CairoDataIndex CairoData length lt
    { CairoData CairoDataIndex get /CairoDataIndex CairoDataIndex 1 add def }
    { () } ifelse
} def
/cairo_flush_ascii85_file { cairo_ascii85_file status { cairo_ascii85_file flushfile } if } def
/cairo_image { image cairo_flush_ascii85_file } def
/cairo_imagemask { imagemask cairo_flush_ascii85_file } def
%%EndProlog
%%BeginSetup
%%EndSetup
%%Page: 1 1
%%BeginPageSetup
%%PageBoundingBox: 76 39 524 336
%%EndPageSetup
q 76 39 448 297 rectclip
1 0 0 -1 0 375 cm q
0.878431 0.933333 0.972549 rg
77.68 40.18 444.641 294.641 re f
0 g
1.875 w
1 J
0 j
[] 0.0 d
4 M q -1 0 0 1 0 0 cm
-77.68 40.18 -444.641 294.641 re S Q
0.901961 0.517647 0.521569 rg
482.559 215.246 m 496.645 176.164 l 456.102 185.23 l h
482.559 215.246 m f
0 g
0.326259 w
q 1 -0.881434 -0.881434 -1 0 0 cm
164.798 -360.504 m 192.111 -345.497 l 164.797 -330.489 l h
164.798 -360.504 m S Q
0.588235 0.964706 0.47451 rg
482.465 215.328 m 441.926 224.395 l 456.008 185.312 l h
482.465 215.328 m f
0 g
q 1 -0.881434 -0.881434 -1 0 0 cm
164.704 -360.504 m 137.393 -345.497 l 164.704 -330.488 l h
164.704 -360.504 m S Q
0.901961 0.517647 0.521569 rg
146.234 208.535 m 185.746 221.367 l 175.395 181.137 l h
146.234 208.535 m f
0 g
0.316922 w
q 0.939772 1 1 -0.939772 0 0 cm
183.712 -26.414 m 210.244 -11.836 l 183.715 2.744 l h
183.712 -26.414 m S Q
0.588235 0.964706 0.47451 rg
146.152 208.445 m 135.797 168.215 l 175.309 181.043 l h
146.152 208.445 m f
0 g
q 0.939772 1 1 -0.939772 0 0 cm
183.624 -26.412 m 157.093 -11.835 l 183.623 2.745 l h
183.624 -26.412 m S Q
0.901961 0.517647 0.521569 rg
284.438 70.344 m 274.938 110.785 l 314.168 97.121 l h
284.438 70.344 m f
0 g
0.323179 w
q -0.900535 1 1 0.900535 0 0 cm
-102.599 192.044 m -75.543 206.908 l -102.596 221.776 l h
-102.599 192.044 m S Q
0.588235 0.964706 0.47451 rg
284.52 70.254 m 323.75 56.586 l 314.25 97.027 l h
284.52 70.254 m f
0 g
q -0.900535 1 1 0.900535 0 0 cm
-102.689 192.045 m -129.744 206.911 l -102.689 221.775 l h
-102.689 192.045 m S Q
0.901961 0.517647 0.521569 rg
251.27 286.523 m 271.031 249.984 l 229.59 252.891 l h
251.27 286.523 m f
0 g
0.365556 w
q 1 -0.644538 -0.644538 -1 0 0 cm
47.049 -316.848 m 77.649 -300.032 l 47.047 -283.214 l h
47.049 -316.848 m S Q
0.588235 0.964706 0.47451 rg
251.164 286.59 m 209.723 289.5 l 229.488 252.957 l h
251.164 286.59 m f
0 g
q 1 -0.644538 -0.644538 -1 0 0 cm
46.944 -316.847 m 16.341 -300.032 l 46.945 -283.215 l h
46.944 -316.847 m S Q
0.901961 0.517647 0.521569 rg
436.617 98.809 m 473.75 117.434 l 469.562 76.102 l h
436.617 98.809 m f
0 g
0.358103 w
q 0.689174 1 1 -0.689174 0 0 cm
271 249.851 m 300.977 266.324 l 270.998 282.797 l h
271 249.851 m S Q
0.588235 0.964706 0.47451 rg
436.547 98.707 m 432.359 57.375 l 469.492 76 l h
436.547 98.707 m f
0 g
q 0.689174 1 1 -0.689174 0 0 cm
270.898 249.851 m 240.919 266.324 l 270.897 282.797 l h
270.898 249.851 m S Q
0.901961 0.517647 0.521569 rg
118.562 275.328 m 131.234 314.891 l 157.836 282.984 l h
118.562 275.328 m f
0 g
0.426872 w
q -0.194951 1 1 0.194951 0 0 cm
242.98 165.932 m 278.714 185.57 l 242.979 205.205 l h
242.98 165.932 m S Q
0.588235 0.964706 0.47451 rg
118.586 275.207 m 145.191 243.301 l 157.859 282.863 l h
118.586 275.207 m f
0 g
q -0.194951 1 1 0.194951 0 0 cm
242.858 165.932 m 207.124 185.57 l 242.858 205.205 l h
242.858 165.932 m S Q
0.901961 0.517647 0.521569 rg
206.746 103.906 m 181.008 136.512 l 222.332 140.758 l h
206.746 103.906 m f
0 g
0.400558 w
q -1 0.42292 0.42292 1 0 0 cm
-138.101 162.312 m -104.571 180.737 l -138.102 199.164 l h
-138.101 162.312 m S Q
0.588235 0.964706 0.47451 rg
206.863 103.859 m 248.188 108.102 l 222.449 140.711 l h
206.863 103.859 m f
0 g
q -1 0.42292 0.42292 1 0 0 cm
-138.217 162.314 m -171.75 180.738 l -138.218 199.166 l h
-138.217 162.314 m S Q
0.901961 0.517647 0.521569 rg
142.156 68.441 m 100.652 66.676 l 121.418 102.656 l h
142.156 68.441 m f
0 g
0.371914 w
q -1 -0.606169 -0.606169 1 0 0 cm
-134.297 -12.965 m -103.163 4.142 l -134.298 21.249 l h
-134.297 -12.965 m S Q
0.588235 0.964706 0.47451 rg
142.262 68.504 m 163.027 104.484 l 121.523 102.723 l h
142.262 68.504 m f
0 g
q -1 -0.606169 -0.606169 1 0 0 cm
-134.402 -12.966 m -165.537 4.141 l -134.405 21.251 l h
-134.402 -12.966 m S Q
0.901961 0.517647 0.521569 rg
304.125 197.125 m 304.926 155.594 l 269.438 177.188 l h
304.125 197.125 m f
0 g
0.377061 w
q 0.574777 -1 -1 -0.574777 0 0 cm
-16.778 -313.769 m 14.786 -296.427 l -16.778 -279.081 l h
-16.778 -313.769 m S Q
0.588235 0.964706 0.47451 rg
304.066 197.234 m 268.578 218.832 l 269.375 177.297 l h
304.066 197.234 m f
0 g
q 0.574777 -1 -1 -0.574777 0 0 cm
-16.886 -313.772 m -48.452 -296.427 l -16.887 -279.081 l h
-16.886 -313.772 m S Q
0.901961 0.517647 0.521569 rg
440.109 308.242 m 480.023 296.727 l 448.902 269.207 l h
440.109 308.242 m f
0 g
0.424275 w
q 1 0.225284 0.225284 -1 0 0 cm
484.939 -198.993 m 520.457 -179.476 l 484.938 -159.958 l h
484.939 -198.993 m S Q
0.588235 0.964706 0.47451 rg
439.988 308.215 m 408.867 280.695 l 448.781 269.18 l h
439.988 308.215 m f
0 g
q 1 0.225284 0.225284 -1 0 0 cm
484.818 -198.993 m 449.3 -179.475 l 484.817 -159.958 l h
484.818 -198.993 m S Q
0.901961 0.517647 0.521569 rg
331.129 241.164 m 321.188 281.496 l 360.562 268.266 l h
331.129 241.164 m f
0 g
0.319944 w
q -0.920744 1 1 0.920744 0 0 cm
-34.485 299.377 m -7.704 314.094 l -34.485 328.811 l h
-34.485 299.377 m S Q
0.588235 0.964706 0.47451 rg
331.215 241.07 m 370.594 227.84 l 360.648 268.172 l h
331.215 241.07 m f
0 g
q -0.920744 1 1 0.920744 0 0 cm
-34.579 299.377 m -61.362 314.095 l -34.578 328.811 l h
-34.579 299.377 m S Q
0.901961 0.517647 0.521569 rg
370.527 123.137 m 339.945 151.254 l 380.074 161.992 l h
370.527 123.137 m f
0 g
0.422348 w
q -1 0.245683 0.245683 1 0 0 cm
-320.905 201.978 m -285.549 221.408 l -320.906 240.833 l h
-320.905 201.978 m S Q
0.588235 0.964706 0.47451 rg
370.648 123.109 m 410.777 133.852 l 380.195 161.965 l h
370.648 123.109 m f
0 g
q -1 0.245683 0.245683 1 0 0 cm
-321.025 201.98 m -356.381 221.408 l -321.026 240.836 l h
-321.025 201.98 m S Q
Q Q
showpage
%%Trailer
end
%%EOF
