%!PS-Adobe-3.0 EPSF-3.0
%%Creator: cairo 1.16.0 (https://cairographics.org)
%%CreationDate: Mon Mar  4 10:47:05 2019
%%Pages: 1
%%DocumentData: Clean7Bit
%%LanguageLevel: 2
%%BoundingBox: 26 39 575 336
%%EndComments
%%BeginProlog
50 dict begin
/q { gsave } bind def
/Q { grestore } bind def
/cm { 6 array astore concat } bind def
/w { setlinewidth } bind def
/J { setlinecap } bind def
/j { setlinejoin } bind def
/M { setmiterlimit } bind def
/d { setdash } bind def
/m { moveto } bind def
/l { lineto } bind def
/c { curveto } bind def
/h { closepath } bind def
/re { exch dup neg 3 1 roll 5 3 roll moveto 0 rlineto
      0 exch rlineto 0 rlineto closepath } bind def
/S { stroke } bind def
/f { fill } bind def
/f* { eofill } bind def
/n { newpath } bind def
/W { clip } bind def
/W* { eoclip } bind def
/BT { } bind def
/ET { } bind def
/BDC { mark 3 1 roll /BDC pdfmark } bind def
/EMC { mark /EMC pdfmark } bind def
/cairo_store_point { /cairo_point_y exch def /cairo_point_x exch def } def
/Tj { show currentpoint cairo_store_point } bind def
/TJ {
  {
    dup
    type /stringtype eq
    { show } { -0.001 mul 0 cairo_font_matrix dtransform rmoveto } ifelse
  } forall
  currentpoint cairo_store_point
} bind def
/cairo_selectfont { cairo_font_matrix aload pop pop pop 0 0 6 array astore
    cairo_font exch selectfont cairo_point_x cairo_point_y moveto } bind def
/Tf { pop /cairo_font exch def /cairo_font_matrix where
      { pop cairo_selectfont } if } bind def
/Td { matrix translate cairo_font_matrix matrix concatmatrix dup
      /cairo_font_matrix exch def dup 4 get exch 5 get cairo_store_point
      /cairo_font where { pop cairo_selectfont } if } bind def
/Tm { 2 copy 8 2 roll 6 array astore /cairo_font_matrix exch def
      cairo_store_point /cairo_font where { pop cairo_selectfont } if } bind def
/g { setgray } bind def
/rg { setrgbcolor } bind def
/d1 { setcachedevice } bind def
/cairo_data_source {
  CairoDataIndex CairoData length lt
    { CairoData CairoDataIndex get /CairoDataIndex CairoDataIndex 1 add def }
    { () } ifelse
} def
/cairo_flush_ascii85_file { cairo_ascii85_file status { cairo_ascii85_file flushfile } if } def
/cairo_image { image cairo_flush_ascii85_file } def
/cairo_imagemask { imagemask cairo_flush_ascii85_file } def
%%EndProlog
%%BeginSetup
%%EndSetup
%%Page: 1 1
%%BeginPageSetup
%%PageBoundingBox: 26 39 575 336
%%EndPageSetup
q 26 39 549 297 rectclip
1 0 0 -1 0 375 cm q
0.878431 0.933333 0.972549 rg
77.68 40.18 444.641 294.641 re f
0 g
1.875 w
1 J
0 j
[] 0.0 d
4 M q -1 0 0 1 0 0 cm
-77.68 40.18 -444.641 294.641 re S Q
0.180392 0.235294 1 rg
26.723 293.035 m 562.434 293.035 l 552.766 285.215 m 573.277 293.035 l 
552.766 300.859 l h
552.766 285.215 m f*
1.5 w
0 J
1 j
q 1 0 0 1 0 0 cm
26.723 293.035 m 562.434 293.035 l 552.766 285.215 m 573.277 293.035 l 
552.766 300.859 l h
552.766 285.215 m S Q
26.723 152.32 m 562.434 152.32 l 552.766 144.5 m 573.277 152.32 l 552.766
 160.145 l h
552.766 144.5 m f*
q 1 0 0 1 0 0 cm
26.723 152.32 m 562.434 152.32 l 552.766 144.5 m 573.277 152.32 l 552.766
 160.145 l h
552.766 144.5 m S Q
26.723 222.68 m 562.434 222.68 l 552.766 214.855 m 573.277 222.68 l 552.766
 230.5 l h
552.766 214.855 m f*
q 1 0 0 1 0 0 cm
26.723 222.68 m 562.434 222.68 l 552.766 214.855 m 573.277 222.68 l 552.766
 230.5 l h
552.766 214.855 m S Q
26.723 81.965 m 562.434 81.965 l 552.766 74.141 m 573.277 81.965 l 552.766
 89.785 l h
552.766 74.141 m f*
q 1 0 0 1 0 0 cm
26.723 81.965 m 562.434 81.965 l 552.766 74.141 m 573.277 81.965 l 552.766
 89.785 l h
552.766 74.141 m S Q
0.901961 0.517647 0.521569 rg
473.793 219.77 m 504.844 192.172 l 464.898 180.758 l h
473.793 219.77 m f
0 g
0.424028 w
1 J
0 j
q 1 -0.227989 -0.227989 -1 0 0 cm
402.753 -311.593 m 438.251 -292.088 l 402.753 -272.581 l h
402.753 -311.593 m S Q
0.588235 0.964706 0.47451 rg
473.672 219.797 m 433.727 208.383 l 464.777 180.785 l h
473.672 219.797 m f
0 g
q 1 -0.227989 -0.227989 -1 0 0 cm
402.632 -311.593 m 367.134 -292.085 l 402.632 -272.581 l h
402.632 -311.593 m S Q
0.901961 0.517647 0.521569 rg
163.301 214.637 m 196.965 190.289 l 158.363 174.93 l h
163.301 214.637 m f
0 g
0.431586 w
q 1 -0.124343 -0.124343 -1 0 0 cm
134.532 -231.365 m 170.665 -211.51 l 134.532 -191.658 l h
134.532 -231.365 m S Q
0.588235 0.964706 0.47451 rg
163.18 214.648 m 124.582 199.289 l 158.242 174.945 l h
163.18 214.648 m f
0 g
q 1 -0.124343 -0.124343 -1 0 0 cm
134.411 -231.362 m 98.282 -211.51 l 134.411 -191.658 l h
134.411 -231.362 m S Q
0.901961 0.517647 0.521569 rg
306.098 102.52 m 333.711 71.48 l 292.707 64.812 l h
306.098 102.52 m f
0 g
0.409832 w
q 1 -0.355118 -0.355118 -1 0 0 cm
239.489 -187.567 m 273.798 -168.711 l 239.489 -149.859 l h
239.489 -187.567 m S Q
0.588235 0.964706 0.47451 rg
305.98 102.559 m 264.977 95.891 l 292.59 64.855 l h
305.98 102.559 m f
0 g
q 1 -0.355118 -0.355118 -1 0 0 cm
239.373 -187.564 m 205.064 -168.712 l 239.372 -149.861 l h
239.373 -187.564 m S Q
0.901961 0.517647 0.521569 rg
235.723 289.195 m 275.82 278.34 l 245.156 250.312 l h
235.723 289.195 m f
0 g
0.422648 w
q 1 0.242612 0.242612 -1 0 0 cm
288.881 -219.109 m 324.263 -199.67 l 288.881 -180.226 l h
288.881 -219.109 m S Q
0.588235 0.964706 0.47451 rg
235.602 289.168 m 204.938 261.141 l 245.035 250.285 l h
235.602 289.168 m f
0 g
q 1 0.242612 0.242612 -1 0 0 cm
288.761 -219.111 m 253.379 -199.668 l 288.761 -180.228 l h
288.761 -219.111 m S Q
0.901961 0.517647 0.521569 rg
448.082 106.781 m 488.352 96.582 l 458.152 68.059 l h
448.082 106.781 m f
0 g
0.420909 w
q 1 0.26004 0.26004 -1 0 0 cm
445.71 9.121 m 480.945 28.483 l 445.711 47.844 l h
445.71 9.121 m S Q
0.588235 0.964706 0.47451 rg
447.961 106.75 m 417.758 78.227 l 458.031 68.027 l h
447.961 106.75 m f
0 g
q 1 0.26004 0.26004 -1 0 0 cm
445.589 9.121 m 410.351 28.481 l 445.59 47.844 l h
445.589 9.121 m S Q
0.901961 0.517647 0.521569 rg
135.031 298.848 m 174.199 285.008 l 141.516 259.363 l h
135.031 298.848 m f
0 g
0.429158 w
q 1 0.164236 0.164236 -1 0 0 cm
179.277 -269.404 m 215.203 -249.664 l 179.277 -229.92 l h
179.277 -269.404 m S Q
0.588235 0.964706 0.47451 rg
134.906 298.828 m 102.223 273.188 l 141.391 259.344 l h
134.906 298.828 m f
0 g
q 1 0.164236 0.164236 -1 0 0 cm
179.152 -269.405 m 143.226 -249.665 l 179.152 -229.921 l h
179.152 -269.405 m S Q
0.901961 0.517647 0.521569 rg
205.938 140.344 m 247.426 138.195 l 223.367 104.328 l h
205.938 140.344 m f
0 g
0.391476 w
q 1 0.483943 0.483943 -1 0 0 cm
221.889 -32.962 m 254.662 -14.953 l 221.889 3.054 l h
221.889 -32.962 m S Q
0.588235 0.964706 0.47451 rg
205.828 140.289 m 181.77 106.422 l 223.258 104.273 l h
205.828 140.289 m f
0 g
q 1 0.483943 0.483943 -1 0 0 cm
221.779 -32.961 m 189.006 -14.954 l 221.779 3.055 l h
221.779 -32.961 m S Q
0.901961 0.517647 0.521569 rg
143.066 102.141 m 162.09 65.211 l 120.719 68.953 l h
143.066 102.141 m f
0 g
0.360743 w
q 1 -0.673382 -0.673382 -1 0 0 cm
51.111 -136.558 m 81.309 -119.963 l 51.111 -103.37 l h
51.111 -136.558 m S Q
0.588235 0.964706 0.47451 rg
142.965 102.211 m 101.59 105.953 l 120.613 69.023 l h
142.965 102.211 m f
0 g
q 1 -0.673382 -0.673382 -1 0 0 cm
51.008 -136.559 m 20.808 -119.965 l 51.006 -103.37 l h
51.008 -136.559 m S Q
0.901961 0.517647 0.521569 rg
280.062 206.066 m 321.086 199.508 l 293.555 168.398 l h
280.062 206.066 m f
0 g
0.409438 w
q 1 0.358168 0.358168 -1 0 0 cm
313.634 -93.732 m 347.912 -74.897 l 313.635 -56.064 l h
313.634 -93.732 m S Q
0.588235 0.964706 0.47451 rg
279.945 206.023 m 252.418 174.914 l 293.438 168.355 l h
279.945 206.023 m f
0 g
q 1 0.358168 0.358168 -1 0 0 cm
313.517 -93.732 m 279.244 -74.898 l 313.518 -56.063 l h
313.517 -93.732 m S Q
0.901961 0.517647 0.521569 rg
443.746 308.703 m 480.891 290.102 l 445.273 268.723 l h
443.746 308.703 m f
0 g
0.434591 w
q 1 0.0382145 0.0382145 -1 0 0 cm
454.879 -291.32 m 491.259 -271.328 l 454.878 -251.34 l h
454.879 -291.32 m S Q
0.588235 0.964706 0.47451 rg
443.621 308.699 m 408.004 287.316 l 445.148 268.715 l h
443.621 308.699 m f
0 g
q 1 0.0382145 0.0382145 -1 0 0 cm
454.754 -291.321 m 418.373 -271.328 l 454.753 -251.337 l h
454.754 -291.321 m S Q
0.901961 0.517647 0.521569 rg
349.527 274.34 m 381.77 248.145 l 342.371 234.973 l h
349.527 274.34 m f
0 g
0.427894 w
q 1 -0.18183 -0.18183 -1 0 0 cm
290.054 -327.08 m 325.875 -307.399 l 290.056 -287.714 l h
290.054 -327.08 m S Q
0.588235 0.964706 0.47451 rg
349.406 274.363 m 310.008 261.191 l 342.25 234.996 l h
349.406 274.363 m f
0 g
q 1 -0.18183 -0.18183 -1 0 0 cm
289.933 -327.082 m 254.114 -307.397 l 289.935 -287.715 l h
289.933 -327.082 m S Q
0.901961 0.517647 0.521569 rg
371.047 162.086 m 410.949 150.523 l 379.797 123.043 l h
371.047 162.086 m f
0 g
0.424386 w
q 1 0.224054 0.224054 -1 0 0 cm
387.891 -75.177 m 423.419 -55.655 l 387.893 -36.134 l h
387.891 -75.177 m S Q
0.588235 0.964706 0.47451 rg
370.926 162.059 m 339.773 134.578 l 379.676 123.016 l h
370.926 162.059 m f
0 g
q 1 0.224054 0.224054 -1 0 0 cm
387.77 -75.177 m 352.244 -55.656 l 387.772 -36.134 l h
387.77 -75.177 m S Q
Q Q
showpage
%%Trailer
end
%%EOF
