%!PS-Adobe-3.0 EPSF-3.0 
%%BoundingBox: 0 0 842 595
%%Pages: 0
%%Creator: LibreOffice 6.1
%%Title: none
%%CreationDate: none
%%LanguageLevel: 2
%%EndComments
%%BeginProlog
%%BeginResource: procset SDRes-Prolog 1.0 0
/b4_inc_state save def
/dict_count countdictstack def
/op_count count 1 sub def
userdict begin
0 setgray 0 setlinecap 1 setlinewidth 0 setlinejoin 10 setmiterlimit[] 0 setdash newpath
/languagelevel where {pop languagelevel 1 ne {false setstrokeadjust false setoverprint} if} if
/bdef {bind def} bind def
/c {setgray} bdef
/l {neg lineto} bdef
/rl {neg rlineto} bdef
/lc {setlinecap} bdef
/lj {setlinejoin} bdef
/lw {setlinewidth} bdef
/ml {setmiterlimit} bdef
/ld {setdash} bdef
/m {neg moveto} bdef
/ct {6 2 roll neg 6 2 roll neg 6 2 roll neg curveto} bdef
/r {rotate} bdef
/t {neg translate} bdef
/s {scale} bdef
/sw {show} bdef
/gs {gsave} bdef
/gr {grestore} bdef
/f {findfont dup length dict begin
{1 index /FID ne {def} {pop pop} ifelse} forall /Encoding ISOLatin1Encoding def
currentdict end /NFont exch definefont pop /NFont findfont} bdef
/p {closepath} bdef
/sf {scalefont setfont} bdef
/ef {eofill}bdef
/pc {closepath stroke}bdef
/ps {stroke}bdef
/pum {matrix currentmatrix}bdef
/pom {setmatrix}bdef
/bs {/aString exch def /nXOfs exch def /nWidth exch def currentpoint nXOfs 0 rmoveto pum nWidth aString stringwidth pop div 1 scale aString show pom moveto} bdef
%%EndResource
%%EndProlog
%%BeginSetup
%%EndSetup
%%Page: 1 1
%%BeginPageSetup
%%EndPageSetup
pum
0.02835 0.02833 s 
0 -21000 t
/tm matrix currentmatrix def
gs
tm setmatrix
-1072 -1105 t 
1 1 s 
1072 1105 m 30771 1105 l 30771 22104 l 1072 22104 l 1072 1105 l eoclip newpath
gs
1072 1105 m 30771 1105 l 30771 22104 l 1072 22104 l 1072 1105 l eoclip newpath
gs
0 lw 1 lj 0.000 c 6647 10555 m  4396 10555 l  4396 8013 l  8899 8013 l  8899 10555 l 
6647 10555 l  pc
gr
pum
5887 9135 t
0.000 c 424 -142 m  424 -99 410 -65 380 -39 ct 351 -13 310 0 258 0 ct 58 0 l  58 -484 l 
375 -484 l  375 -430 l  123 -430 l  123 -279 l  254 -279 l  308 -279 350 -267 380 -243 ct 
409 -219 424 -185 424 -142 ct p
359 -141 m  359 -169 349 -190 330 -205 ct 312 -219 284 -227 246 -227 ct 123 -227 l 
123 -52 l  249 -52 l  286 -52 314 -60 332 -75 ct 350 -91 359 -113 359 -141 ct 
p ef
740 0 m  740 -326 l  611 -326 l  598 -226 587 -159 580 -124 ct 573 -89 565 -63 557 -45 ct 
548 -27 538 -14 525 -6 ct 513 3 497 7 477 7 ct 466 7 455 6 445 3 ct 445 -42 l  450 -40 458 -39 468 -39 ct 
481 -39 491 -45 498 -57 ct 506 -70 513 -92 519 -123 ct 526 -154 533 -199 541 -260 ct 
556 -371 l  802 -371 l  802 0 l  740 0 l  p ef
1205 -186 m  1205 -121 1191 -72 1162 -41 ct 1134 -9 1092 7 1038 7 ct 984 7 943 -10 915 -43 ct 
887 -76 873 -123 873 -186 ct 873 -314 929 -378 1040 -378 ct 1096 -378 1138 -362 1165 -331 ct 
1192 -300 1205 -252 1205 -186 ct p
1140 -186 m  1140 -237 1133 -274 1117 -298 ct 1102 -321 1077 -332 1041 -332 ct 
1005 -332 979 -321 962 -297 ct 946 -273 938 -236 938 -186 ct 938 -137 946 -100 962 -76 ct 
978 -51 1003 -39 1037 -39 ct 1074 -39 1100 -51 1116 -74 ct 1132 -98 1140 -135 1140 -186 ct 
p ef
1268 -371 m  1330 -371 l  1330 -209 l  1337 -209 1343 -210 1349 -212 ct 1354 -213 1360 -217 1366 -223 ct 
1372 -229 1378 -237 1386 -248 ct 1393 -258 1419 -299 1464 -371 ct 1528 -371 l 
1454 -260 l  1433 -229 1419 -210 1411 -203 ct 1532 0 l  1463 0 l  1368 -171 l 
1363 -169 1357 -167 1350 -166 ct 1343 -165 1336 -164 1330 -164 ct 1330 0 l  1268 0 l 
1268 -371 l  p ef
pom
pum
5371 9921 t
331 -371 m  331 0 l  270 0 l  270 -326 l  110 -326 l  110 0 l  49 0 l 
49 -371 l  331 -371 l  p ef
476 -371 m  476 -168 l  473 -73 l  644 -371 l  711 -371 l  711 0 l  653 0 l 
653 -226 l  653 -235 653 -247 654 -264 ct 655 -280 655 -292 656 -299 ct 482 0 l 
417 0 l  417 -371 l  476 -371 l  p ef
761 -371 m  1059 -371 l  1059 -326 l  941 -326 l  941 0 l  879 0 l  879 -326 l 
761 -326 l  761 -371 l  p ef
1195 7 m  1158 7 1130 -3 1111 -23 ct 1092 -42 1083 -69 1083 -103 ct 1083 -142 1095 -171 1121 -192 ct 
1146 -213 1187 -224 1243 -225 ct 1326 -226 l  1326 -247 l  1326 -277 1320 -298 1307 -311 ct 
1294 -324 1274 -331 1247 -331 ct 1219 -331 1199 -326 1186 -317 ct 1174 -308 1166 -293 1164 -272 ct 
1099 -278 l  1110 -345 1159 -378 1248 -378 ct 1295 -378 1330 -367 1353 -346 ct 
1377 -325 1389 -294 1389 -253 ct 1389 -93 l  1389 -75 1391 -61 1396 -52 ct 1401 -43 1410 -38 1423 -38 ct 
1429 -38 1436 -39 1443 -40 ct 1443 -2 l  1428 2 1412 4 1396 4 ct 1373 4 1356 -2 1346 -14 ct 
1336 -27 1330 -45 1328 -71 ct 1326 -71 l  1310 -43 1292 -22 1271 -11 ct 1250 1 1225 7 1195 7 ct 
p
1209 -39 m  1232 -39 1252 -44 1269 -55 ct 1287 -65 1301 -79 1311 -97 ct 1321 -115 1326 -134 1326 -153 ct 
1326 -183 l  1259 -182 l  1230 -181 1208 -178 1193 -173 ct 1178 -167 1166 -159 1158 -147 ct 
1150 -136 1146 -121 1146 -102 ct 1146 -82 1152 -67 1163 -56 ct 1173 -45 1189 -39 1209 -39 ct 
p ef
1540 -371 m  1540 -214 l  1707 -214 l  1707 -371 l  1769 -371 l  1769 0 l 
1707 0 l  1707 -169 l  1540 -169 l  1540 0 l  1479 0 l  1479 -371 l  1540 -371 l 
p ef
1915 -371 m  1915 -168 l  1912 -73 l  2083 -371 l  2150 -371 l  2150 0 l 
2092 0 l  2092 -226 l  2092 -235 2092 -247 2093 -264 ct 2094 -280 2094 -292 2095 -299 ct 
1921 0 l  1856 0 l  1856 -371 l  1915 -371 l  p ef
2370 -157 m  2262 0 l  2193 0 l  2311 -161 l  2254 -173 2225 -209 2225 -268 ct 
2225 -303 2238 -328 2262 -345 ct 2287 -362 2323 -371 2370 -371 ct 2518 -371 l 
2518 0 l  2457 0 l  2457 -157 l  2370 -157 l  p
2457 -327 m  2377 -327 l  2347 -327 2325 -322 2311 -312 ct 2298 -301 2291 -285 2291 -264 ct 
2291 -243 2297 -226 2309 -216 ct 2321 -205 2342 -200 2370 -200 ct 2457 -200 l 
2457 -327 l  p ef
pom
gs
0 lw 1 lj 15922 10555 m  13616 10555 l  13616 8013 l  18227 8013 l  18227 10555 l 
15922 10555 l  pc
gr
pum
15162 9135 t
424 -142 m  424 -99 410 -65 380 -39 ct 351 -13 310 0 258 0 ct 58 0 l  58 -484 l 
375 -484 l  375 -430 l  123 -430 l  123 -279 l  254 -279 l  308 -279 350 -267 380 -243 ct 
409 -219 424 -185 424 -142 ct p
359 -141 m  359 -169 349 -190 330 -205 ct 312 -219 284 -227 246 -227 ct 123 -227 l 
123 -52 l  249 -52 l  286 -52 314 -60 332 -75 ct 350 -91 359 -113 359 -141 ct 
p ef
740 0 m  740 -326 l  611 -326 l  598 -226 587 -159 580 -124 ct 573 -89 565 -63 557 -45 ct 
548 -27 538 -14 525 -6 ct 513 3 497 7 477 7 ct 466 7 455 6 445 3 ct 445 -42 l  450 -40 458 -39 468 -39 ct 
481 -39 491 -45 498 -57 ct 506 -70 513 -92 519 -123 ct 526 -154 533 -199 541 -260 ct 
556 -371 l  802 -371 l  802 0 l  740 0 l  p ef
1205 -186 m  1205 -121 1191 -72 1162 -41 ct 1134 -9 1092 7 1038 7 ct 984 7 943 -10 915 -43 ct 
887 -76 873 -123 873 -186 ct 873 -314 929 -378 1040 -378 ct 1096 -378 1138 -362 1165 -331 ct 
1192 -300 1205 -252 1205 -186 ct p
1140 -186 m  1140 -237 1133 -274 1117 -298 ct 1102 -321 1077 -332 1041 -332 ct 
1005 -332 979 -321 962 -297 ct 946 -273 938 -236 938 -186 ct 938 -137 946 -100 962 -76 ct 
978 -51 1003 -39 1037 -39 ct 1074 -39 1100 -51 1116 -74 ct 1132 -98 1140 -135 1140 -186 ct 
p ef
1268 -371 m  1330 -371 l  1330 -209 l  1337 -209 1343 -210 1349 -212 ct 1354 -213 1360 -217 1366 -223 ct 
1372 -229 1378 -237 1386 -248 ct 1393 -258 1419 -299 1464 -371 ct 1528 -371 l 
1454 -260 l  1433 -229 1419 -210 1411 -203 ct 1532 0 l  1463 0 l  1368 -171 l 
1363 -169 1357 -167 1350 -166 ct 1343 -165 1336 -164 1330 -164 ct 1330 0 l  1268 0 l 
1268 -371 l  p ef
pom
pum
14068 9921 t
65 146 m  49 146 34 145 23 142 ct 23 96 l  32 97 41 98 52 98 ct 90 98 121 70 143 13 ct 
149 -2 l  2 -371 l  68 -371 l  146 -166 l  147 -163 148 -159 150 -154 ct 
151 -150 157 -135 165 -110 ct 174 -84 179 -70 179 -67 ct 203 -135 l  285 -371 l 
350 -371 l  207 0 l  192 40 177 69 164 89 ct 151 108 136 122 120 132 ct 104 141 86 146 65 146 ct 
p ef
672 -371 m  672 0 l  611 0 l  611 -326 l  451 -326 l  451 0 l  390 0 l 
390 -371 l  672 -371 l  p ef
1069 -187 m  1069 -58 1023 7 933 7 ct 875 7 837 -15 817 -58 ct 816 -58 l  817 -56 817 -36 817 1 ct 
817 146 l  755 146 l  755 -295 l  755 -334 755 -359 753 -371 ct 813 -371 l 
813 -370 813 -367 814 -361 ct 814 -356 815 -347 815 -335 ct 816 -324 816 -316 816 -311 ct 
818 -311 l  829 -334 843 -351 861 -362 ct 879 -372 903 -378 933 -378 ct 978 -378 1012 -362 1035 -332 ct 
1058 -301 1069 -253 1069 -187 ct p
1004 -186 m  1004 -238 997 -275 983 -297 ct 969 -319 947 -330 917 -330 ct 892 -330 873 -325 859 -315 ct 
846 -304 835 -288 828 -266 ct 821 -244 817 -216 817 -181 ct 817 -132 825 -96 840 -73 ct 
856 -50 881 -39 916 -39 ct 947 -39 969 -50 983 -72 ct 997 -95 1004 -133 1004 -186 ct 
p ef
1227 7 m  1190 7 1162 -3 1143 -23 ct 1124 -42 1115 -69 1115 -103 ct 1115 -142 1127 -171 1153 -192 ct 
1178 -213 1219 -224 1275 -225 ct 1358 -226 l  1358 -247 l  1358 -277 1352 -298 1339 -311 ct 
1326 -324 1306 -331 1279 -331 ct 1251 -331 1231 -326 1218 -317 ct 1206 -308 1198 -293 1196 -272 ct 
1131 -278 l  1142 -345 1191 -378 1280 -378 ct 1327 -378 1362 -367 1385 -346 ct 
1409 -325 1421 -294 1421 -253 ct 1421 -93 l  1421 -75 1423 -61 1428 -52 ct 1433 -43 1442 -38 1455 -38 ct 
1461 -38 1468 -39 1475 -40 ct 1475 -2 l  1460 2 1444 4 1428 4 ct 1405 4 1388 -2 1378 -14 ct 
1368 -27 1362 -45 1360 -71 ct 1358 -71 l  1342 -43 1324 -22 1303 -11 ct 1282 1 1257 7 1227 7 ct 
p
1241 -39 m  1264 -39 1284 -44 1301 -55 ct 1319 -65 1333 -79 1343 -97 ct 1353 -115 1358 -134 1358 -153 ct 
1358 -183 l  1291 -182 l  1262 -181 1240 -178 1225 -173 ct 1210 -167 1198 -159 1190 -147 ct 
1182 -136 1178 -121 1178 -102 ct 1178 -82 1184 -67 1195 -56 ct 1205 -45 1221 -39 1241 -39 ct 
p ef
1654 -371 m  1700 -371 1734 -363 1757 -347 ct 1780 -331 1791 -308 1791 -278 ct 
1791 -257 1785 -239 1772 -225 ct 1759 -211 1740 -202 1715 -197 ct 1715 -194 l 
1744 -190 1767 -181 1781 -166 ct 1796 -151 1803 -132 1803 -107 ct 1803 -73 1791 -47 1766 -28 ct 
1741 -9 1706 0 1662 0 ct 1510 0 l  1510 -371 l  1654 -371 l  p
1571 -46 m  1652 -46 l  1684 -46 1706 -50 1719 -60 ct 1732 -70 1738 -85 1738 -107 ct 
1738 -130 1731 -146 1718 -156 ct 1704 -165 1681 -170 1648 -170 ct 1571 -170 l 
1571 -46 l  p
1571 -324 m  1571 -215 l  1645 -215 l  1675 -215 1696 -219 1708 -227 ct 1720 -235 1727 -249 1727 -270 ct 
1727 -289 1721 -302 1709 -311 ct 1698 -320 1678 -324 1650 -324 ct 1571 -324 l 
p ef
2106 0 m  2106 -326 l  1977 -326 l  1964 -226 1953 -159 1946 -124 ct 1939 -89 1931 -63 1923 -45 ct 
1914 -27 1904 -14 1891 -6 ct 1879 3 1863 7 1843 7 ct 1832 7 1821 6 1811 3 ct 1811 -42 l 
1816 -40 1824 -39 1834 -39 ct 1847 -39 1857 -45 1864 -57 ct 1872 -70 1879 -92 1885 -123 ct 
1892 -154 1899 -199 1907 -260 ct 1922 -371 l  2168 -371 l  2168 0 l  2106 0 l 
p ef
2301 -173 m  2301 -130 2309 -97 2327 -74 ct 2345 -51 2370 -39 2404 -39 ct 2431 -39 2452 -45 2468 -55 ct 
2485 -66 2495 -80 2501 -96 ct 2555 -81 l  2533 -22 2483 7 2404 7 ct 2349 7 2308 -9 2279 -42 ct 
2250 -75 2236 -123 2236 -188 ct 2236 -249 2250 -296 2279 -329 ct 2308 -362 2348 -378 2402 -378 ct 
2511 -378 2565 -312 2565 -181 ct 2565 -173 l  2301 -173 l  p
2501 -220 m  2498 -259 2488 -288 2472 -305 ct 2455 -323 2432 -332 2401 -332 ct 
2371 -332 2347 -322 2330 -302 ct 2312 -282 2303 -255 2301 -220 ct 2501 -220 l 
p ef
2693 -371 m  2693 -214 l  2860 -214 l  2860 -371 l  2922 -371 l  2922 0 l 
2860 0 l  2860 -169 l  2693 -169 l  2693 0 l  2632 0 l  2632 -371 l  2693 -371 l 
p ef
3067 -371 m  3067 -168 l  3064 -73 l  3235 -371 l  3302 -371 l  3302 0 l 
3244 0 l  3244 -226 l  3244 -235 3244 -247 3245 -264 ct 3246 -280 3246 -292 3247 -299 ct 
3073 0 l  3008 0 l  3008 -371 l  3067 -371 l  p ef
3524 -157 m  3416 0 l  3347 0 l  3465 -161 l  3408 -173 3379 -209 3379 -268 ct 
3379 -303 3392 -328 3416 -345 ct 3441 -362 3477 -371 3524 -371 ct 3672 -371 l 
3672 0 l  3611 0 l  3611 -157 l  3524 -157 l  p
3611 -327 m  3531 -327 l  3501 -327 3479 -322 3465 -312 ct 3452 -301 3445 -285 3445 -264 ct 
3445 -243 3451 -226 3463 -216 ct 3475 -205 3496 -200 3524 -200 ct 3611 -200 l 
3611 -327 l  p ef
pom
gs
1 lj 9360 9284 m  13156 9284 l  ps
gr
gs
8899 9284 m  9382 9450 l  9382 9118 l  8899 9284 l  p ef
gr
gs
13617 9284 m  13134 9118 l  13134 9450 l  13617 9284 l  p ef
gr
pum
9915 9135 t
384 0 m  384 -428 l  122 -428 l  122 0 l  57 0 l  57 -483 l  449 -483 l 
449 0 l  384 0 l  p ef
598 -371 m  598 -168 l  595 -73 l  766 -371 l  833 -371 l  833 0 l  775 0 l 
775 -226 l  775 -235 775 -247 776 -264 ct 777 -280 777 -292 778 -299 ct 604 0 l 
539 0 l  539 -371 l  598 -371 l  p ef
884 -371 m  1182 -371 l  1182 -326 l  1064 -326 l  1064 0 l  1002 0 l 
1002 -326 l  884 -326 l  884 -371 l  p ef
1317 7 m  1280 7 1252 -3 1233 -23 ct 1214 -42 1205 -69 1205 -103 ct 1205 -142 1217 -171 1243 -192 ct 
1268 -213 1309 -224 1365 -225 ct 1448 -226 l  1448 -247 l  1448 -277 1442 -298 1429 -311 ct 
1416 -324 1396 -331 1369 -331 ct 1341 -331 1321 -326 1308 -317 ct 1296 -308 1288 -293 1286 -272 ct 
1221 -278 l  1232 -345 1281 -378 1370 -378 ct 1417 -378 1452 -367 1475 -346 ct 
1499 -325 1511 -294 1511 -253 ct 1511 -93 l  1511 -75 1513 -61 1518 -52 ct 1523 -43 1532 -38 1545 -38 ct 
1551 -38 1558 -39 1565 -40 ct 1565 -2 l  1550 2 1534 4 1518 4 ct 1495 4 1478 -2 1468 -14 ct 
1458 -27 1452 -45 1450 -71 ct 1448 -71 l  1432 -43 1414 -22 1393 -11 ct 1372 1 1347 7 1317 7 ct 
p
1331 -39 m  1354 -39 1374 -44 1391 -55 ct 1409 -65 1423 -79 1433 -97 ct 1443 -115 1448 -134 1448 -153 ct 
1448 -183 l  1381 -182 l  1352 -181 1330 -178 1315 -173 ct 1300 -167 1288 -159 1280 -147 ct 
1272 -136 1268 -121 1268 -102 ct 1268 -82 1274 -67 1285 -56 ct 1295 -45 1311 -39 1331 -39 ct 
p ef
1663 -371 m  1663 -214 l  1830 -214 l  1830 -371 l  1892 -371 l  1892 0 l 
1830 0 l  1830 -169 l  1663 -169 l  1663 0 l  1602 0 l  1602 -371 l  1663 -371 l 
p ef
2037 -371 m  2037 -168 l  2034 -73 l  2205 -371 l  2272 -371 l  2272 0 l 
2214 0 l  2214 -226 l  2214 -235 2214 -247 2215 -264 ct 2216 -280 2216 -292 2217 -299 ct 
2043 0 l  1978 0 l  1978 -371 l  2037 -371 l  p ef
2406 -173 m  2406 -130 2414 -97 2432 -74 ct 2450 -51 2475 -39 2509 -39 ct 2536 -39 2557 -45 2573 -55 ct 
2590 -66 2600 -80 2606 -96 ct 2660 -81 l  2638 -22 2588 7 2509 7 ct 2454 7 2413 -9 2384 -42 ct 
2355 -75 2341 -123 2341 -188 ct 2341 -249 2355 -296 2384 -329 ct 2413 -362 2453 -378 2507 -378 ct 
2616 -378 2670 -312 2670 -181 ct 2670 -173 l  2406 -173 l  p
2606 -220 m  2603 -259 2593 -288 2577 -305 ct 2560 -323 2537 -332 2506 -332 ct 
2476 -332 2452 -322 2435 -302 ct 2417 -282 2408 -255 2406 -220 ct 2606 -220 l 
p ef
pom
pum
10221 9921 t
399 -1 m  274 -201 l  123 -201 l  123 -1 l  58 -1 l  58 -483 l  285 -483 l 
339 -483 381 -471 411 -447 ct 440 -423 455 -389 455 -345 ct 455 -309 445 -279 424 -255 ct 
403 -230 374 -215 337 -209 ct 474 -1 l  399 -1 l  p
389 -345 m  389 -373 380 -394 361 -409 ct 342 -424 314 -431 278 -431 ct 123 -431 l 
123 -253 l  281 -253 l  316 -253 342 -261 361 -277 ct 380 -293 389 -316 389 -345 ct 
p ef
926 -133 m  926 -89 909 -54 874 -30 ct 839 -5 790 7 727 7 ct 609 7 541 -34 522 -116 ct 
585 -129 l  593 -99 608 -78 632 -65 ct 656 -51 688 -44 729 -44 ct 771 -44 804 -51 827 -66 ct 
850 -80 861 -102 861 -130 ct 861 -146 858 -158 850 -168 ct 843 -178 833 -186 820 -193 ct 
807 -199 792 -204 773 -209 ct 755 -213 735 -218 713 -223 ct 675 -231 646 -240 627 -248 ct 
607 -257 591 -266 580 -277 ct 568 -287 560 -299 554 -313 ct 548 -327 545 -343 545 -361 ct 
545 -402 560 -434 592 -457 ct 624 -479 669 -490 728 -490 ct 783 -490 825 -482 854 -465 ct 
883 -448 903 -420 915 -379 ct 850 -368 l  843 -394 830 -412 810 -424 ct 790 -435 762 -441 727 -441 ct 
689 -441 659 -435 639 -422 ct 618 -409 608 -390 608 -365 ct 608 -350 612 -337 620 -328 ct 
628 -318 639 -310 654 -303 ct 669 -296 699 -288 743 -278 ct 758 -275 773 -271 787 -268 ct 
802 -264 816 -260 830 -255 ct 843 -250 856 -244 868 -238 ct 879 -231 890 -223 898 -213 ct 
907 -204 914 -192 919 -179 ct 924 -166 926 -151 926 -133 ct p ef
1247 -109 m  1247 1 l  1189 1 l  1189 -109 l  961 -109 l  961 -157 l  1182 -483 l 
1247 -483 l  1247 -158 l  1315 -158 l  1315 -109 l  1247 -109 l  p
1189 -413 m  1188 -412 1185 -406 1179 -395 ct 1173 -384 1169 -377 1166 -373 ct 
1042 -190 l  1024 -165 l  1018 -158 l  1189 -158 l  1189 -413 l  p ef
1681 -135 m  1681 -90 1667 -55 1638 -30 ct 1610 -5 1569 7 1516 7 ct 1465 7 1424 -5 1395 -30 ct 
1366 -54 1352 -89 1352 -134 ct 1352 -166 1361 -192 1379 -214 ct 1397 -235 1420 -248 1448 -253 ct 
1448 -254 l  1422 -260 1401 -274 1386 -294 ct 1370 -315 1363 -339 1363 -366 ct 
1363 -403 1377 -433 1404 -456 ct 1432 -479 1469 -490 1515 -490 ct 1563 -490 1600 -479 1628 -456 ct 
1655 -434 1669 -404 1669 -366 ct 1669 -338 1661 -314 1646 -293 ct 1631 -273 1610 -260 1583 -255 ct 
1583 -253 l  1614 -248 1638 -235 1655 -214 ct 1672 -193 1681 -166 1681 -135 ct 
p
1605 -362 m  1605 -417 1575 -444 1515 -444 ct 1486 -444 1464 -437 1449 -423 ct 
1433 -410 1426 -389 1426 -362 ct 1426 -335 1434 -314 1449 -299 ct 1465 -285 1487 -277 1516 -277 ct 
1545 -277 1567 -284 1582 -297 ct 1597 -311 1605 -332 1605 -362 ct p
1617 -140 m  1617 -170 1608 -193 1590 -208 ct 1572 -223 1547 -231 1515 -231 ct 
1484 -231 1459 -223 1442 -206 ct 1424 -190 1415 -168 1415 -139 ct 1415 -73 1449 -39 1517 -39 ct 
1551 -39 1576 -47 1592 -63 ct 1609 -80 1617 -105 1617 -140 ct p ef
2058 -157 m  2058 -106 2043 -66 2013 -37 ct 1982 -8 1940 7 1887 7 ct 1842 7 1805 -3 1778 -23 ct 
1750 -42 1732 -71 1725 -108 ct 1788 -115 l  1801 -67 1834 -43 1888 -43 ct 1921 -43 1947 -53 1966 -73 ct 
1984 -93 1994 -121 1994 -156 ct 1994 -186 1984 -211 1966 -230 ct 1947 -249 1921 -258 1889 -258 ct 
1873 -258 1857 -255 1843 -250 ct 1828 -245 1814 -236 1799 -223 ct 1739 -223 l 
1755 -483 l  2030 -483 l  2030 -431 l  1811 -431 l  1802 -278 l  1829 -298 1862 -308 1902 -308 ct 
1950 -308 1987 -294 2016 -267 ct 2044 -239 2058 -202 2058 -157 ct p ef
pom
gs
0 lw 1 lj 26054 10555 m  23374 10555 l  23374 8013 l  28735 8013 l  28735 10555 l 
26054 10555 l  pc
gr
pum
25294 9135 t
424 -142 m  424 -99 410 -65 380 -39 ct 351 -13 310 0 258 0 ct 58 0 l  58 -484 l 
375 -484 l  375 -430 l  123 -430 l  123 -279 l  254 -279 l  308 -279 350 -267 380 -243 ct 
409 -219 424 -185 424 -142 ct p
359 -141 m  359 -169 349 -190 330 -205 ct 312 -219 284 -227 246 -227 ct 123 -227 l 
123 -52 l  249 -52 l  286 -52 314 -60 332 -75 ct 350 -91 359 -113 359 -141 ct 
p ef
740 0 m  740 -326 l  611 -326 l  598 -226 587 -159 580 -124 ct 573 -89 565 -63 557 -45 ct 
548 -27 538 -14 525 -6 ct 513 3 497 7 477 7 ct 466 7 455 6 445 3 ct 445 -42 l  450 -40 458 -39 468 -39 ct 
481 -39 491 -45 498 -57 ct 506 -70 513 -92 519 -123 ct 526 -154 533 -199 541 -260 ct 
556 -371 l  802 -371 l  802 0 l  740 0 l  p ef
1205 -186 m  1205 -121 1191 -72 1162 -41 ct 1134 -9 1092 7 1038 7 ct 984 7 943 -10 915 -43 ct 
887 -76 873 -123 873 -186 ct 873 -314 929 -378 1040 -378 ct 1096 -378 1138 -362 1165 -331 ct 
1192 -300 1205 -252 1205 -186 ct p
1140 -186 m  1140 -237 1133 -274 1117 -298 ct 1102 -321 1077 -332 1041 -332 ct 
1005 -332 979 -321 962 -297 ct 946 -273 938 -236 938 -186 ct 938 -137 946 -100 962 -76 ct 
978 -51 1003 -39 1037 -39 ct 1074 -39 1100 -51 1116 -74 ct 1132 -98 1140 -135 1140 -186 ct 
p ef
1268 -371 m  1330 -371 l  1330 -209 l  1337 -209 1343 -210 1349 -212 ct 1354 -213 1360 -217 1366 -223 ct 
1372 -229 1378 -237 1386 -248 ct 1393 -258 1419 -299 1464 -371 ct 1528 -371 l 
1454 -260 l  1433 -229 1419 -210 1411 -203 ct 1532 0 l  1463 0 l  1368 -171 l 
1363 -169 1357 -167 1350 -166 ct 1343 -165 1336 -164 1330 -164 ct 1330 0 l  1268 0 l 
1268 -371 l  p ef
pom
pum
23665 9921 t
12 -371 m  310 -371 l  310 -326 l  192 -326 l  192 0 l  130 0 l  130 -326 l 
12 -326 l  12 -371 l  p ef
400 -173 m  400 -130 408 -97 426 -74 ct 444 -51 469 -39 503 -39 ct 530 -39 551 -45 567 -55 ct 
584 -66 594 -80 600 -96 ct 654 -81 l  632 -22 582 7 503 7 ct 448 7 407 -9 378 -42 ct 
349 -75 335 -123 335 -188 ct 335 -249 349 -296 378 -329 ct 407 -362 447 -378 501 -378 ct 
610 -378 664 -312 664 -181 ct 664 -173 l  400 -173 l  p
600 -220 m  597 -259 587 -288 571 -305 ct 554 -323 531 -332 500 -332 ct 470 -332 446 -322 429 -302 ct 
411 -282 402 -255 400 -220 ct 600 -220 l  p ef
1042 -187 m  1042 -58 996 7 906 7 ct 848 7 810 -15 790 -58 ct 789 -58 l  790 -56 790 -36 790 1 ct 
790 146 l  728 146 l  728 -295 l  728 -334 728 -359 726 -371 ct 786 -371 l 
786 -370 786 -367 787 -361 ct 787 -356 788 -347 788 -335 ct 789 -324 789 -316 789 -311 ct 
791 -311 l  802 -334 816 -351 834 -362 ct 852 -372 876 -378 906 -378 ct 951 -378 985 -362 1008 -332 ct 
1031 -301 1042 -253 1042 -187 ct p
977 -186 m  977 -238 970 -275 956 -297 ct 942 -319 920 -330 890 -330 ct 865 -330 846 -325 832 -315 ct 
819 -304 808 -288 801 -266 ct 794 -244 790 -216 790 -181 ct 790 -132 798 -96 813 -73 ct 
829 -50 854 -39 889 -39 ct 920 -39 942 -50 956 -72 ct 970 -95 977 -133 977 -186 ct 
p ef
1327 0 m  1274 0 l  1163 -326 l  1165 -291 1165 -265 1165 -248 ct 1165 0 l 
1106 0 l  1106 -371 l  1202 -371 l  1277 -144 l  1289 -112 1297 -79 1300 -46 ct 
1305 -83 1313 -116 1324 -144 ct 1399 -371 l  1491 -371 l  1491 0 l  1432 0 l 
1432 -248 l  1433 -287 l  1435 -327 l  1327 0 l  p ef
1886 -186 m  1886 -121 1872 -72 1843 -41 ct 1815 -9 1773 7 1719 7 ct 1665 7 1624 -10 1596 -43 ct 
1568 -76 1554 -123 1554 -186 ct 1554 -314 1610 -378 1721 -378 ct 1777 -378 1819 -362 1846 -331 ct 
1873 -300 1886 -252 1886 -186 ct p
1821 -186 m  1821 -237 1814 -274 1798 -298 ct 1783 -321 1758 -332 1722 -332 ct 
1686 -332 1660 -321 1643 -297 ct 1627 -273 1619 -236 1619 -186 ct 1619 -137 1627 -100 1643 -76 ct 
1659 -51 1684 -39 1718 -39 ct 1755 -39 1781 -51 1797 -74 ct 1813 -98 1821 -135 1821 -186 ct 
p ef
1949 -371 m  2011 -371 l  2011 -209 l  2018 -209 2024 -210 2030 -212 ct 2035 -213 2041 -217 2047 -223 ct 
2053 -229 2059 -237 2067 -248 ct 2074 -258 2100 -299 2145 -371 ct 2209 -371 l 
2135 -260 l  2114 -229 2100 -210 2092 -203 ct 2213 0 l  2144 0 l  2049 -171 l 
2044 -169 2038 -167 2031 -166 ct 2024 -165 2017 -164 2011 -164 ct 2011 0 l  1949 0 l 
1949 -371 l  p ef
2567 -186 m  2567 -121 2553 -72 2524 -41 ct 2496 -9 2454 7 2400 7 ct 2346 7 2305 -10 2277 -43 ct 
2249 -76 2235 -123 2235 -186 ct 2235 -314 2291 -378 2402 -378 ct 2458 -378 2500 -362 2527 -331 ct 
2554 -300 2567 -252 2567 -186 ct p
2502 -186 m  2502 -237 2495 -274 2479 -298 ct 2464 -321 2439 -332 2403 -332 ct 
2367 -332 2341 -321 2324 -297 ct 2308 -273 2300 -236 2300 -186 ct 2300 -137 2308 -100 2324 -76 ct 
2340 -51 2365 -39 2399 -39 ct 2436 -39 2462 -51 2478 -74 ct 2494 -98 2502 -135 2502 -186 ct 
p ef
2693 -371 m  2693 -214 l  2860 -214 l  2860 -371 l  2922 -371 l  2922 0 l 
2860 0 l  2860 -169 l  2693 -169 l  2693 0 l  2632 0 l  2632 -371 l  2693 -371 l 
p ef
2971 -371 m  3269 -371 l  3269 -326 l  3151 -326 l  3151 0 l  3089 0 l 
3089 -326 l  2971 -326 l  2971 -371 l  p ef
3633 -187 m  3633 -58 3587 7 3497 7 ct 3439 7 3401 -15 3381 -58 ct 3380 -58 l 
3381 -56 3381 -36 3381 1 ct 3381 146 l  3319 146 l  3319 -295 l  3319 -334 3319 -359 3317 -371 ct 
3377 -371 l  3377 -370 3377 -367 3378 -361 ct 3378 -356 3379 -347 3379 -335 ct 
3380 -324 3380 -316 3380 -311 ct 3382 -311 l  3393 -334 3407 -351 3425 -362 ct 
3443 -372 3467 -378 3497 -378 ct 3542 -378 3576 -362 3599 -332 ct 3622 -301 3633 -253 3633 -187 ct 
p
3568 -186 m  3568 -238 3561 -275 3547 -297 ct 3533 -319 3511 -330 3481 -330 ct 
3456 -330 3437 -325 3423 -315 ct 3410 -304 3399 -288 3392 -266 ct 3385 -244 3381 -216 3381 -181 ct 
3381 -132 3389 -96 3404 -73 ct 3420 -50 3445 -39 3480 -39 ct 3511 -39 3533 -50 3547 -72 ct 
3561 -95 3568 -133 3568 -186 ct p ef
4011 -186 m  4011 -121 3997 -72 3968 -41 ct 3940 -9 3898 7 3844 7 ct 3790 7 3749 -10 3721 -43 ct 
3693 -76 3679 -123 3679 -186 ct 3679 -314 3735 -378 3846 -378 ct 3902 -378 3944 -362 3971 -331 ct 
3998 -300 4011 -252 4011 -186 ct p
3946 -186 m  3946 -237 3939 -274 3923 -298 ct 3908 -321 3883 -332 3847 -332 ct 
3811 -332 3785 -321 3768 -297 ct 3752 -273 3744 -236 3744 -186 ct 3744 -137 3752 -100 3768 -76 ct 
3784 -51 3809 -39 3843 -39 ct 3880 -39 3906 -51 3922 -74 ct 3938 -98 3946 -135 3946 -186 ct 
p ef
4311 0 m  4311 -326 l  4182 -326 l  4169 -226 4158 -159 4151 -124 ct 4144 -89 4136 -63 4128 -45 ct 
4119 -27 4109 -14 4096 -6 ct 4084 3 4068 7 4048 7 ct 4037 7 4026 6 4016 3 ct 4016 -42 l 
4021 -40 4029 -39 4039 -39 ct 4052 -39 4062 -45 4069 -57 ct 4077 -70 4084 -92 4090 -123 ct 
4097 -154 4104 -199 4112 -260 ct 4127 -371 l  4373 -371 l  4373 0 l  4311 0 l 
p ef
4595 -157 m  4487 0 l  4418 0 l  4536 -161 l  4479 -173 4450 -209 4450 -268 ct 
4450 -303 4463 -328 4487 -345 ct 4512 -362 4548 -371 4595 -371 ct 4743 -371 l 
4743 0 l  4682 0 l  4682 -157 l  4595 -157 l  p
4682 -327 m  4602 -327 l  4572 -327 4550 -322 4536 -312 ct 4523 -301 4516 -285 4516 -264 ct 
4516 -243 4522 -226 4534 -216 ct 4546 -205 4567 -200 4595 -200 ct 4682 -200 l 
4682 -327 l  p ef
pom
gs
1 lj 18688 9284 m  22913 9284 l  ps
gr
gs
18227 9284 m  18710 9450 l  18710 9118 l  18227 9284 l  p ef
gr
gs
23374 9284 m  22892 9118 l  22892 9450 l  23374 9284 l  p ef
gr
pum
19457 9135 t
384 0 m  384 -428 l  122 -428 l  122 0 l  57 0 l  57 -483 l  449 -483 l 
449 0 l  384 0 l  p ef
598 -371 m  598 -168 l  595 -73 l  766 -371 l  833 -371 l  833 0 l  775 0 l 
775 -226 l  775 -235 775 -247 776 -264 ct 777 -280 777 -292 778 -299 ct 604 0 l 
539 0 l  539 -371 l  598 -371 l  p ef
884 -371 m  1182 -371 l  1182 -326 l  1064 -326 l  1064 0 l  1002 0 l 
1002 -326 l  884 -326 l  884 -371 l  p ef
1317 7 m  1280 7 1252 -3 1233 -23 ct 1214 -42 1205 -69 1205 -103 ct 1205 -142 1217 -171 1243 -192 ct 
1268 -213 1309 -224 1365 -225 ct 1448 -226 l  1448 -247 l  1448 -277 1442 -298 1429 -311 ct 
1416 -324 1396 -331 1369 -331 ct 1341 -331 1321 -326 1308 -317 ct 1296 -308 1288 -293 1286 -272 ct 
1221 -278 l  1232 -345 1281 -378 1370 -378 ct 1417 -378 1452 -367 1475 -346 ct 
1499 -325 1511 -294 1511 -253 ct 1511 -93 l  1511 -75 1513 -61 1518 -52 ct 1523 -43 1532 -38 1545 -38 ct 
1551 -38 1558 -39 1565 -40 ct 1565 -2 l  1550 2 1534 4 1518 4 ct 1495 4 1478 -2 1468 -14 ct 
1458 -27 1452 -45 1450 -71 ct 1448 -71 l  1432 -43 1414 -22 1393 -11 ct 1372 1 1347 7 1317 7 ct 
p
1331 -39 m  1354 -39 1374 -44 1391 -55 ct 1409 -65 1423 -79 1433 -97 ct 1443 -115 1448 -134 1448 -153 ct 
1448 -183 l  1381 -182 l  1352 -181 1330 -178 1315 -173 ct 1300 -167 1288 -159 1280 -147 ct 
1272 -136 1268 -121 1268 -102 ct 1268 -82 1274 -67 1285 -56 ct 1295 -45 1311 -39 1331 -39 ct 
p ef
1663 -371 m  1663 -214 l  1830 -214 l  1830 -371 l  1892 -371 l  1892 0 l 
1830 0 l  1830 -169 l  1663 -169 l  1663 0 l  1602 0 l  1602 -371 l  1663 -371 l 
p ef
2037 -371 m  2037 -168 l  2034 -73 l  2205 -371 l  2272 -371 l  2272 0 l 
2214 0 l  2214 -226 l  2214 -235 2214 -247 2215 -264 ct 2216 -280 2216 -292 2217 -299 ct 
2043 0 l  1978 0 l  1978 -371 l  2037 -371 l  p ef
2406 -173 m  2406 -130 2414 -97 2432 -74 ct 2450 -51 2475 -39 2509 -39 ct 2536 -39 2557 -45 2573 -55 ct 
2590 -66 2600 -80 2606 -96 ct 2660 -81 l  2638 -22 2588 7 2509 7 ct 2454 7 2413 -9 2384 -42 ct 
2355 -75 2341 -123 2341 -188 ct 2341 -249 2355 -296 2384 -329 ct 2413 -362 2453 -378 2507 -378 ct 
2616 -378 2670 -312 2670 -181 ct 2670 -173 l  2406 -173 l  p
2606 -220 m  2603 -259 2593 -288 2577 -305 ct 2560 -323 2537 -332 2506 -332 ct 
2476 -332 2452 -322 2435 -302 ct 2417 -282 2408 -255 2406 -220 ct 2606 -220 l 
p ef
pom
pum
19764 9921 t
399 -1 m  274 -201 l  123 -201 l  123 -1 l  58 -1 l  58 -483 l  285 -483 l 
339 -483 381 -471 411 -447 ct 440 -423 455 -389 455 -345 ct 455 -309 445 -279 424 -255 ct 
403 -230 374 -215 337 -209 ct 474 -1 l  399 -1 l  p
389 -345 m  389 -373 380 -394 361 -409 ct 342 -424 314 -431 278 -431 ct 123 -431 l 
123 -253 l  281 -253 l  316 -253 342 -261 361 -277 ct 380 -293 389 -316 389 -345 ct 
p ef
926 -133 m  926 -89 909 -54 874 -30 ct 839 -5 790 7 727 7 ct 609 7 541 -34 522 -116 ct 
585 -129 l  593 -99 608 -78 632 -65 ct 656 -51 688 -44 729 -44 ct 771 -44 804 -51 827 -66 ct 
850 -80 861 -102 861 -130 ct 861 -146 858 -158 850 -168 ct 843 -178 833 -186 820 -193 ct 
807 -199 792 -204 773 -209 ct 755 -213 735 -218 713 -223 ct 675 -231 646 -240 627 -248 ct 
607 -257 591 -266 580 -277 ct 568 -287 560 -299 554 -313 ct 548 -327 545 -343 545 -361 ct 
545 -402 560 -434 592 -457 ct 624 -479 669 -490 728 -490 ct 783 -490 825 -482 854 -465 ct 
883 -448 903 -420 915 -379 ct 850 -368 l  843 -394 830 -412 810 -424 ct 790 -435 762 -441 727 -441 ct 
689 -441 659 -435 639 -422 ct 618 -409 608 -390 608 -365 ct 608 -350 612 -337 620 -328 ct 
628 -318 639 -310 654 -303 ct 669 -296 699 -288 743 -278 ct 758 -275 773 -271 787 -268 ct 
802 -264 816 -260 830 -255 ct 843 -250 856 -244 868 -238 ct 879 -231 890 -223 898 -213 ct 
907 -204 914 -192 919 -179 ct 924 -166 926 -151 926 -133 ct p ef
1247 -109 m  1247 1 l  1189 1 l  1189 -109 l  961 -109 l  961 -157 l  1182 -483 l 
1247 -483 l  1247 -158 l  1315 -158 l  1315 -109 l  1247 -109 l  p
1189 -413 m  1188 -412 1185 -406 1179 -395 ct 1173 -384 1169 -377 1166 -373 ct 
1042 -190 l  1024 -165 l  1018 -158 l  1189 -158 l  1189 -413 l  p ef
1681 -135 m  1681 -90 1667 -55 1638 -30 ct 1610 -5 1569 7 1516 7 ct 1465 7 1424 -5 1395 -30 ct 
1366 -54 1352 -89 1352 -134 ct 1352 -166 1361 -192 1379 -214 ct 1397 -235 1420 -248 1448 -253 ct 
1448 -254 l  1422 -260 1401 -274 1386 -294 ct 1370 -315 1363 -339 1363 -366 ct 
1363 -403 1377 -433 1404 -456 ct 1432 -479 1469 -490 1515 -490 ct 1563 -490 1600 -479 1628 -456 ct 
1655 -434 1669 -404 1669 -366 ct 1669 -338 1661 -314 1646 -293 ct 1631 -273 1610 -260 1583 -255 ct 
1583 -253 l  1614 -248 1638 -235 1655 -214 ct 1672 -193 1681 -166 1681 -135 ct 
p
1605 -362 m  1605 -417 1575 -444 1515 -444 ct 1486 -444 1464 -437 1449 -423 ct 
1433 -410 1426 -389 1426 -362 ct 1426 -335 1434 -314 1449 -299 ct 1465 -285 1487 -277 1516 -277 ct 
1545 -277 1567 -284 1582 -297 ct 1597 -311 1605 -332 1605 -362 ct p
1617 -140 m  1617 -170 1608 -193 1590 -208 ct 1572 -223 1547 -231 1515 -231 ct 
1484 -231 1459 -223 1442 -206 ct 1424 -190 1415 -168 1415 -139 ct 1415 -73 1449 -39 1517 -39 ct 
1551 -39 1576 -47 1592 -63 ct 1609 -80 1617 -105 1617 -140 ct p ef
2058 -157 m  2058 -106 2043 -66 2013 -37 ct 1982 -8 1940 7 1887 7 ct 1842 7 1805 -3 1778 -23 ct 
1750 -42 1732 -71 1725 -108 ct 1788 -115 l  1801 -67 1834 -43 1888 -43 ct 1921 -43 1947 -53 1966 -73 ct 
1984 -93 1994 -121 1994 -156 ct 1994 -186 1984 -211 1966 -230 ct 1947 -249 1921 -258 1889 -258 ct 
1873 -258 1857 -255 1843 -250 ct 1828 -245 1814 -236 1799 -223 ct 1739 -223 l 
1755 -483 l  2030 -483 l  2030 -431 l  1811 -431 l  1802 -278 l  1829 -298 1862 -308 1902 -308 ct 
1950 -308 1987 -294 2016 -267 ct 2044 -239 2058 -202 2058 -157 ct p ef
pom
gs
0 lw 1 lj 28735 9284 m  28735 9284 l  pc
gr
gs
0 lw 1 lj 12330 15459 m  13059 15459 13616 16034 13616 16785 ct 13616 17537 13059 18111 12330 18111 ct 
11601 18111 11043 17537 11043 16785 ct 11043 16034 11601 15459 12330 15459 ct 
pc
gr
pum
11483 17030 t
58 0 m  58 -484 l  123 -484 l  123 -55 l  291 -55 l  291 -484 l  354 -484 l 
354 -55 l  522 -55 l  522 -484 l  586 -484 l  586 0 l  58 0 l  p ef
1024 -55 m  1084 -55 l  1084 140 l  1023 140 l  1023 0 l  689 0 l  689 140 l 
627 140 l  627 -55 l  677 -55 l  694 -77 709 -108 722 -148 ct 734 -188 745 -242 753 -308 ct 
776 -483 l  1024 -483 l  1024 -55 l  p
961 -55 m  961 -428 l  832 -428 l  815 -302 l  807 -239 798 -188 787 -149 ct 
777 -109 765 -78 750 -55 ct 961 -55 l  p ef
1683 0 m  1298 0 l  1298 -49 l  1592 -430 l  1323 -430 l  1323 -484 l 
1667 -484 l  1667 -436 l  1373 -54 l  1683 -54 l  1683 0 l  p ef
pom
gs
1 lj 15922 10555 m  15922 13008 l  12330 13008 l  12330 14984 l  ps
gr
gs
12330 15459 m  12491 14962 l  12169 14962 l  12330 15459 l  p ef
gr
gs
1 lj 15922 10555 m  15922 13008 l  19621 13008 l  19621 14984 l  ps
gr
gs
19621 15459 m  19782 14962 l  19460 14962 l  19621 15459 l  p ef
gr
gs
0 lw 1 lj 19621 15459 m  20350 15459 20907 16034 20907 16785 ct 20907 17537 20350 18111 19621 18111 ct 
18892 18111 18334 17537 18334 16785 ct 18334 16034 18892 15459 19621 15459 ct 
pc
gr
pum
18756 17030 t
58 0 m  58 -484 l  123 -484 l  123 -55 l  291 -55 l  291 -484 l  354 -484 l 
354 -55 l  522 -55 l  522 -484 l  586 -484 l  586 0 l  58 0 l  p ef
1024 -55 m  1084 -55 l  1084 140 l  1023 140 l  1023 0 l  689 0 l  689 140 l 
627 140 l  627 -55 l  677 -55 l  694 -77 709 -108 722 -148 ct 734 -188 745 -242 753 -308 ct 
776 -483 l  1024 -483 l  1024 -55 l  p
961 -55 m  961 -428 l  832 -428 l  815 -302 l  807 -239 798 -188 787 -149 ct 
777 -109 765 -78 750 -55 ct 961 -55 l  p ef
1542 -200 m  1542 0 l  1477 0 l  1477 -200 l  1291 -484 l  1363 -484 l 
1510 -253 l  1657 -484 l  1729 -484 l  1542 -200 l  p ef
pom
gs
0 lw 1 lj 6647 5857 m  3859 5857 l  3859 3094 l  9435 3094 l  9435 5857 l 
6647 5857 l  pc
gr
pum
4286 4327 t
384 0 m  384 -428 l  122 -428 l  122 0 l  57 0 l  57 -483 l  449 -483 l 
449 0 l  384 0 l  p ef
585 -173 m  585 -130 593 -97 611 -74 ct 629 -51 654 -39 688 -39 ct 715 -39 736 -45 752 -55 ct 
769 -66 779 -80 785 -96 ct 839 -81 l  817 -22 767 7 688 7 ct 633 7 592 -9 563 -42 ct 
534 -75 520 -123 520 -188 ct 520 -249 534 -296 563 -329 ct 592 -362 632 -378 686 -378 ct 
795 -378 849 -312 849 -181 ct 849 -173 l  585 -173 l  p
785 -220 m  782 -259 772 -288 756 -305 ct 739 -323 716 -332 685 -332 ct 655 -332 631 -322 614 -302 ct 
596 -282 587 -255 585 -220 ct 785 -220 l  p ef
1228 -187 m  1228 -58 1182 7 1092 7 ct 1034 7 996 -15 976 -58 ct 975 -58 l  976 -56 976 -36 976 1 ct 
976 146 l  914 146 l  914 -295 l  914 -334 914 -359 912 -371 ct 972 -371 l 
972 -370 972 -367 973 -361 ct 973 -356 974 -347 974 -335 ct 975 -324 975 -316 975 -311 ct 
977 -311 l  988 -334 1002 -351 1020 -362 ct 1038 -372 1062 -378 1092 -378 ct 
1137 -378 1171 -362 1194 -332 ct 1217 -301 1228 -253 1228 -187 ct p
1163 -186 m  1163 -238 1156 -275 1142 -297 ct 1128 -319 1106 -330 1076 -330 ct 
1051 -330 1032 -325 1018 -315 ct 1005 -304 994 -288 987 -266 ct 980 -244 976 -216 976 -181 ct 
976 -132 984 -96 999 -73 ct 1015 -50 1040 -39 1075 -39 ct 1106 -39 1128 -50 1142 -72 ct 
1156 -95 1163 -133 1163 -186 ct p ef
1338 -187 m  1338 -138 1346 -101 1362 -77 ct 1377 -54 1401 -42 1432 -42 ct 1454 -42 1472 -48 1487 -60 ct 
1502 -71 1511 -90 1514 -114 ct 1576 -110 l  1572 -75 1557 -46 1531 -25 ct 1505 -4 1473 7 1434 7 ct 
1382 7 1342 -9 1315 -42 ct 1287 -75 1274 -123 1274 -186 ct 1274 -248 1288 -296 1315 -329 ct 
1342 -362 1382 -378 1433 -378 ct 1471 -378 1502 -368 1527 -348 ct 1552 -329 1568 -302 1574 -267 ct 
1511 -262 l  1508 -283 1500 -299 1487 -311 ct 1474 -324 1455 -330 1431 -330 ct 
1398 -330 1375 -319 1360 -297 ct 1346 -275 1338 -239 1338 -187 ct p ef
1954 -186 m  1954 -121 1940 -72 1911 -41 ct 1883 -9 1841 7 1787 7 ct 1733 7 1692 -10 1664 -43 ct 
1636 -76 1622 -123 1622 -186 ct 1622 -314 1678 -378 1789 -378 ct 1845 -378 1887 -362 1914 -331 ct 
1941 -300 1954 -252 1954 -186 ct p
1889 -186 m  1889 -237 1882 -274 1866 -298 ct 1851 -321 1826 -332 1790 -332 ct 
1754 -332 1728 -321 1711 -297 ct 1695 -273 1687 -236 1687 -186 ct 1687 -137 1695 -100 1711 -76 ct 
1727 -51 1752 -39 1786 -39 ct 1823 -39 1849 -51 1865 -74 ct 1881 -98 1889 -135 1889 -186 ct 
p ef
2080 -371 m  2080 -214 l  2247 -214 l  2247 -371 l  2309 -371 l  2309 0 l 
2247 0 l  2247 -169 l  2080 -169 l  2080 0 l  2019 0 l  2019 -371 l  2080 -371 l 
p ef
2489 7 m  2452 7 2424 -3 2405 -23 ct 2386 -42 2377 -69 2377 -103 ct 2377 -142 2389 -171 2415 -192 ct 
2440 -213 2481 -224 2537 -225 ct 2620 -226 l  2620 -247 l  2620 -277 2614 -298 2601 -311 ct 
2588 -324 2568 -331 2541 -331 ct 2513 -331 2493 -326 2480 -317 ct 2468 -308 2460 -293 2458 -272 ct 
2393 -278 l  2404 -345 2453 -378 2542 -378 ct 2589 -378 2624 -367 2647 -346 ct 
2671 -325 2683 -294 2683 -253 ct 2683 -93 l  2683 -75 2685 -61 2690 -52 ct 2695 -43 2704 -38 2717 -38 ct 
2723 -38 2730 -39 2737 -40 ct 2737 -2 l  2722 2 2706 4 2690 4 ct 2667 4 2650 -2 2640 -14 ct 
2630 -27 2624 -45 2622 -71 ct 2620 -71 l  2604 -43 2586 -22 2565 -11 ct 2544 1 2519 7 2489 7 ct 
p
2503 -39 m  2526 -39 2546 -44 2563 -55 ct 2581 -65 2595 -79 2605 -97 ct 2615 -115 2620 -134 2620 -153 ct 
2620 -183 l  2553 -182 l  2524 -181 2502 -178 2487 -173 ct 2472 -167 2460 -159 2452 -147 ct 
2444 -136 2440 -121 2440 -102 ct 2440 -82 2446 -67 2457 -56 ct 2467 -45 2483 -39 2503 -39 ct 
p ef
3022 0 m  3022 -326 l  2893 -326 l  2880 -226 2869 -159 2862 -124 ct 2855 -89 2847 -63 2839 -45 ct 
2830 -27 2820 -14 2807 -6 ct 2795 3 2779 7 2759 7 ct 2748 7 2737 6 2727 3 ct 2727 -42 l 
2732 -40 2740 -39 2750 -39 ct 2763 -39 2773 -45 2780 -57 ct 2788 -70 2795 -92 2801 -123 ct 
2808 -154 2815 -199 2823 -260 ct 2838 -371 l  3084 -371 l  3084 0 l  3022 0 l 
p ef
3318 -214 m  3365 -214 3400 -206 3424 -189 ct 3448 -172 3460 -145 3460 -109 ct 
3460 -74 3448 -47 3423 -28 ct 3398 -9 3363 0 3318 0 ct 3172 0 l  3172 -371 l 
3233 -371 l  3233 -214 l  3318 -214 l  p
3233 -44 m  3309 -44 l  3338 -44 3360 -49 3374 -59 ct 3388 -70 3394 -86 3394 -109 ct 
3394 -131 3388 -146 3375 -156 ct 3361 -166 3340 -171 3309 -171 ct 3233 -171 l 
3233 -44 l  p ef
3587 -371 m  3587 -214 l  3754 -214 l  3754 -371 l  3816 -371 l  3816 0 l 
3754 0 l  3754 -169 l  3587 -169 l  3587 0 l  3526 0 l  3526 -371 l  3587 -371 l 
p ef
4042 -214 m  4088 -214 4124 -206 4148 -189 ct 4172 -172 4184 -145 4184 -109 ct 
4184 -74 4171 -47 4147 -28 ct 4122 -9 4087 0 4042 0 ct 3902 0 l  3902 -371 l 
3963 -371 l  3963 -214 l  4042 -214 l  p
3963 -44 m  4033 -44 l  4062 -44 4084 -49 4098 -59 ct 4111 -70 4118 -86 4118 -109 ct 
4118 -131 4112 -146 4098 -156 ct 4085 -166 4063 -171 4033 -171 ct 3963 -171 l 
3963 -44 l  p
4247 0 m  4247 -371 l  4309 -371 l  4309 0 l  4247 0 l  p ef
4451 -371 m  4451 -168 l  4448 -73 l  4619 -371 l  4686 -371 l  4686 0 l 
4628 0 l  4628 -226 l  4628 -235 4628 -247 4629 -264 ct 4630 -280 4630 -292 4631 -299 ct 
4457 0 l  4392 0 l  4392 -371 l  4451 -371 l  p
4540 -412 m  4458 -412 4416 -448 4414 -522 ct 4470 -522 l  4473 -476 4496 -453 4540 -453 ct 
4583 -453 4607 -476 4609 -522 ct 4666 -522 l  4663 -448 4621 -412 4540 -412 ct 
p ef
pom
pum
4936 5113 t
47 -371 m  109 -371 l  109 -209 l  116 -209 122 -210 128 -212 ct 133 -213 139 -217 145 -223 ct 
151 -229 157 -237 165 -248 ct 172 -258 198 -299 243 -371 ct 307 -371 l  233 -260 l 
212 -229 198 -210 190 -203 ct 311 0 l  242 0 l  147 -171 l  142 -169 136 -167 129 -166 ct 
122 -165 115 -164 109 -164 ct 109 0 l  47 0 l  47 -371 l  p ef
666 -186 m  666 -121 652 -72 623 -41 ct 595 -9 553 7 499 7 ct 445 7 404 -10 376 -43 ct 
348 -76 334 -123 334 -186 ct 334 -314 390 -378 501 -378 ct 557 -378 599 -362 626 -331 ct 
653 -300 666 -252 666 -186 ct p
601 -186 m  601 -237 594 -274 578 -298 ct 563 -321 538 -332 502 -332 ct 466 -332 440 -321 423 -297 ct 
407 -273 399 -236 399 -186 ct 399 -137 407 -100 423 -76 ct 439 -51 464 -39 498 -39 ct 
535 -39 561 -51 577 -74 ct 593 -98 601 -135 601 -186 ct p ef
951 0 m  898 0 l  787 -326 l  789 -291 789 -265 789 -248 ct 789 0 l  730 0 l 
730 -371 l  826 -371 l  901 -144 l  913 -112 921 -79 924 -46 ct 929 -83 937 -116 948 -144 ct 
1023 -371 l  1115 -371 l  1115 0 l  1056 0 l  1056 -248 l  1057 -287 l 
1059 -327 l  951 0 l  p ef
1479 -371 m  1479 0 l  1418 0 l  1418 -326 l  1258 -326 l  1258 0 l  1197 0 l 
1197 -371 l  1479 -371 l  p ef
1711 -214 m  1758 -214 1793 -206 1817 -189 ct 1841 -172 1853 -145 1853 -109 ct 
1853 -74 1841 -47 1816 -28 ct 1791 -9 1756 0 1711 0 ct 1565 0 l  1565 -371 l 
1626 -371 l  1626 -214 l  1711 -214 l  p
1626 -44 m  1702 -44 l  1731 -44 1753 -49 1767 -59 ct 1781 -70 1787 -86 1787 -109 ct 
1787 -131 1781 -146 1768 -156 ct 1754 -166 1733 -171 1702 -171 ct 1626 -171 l 
1626 -44 l  p ef
2367 -186 m  2367 -121 2354 -72 2327 -41 ct 2300 -9 2261 7 2210 7 ct 2162 7 2124 -8 2098 -38 ct 
2073 -68 2059 -112 2056 -169 ct 1980 -169 l  1980 0 l  1919 0 l  1919 -371 l 
1980 -371 l  1980 -214 l  2057 -214 l  2064 -323 2116 -378 2212 -378 ct 2266 -378 2306 -362 2330 -330 ct 
2355 -298 2367 -250 2367 -186 ct p
2302 -186 m  2302 -237 2295 -274 2282 -298 ct 2268 -321 2245 -332 2213 -332 ct 
2181 -332 2157 -321 2143 -297 ct 2128 -273 2121 -236 2121 -186 ct 2121 -136 2128 -99 2143 -75 ct 
2157 -51 2179 -39 2210 -39 ct 2243 -39 2267 -51 2281 -74 ct 2295 -98 2302 -136 2302 -186 ct 
p ef
2377 -371 m  2675 -371 l  2675 -326 l  2557 -326 l  2557 0 l  2495 0 l 
2495 -326 l  2377 -326 l  2377 -371 l  p ef
2764 -173 m  2764 -130 2772 -97 2790 -74 ct 2808 -51 2833 -39 2867 -39 ct 2894 -39 2915 -45 2931 -55 ct 
2948 -66 2958 -80 2964 -96 ct 3018 -81 l  2996 -22 2946 7 2867 7 ct 2812 7 2771 -9 2742 -42 ct 
2713 -75 2699 -123 2699 -188 ct 2699 -249 2713 -296 2742 -329 ct 2771 -362 2811 -378 2865 -378 ct 
2974 -378 3028 -312 3028 -181 ct 3028 -173 l  2764 -173 l  p
2964 -220 m  2961 -259 2951 -288 2935 -305 ct 2918 -323 2895 -332 2864 -332 ct 
2834 -332 2810 -322 2793 -302 ct 2775 -282 2766 -255 2764 -220 ct 2964 -220 l 
p ef
3407 -187 m  3407 -58 3361 7 3271 7 ct 3213 7 3175 -15 3155 -58 ct 3154 -58 l 
3155 -56 3155 -36 3155 1 ct 3155 146 l  3093 146 l  3093 -295 l  3093 -334 3093 -359 3091 -371 ct 
3151 -371 l  3151 -370 3151 -367 3152 -361 ct 3152 -356 3153 -347 3153 -335 ct 
3154 -324 3154 -316 3154 -311 ct 3156 -311 l  3167 -334 3181 -351 3199 -362 ct 
3217 -372 3241 -378 3271 -378 ct 3316 -378 3350 -362 3373 -332 ct 3396 -301 3407 -253 3407 -187 ct 
p
3342 -186 m  3342 -238 3335 -275 3321 -297 ct 3307 -319 3285 -330 3255 -330 ct 
3230 -330 3211 -325 3197 -315 ct 3184 -304 3173 -288 3166 -266 ct 3159 -244 3155 -216 3155 -181 ct 
3155 -132 3163 -96 3178 -73 ct 3194 -50 3219 -39 3254 -39 ct 3285 -39 3307 -50 3321 -72 ct 
3335 -95 3342 -133 3342 -186 ct p ef
pom
gs
1 lj 6648 5858 m  6648 7538 l  ps
gr
gs
6648 8013 m  6808 7516 l  6487 7516 l  6648 8013 l  p ef
gr
pum
6950 7180 t
399 -1 m  274 -201 l  123 -201 l  123 -1 l  58 -1 l  58 -483 l  285 -483 l 
339 -483 381 -471 411 -447 ct 440 -423 455 -389 455 -345 ct 455 -309 445 -279 424 -255 ct 
403 -230 374 -215 337 -209 ct 474 -1 l  399 -1 l  p
389 -345 m  389 -373 380 -394 361 -409 ct 342 -424 314 -431 278 -431 ct 123 -431 l 
123 -253 l  281 -253 l  316 -253 342 -261 361 -277 ct 380 -293 389 -316 389 -345 ct 
p ef
926 -133 m  926 -89 909 -54 874 -30 ct 839 -5 790 7 727 7 ct 609 7 541 -34 522 -116 ct 
585 -129 l  593 -99 608 -78 632 -65 ct 656 -51 688 -44 729 -44 ct 771 -44 804 -51 827 -66 ct 
850 -80 861 -102 861 -130 ct 861 -146 858 -158 850 -168 ct 843 -178 833 -186 820 -193 ct 
807 -199 792 -204 773 -209 ct 755 -213 735 -218 713 -223 ct 675 -231 646 -240 627 -248 ct 
607 -257 591 -266 580 -277 ct 568 -287 560 -299 554 -313 ct 548 -327 545 -343 545 -361 ct 
545 -402 560 -434 592 -457 ct 624 -479 669 -490 728 -490 ct 783 -490 825 -482 854 -465 ct 
883 -448 903 -420 915 -379 ct 850 -368 l  843 -394 830 -412 810 -424 ct 790 -435 762 -441 727 -441 ct 
689 -441 659 -435 639 -422 ct 618 -409 608 -390 608 -365 ct 608 -350 612 -337 620 -328 ct 
628 -318 639 -310 654 -303 ct 669 -296 699 -288 743 -278 ct 758 -275 773 -271 787 -268 ct 
802 -264 816 -260 830 -255 ct 843 -250 856 -244 868 -238 ct 879 -231 890 -223 898 -213 ct 
907 -204 914 -192 919 -179 ct 924 -166 926 -151 926 -133 ct p ef
1247 -109 m  1247 1 l  1189 1 l  1189 -109 l  961 -109 l  961 -157 l  1182 -483 l 
1247 -483 l  1247 -158 l  1315 -158 l  1315 -109 l  1247 -109 l  p
1189 -413 m  1188 -412 1185 -406 1179 -395 ct 1173 -384 1169 -377 1166 -373 ct 
1042 -190 l  1024 -165 l  1018 -158 l  1189 -158 l  1189 -413 l  p ef
1681 -135 m  1681 -90 1667 -55 1638 -30 ct 1610 -5 1569 7 1516 7 ct 1465 7 1424 -5 1395 -30 ct 
1366 -54 1352 -89 1352 -134 ct 1352 -166 1361 -192 1379 -214 ct 1397 -235 1420 -248 1448 -253 ct 
1448 -254 l  1422 -260 1401 -274 1386 -294 ct 1370 -315 1363 -339 1363 -366 ct 
1363 -403 1377 -433 1404 -456 ct 1432 -479 1469 -490 1515 -490 ct 1563 -490 1600 -479 1628 -456 ct 
1655 -434 1669 -404 1669 -366 ct 1669 -338 1661 -314 1646 -293 ct 1631 -273 1610 -260 1583 -255 ct 
1583 -253 l  1614 -248 1638 -235 1655 -214 ct 1672 -193 1681 -166 1681 -135 ct 
p
1605 -362 m  1605 -417 1575 -444 1515 -444 ct 1486 -444 1464 -437 1449 -423 ct 
1433 -410 1426 -389 1426 -362 ct 1426 -335 1434 -314 1449 -299 ct 1465 -285 1487 -277 1516 -277 ct 
1545 -277 1567 -284 1582 -297 ct 1597 -311 1605 -332 1605 -362 ct p
1617 -140 m  1617 -170 1608 -193 1590 -208 ct 1572 -223 1547 -231 1515 -231 ct 
1484 -231 1459 -223 1442 -206 ct 1424 -190 1415 -168 1415 -139 ct 1415 -73 1449 -39 1517 -39 ct 
1551 -39 1576 -47 1592 -63 ct 1609 -80 1617 -105 1617 -140 ct p ef
2058 -157 m  2058 -106 2043 -66 2013 -37 ct 1982 -8 1940 7 1887 7 ct 1842 7 1805 -3 1778 -23 ct 
1750 -42 1732 -71 1725 -108 ct 1788 -115 l  1801 -67 1834 -43 1888 -43 ct 1921 -43 1947 -53 1966 -73 ct 
1984 -93 1994 -121 1994 -156 ct 1994 -186 1984 -211 1966 -230 ct 1947 -249 1921 -258 1889 -258 ct 
1873 -258 1857 -255 1843 -250 ct 1828 -245 1814 -236 1799 -223 ct 1739 -223 l 
1755 -483 l  2030 -483 l  2030 -431 l  1811 -431 l  1802 -278 l  1829 -298 1862 -308 1902 -308 ct 
1950 -308 1987 -294 2016 -267 ct 2044 -239 2058 -202 2058 -157 ct p ef
pom
gr
gs
1072 1105 m 30771 1105 l 30771 22104 l 1072 22104 l 1072 1105 l eoclip newpath
gr
gr
0 21000 t 
pom
count op_count sub {pop} repeat countdictstack dict_count sub {end} repeat b4_inc_state restore
%%PageTrailer
%%Trailer
%%EOF
