%!PS-Adobe-3.0 EPSF-3.0
%%Creator: cairo 1.16.0 (https://cairographics.org)
%%CreationDate: Tue Dec 17 23:03:59 2019
%%Pages: 1
%%DocumentData: Clean7Bit
%%LanguageLevel: 2
%%BoundingBox: 7 6 162 143
%%EndComments
%%BeginProlog
50 dict begin
/q { gsave } bind def
/Q { grestore } bind def
/cm { 6 array astore concat } bind def
/w { setlinewidth } bind def
/J { setlinecap } bind def
/j { setlinejoin } bind def
/M { setmiterlimit } bind def
/d { setdash } bind def
/m { moveto } bind def
/l { lineto } bind def
/c { curveto } bind def
/h { closepath } bind def
/re { exch dup neg 3 1 roll 5 3 roll moveto 0 rlineto
      0 exch rlineto 0 rlineto closepath } bind def
/S { stroke } bind def
/f { fill } bind def
/f* { eofill } bind def
/n { newpath } bind def
/W { clip } bind def
/W* { eoclip } bind def
/BT { } bind def
/ET { } bind def
/BDC { mark 3 1 roll /BDC pdfmark } bind def
/EMC { mark /EMC pdfmark } bind def
/cairo_store_point { /cairo_point_y exch def /cairo_point_x exch def } def
/Tj { show currentpoint cairo_store_point } bind def
/TJ {
  {
    dup
    type /stringtype eq
    { show } { -0.001 mul 0 cairo_font_matrix dtransform rmoveto } ifelse
  } forall
  currentpoint cairo_store_point
} bind def
/cairo_selectfont { cairo_font_matrix aload pop pop pop 0 0 6 array astore
    cairo_font exch selectfont cairo_point_x cairo_point_y moveto } bind def
/Tf { pop /cairo_font exch def /cairo_font_matrix where
      { pop cairo_selectfont } if } bind def
/Td { matrix translate cairo_font_matrix matrix concatmatrix dup
      /cairo_font_matrix exch def dup 4 get exch 5 get cairo_store_point
      /cairo_font where { pop cairo_selectfont } if } bind def
/Tm { 2 copy 8 2 roll 6 array astore /cairo_font_matrix exch def
      cairo_store_point /cairo_font where { pop cairo_selectfont } if } bind def
/g { setgray } bind def
/rg { setrgbcolor } bind def
/d1 { setcachedevice } bind def
/cairo_data_source {
  CairoDataIndex CairoData length lt
    { CairoData CairoDataIndex get /CairoDataIndex CairoDataIndex 1 add def }
    { () } ifelse
} def
/cairo_flush_ascii85_file { cairo_ascii85_file status { cairo_ascii85_file flushfile } if } def
/cairo_image { image cairo_flush_ascii85_file } def
/cairo_imagemask { imagemask cairo_flush_ascii85_file } def
%%EndProlog
%%BeginSetup
%%EndSetup
%%Page: 1 1
%%BeginPageSetup
%%PageBoundingBox: 7 6 162 143
%%EndPageSetup
q 7 6 155 137 rectclip
1 0 0 -1 0 149 cm q
1 0.772549 0.2 rg
48.238 37.992 m 48.238 33.836 42 33.836 42 37.992 c 42 42.148 48.238 42.148
 48.238 37.992 c f*
48.238 30.793 m 48.238 26.637 42 26.637 42 30.793 c 42 34.949 48.238 34.949
 48.238 30.793 c f*
33.836 37.992 m 33.836 33.836 27.602 33.836 27.602 37.992 c 27.602 42.148
 33.836 42.148 33.836 37.992 c f*
33.836 30.793 m 33.836 26.637 27.602 26.637 27.602 30.793 c 27.602 34.949
 33.836 34.949 33.836 30.793 c f*
71.086 56.758 5.668 5.668 re f*
76.754 66.793 m 76.754 63.012 71.086 63.012 71.086 66.793 c 71.086 70.57
 76.754 70.57 76.754 66.793 c f*
76.754 73.992 m 76.754 70.215 71.086 70.215 71.086 73.992 c 71.086 77.773
 76.754 77.773 76.754 73.992 c f*
76.754 81.191 m 76.754 77.414 71.086 77.414 71.086 81.191 c 71.086 84.973
 76.754 84.973 76.754 81.191 c f*
76.754 88.391 m 76.754 84.613 71.086 84.613 71.086 88.391 c 71.086 92.172
 76.754 92.172 76.754 88.391 c f*
76.754 95.594 m 76.754 91.813 71.086 91.813 71.086 95.594 c 71.086 99.371
 76.754 99.371 76.754 95.594 c f*
76.754 102.793 m 76.754 99.012 71.086 99.012 71.086 102.793 c 71.086 106.57
 76.754 106.57 76.754 102.793 c f*
98.355 102.793 m 98.355 99.012 92.684 99.012 92.684 102.793 c 92.684 106.57
 98.355 106.57 98.355 102.793 c f*
98.355 95.594 m 98.355 91.813 92.684 91.813 92.684 95.594 c 92.684 99.371
 98.355 99.371 98.355 95.594 c f*
98.355 88.391 m 98.355 84.613 92.684 84.613 92.684 88.391 c 92.684 92.172
 98.355 92.172 98.355 88.391 c f*
98.355 81.191 m 98.355 77.414 92.684 77.414 92.684 81.191 c 92.684 84.973
 98.355 84.973 98.355 81.191 c f*
98.355 73.992 m 98.355 70.215 92.684 70.215 92.684 73.992 c 92.684 77.773
 98.355 77.773 98.355 73.992 c f*
98.355 66.793 m 98.355 63.012 92.684 63.012 92.684 66.793 c 92.684 70.57
 98.355 70.57 98.355 66.793 c f*
98.355 59.594 m 98.355 55.813 92.684 55.813 92.684 59.594 c 92.684 63.371
 98.355 63.371 98.355 59.594 c f*
34.121 66.793 m 34.121 62.258 27.316 62.258 27.316 66.793 c 27.316 71.328
 34.121 71.328 34.121 66.793 c f*
70.121 66.793 m 70.121 62.258 63.316 62.258 63.316 66.793 c 63.316 71.328
 70.121 71.328 70.121 66.793 c f*
34.121 59.594 m 34.121 55.059 27.316 55.059 27.316 59.594 c 27.316 64.129
 34.121 64.129 34.121 59.594 c f*
70.121 59.594 m 70.121 55.059 63.316 55.059 63.316 59.594 c 63.316 64.129
 70.121 64.129 70.121 59.594 c f*
34.121 102.793 m 34.121 98.258 27.316 98.258 27.316 102.793 c 27.316 107.328
 34.121 107.328 34.121 102.793 c f*
70.121 102.793 m 70.121 98.258 63.316 98.258 63.316 102.793 c 63.316 107.328
 70.121 107.328 70.121 102.793 c f*
106.121 102.793 m 106.121 98.258 99.316 98.258 99.316 102.793 c 99.316 
107.328 106.121 107.328 106.121 102.793 c f*
106.121 138.793 m 106.121 134.258 99.316 134.258 99.316 138.793 c 99.316
 143.328 106.121 143.328 106.121 138.793 c f*
106.121 23.594 m 106.121 19.059 99.316 19.059 99.316 23.594 c 99.316 28.129
 106.121 28.129 106.121 23.594 c f*
106.121 59.594 m 106.121 55.059 99.316 55.059 99.316 59.594 c 99.316 64.129
 106.121 64.129 106.121 59.594 c f*
19.719 73.992 m 19.719 69.457 12.918 69.457 12.918 73.992 c 12.918 78.527
 19.719 78.527 19.719 73.992 c f*
55.719 73.992 m 55.719 69.457 48.918 69.457 48.918 73.992 c 48.918 78.527
 55.719 78.527 55.719 73.992 c f*
26.922 88.391 m 26.922 83.855 20.117 83.855 20.117 88.391 c 20.117 92.93
 26.922 92.93 26.922 88.391 c f*
62.922 88.391 m 62.922 83.855 56.117 83.855 56.117 88.391 c 56.117 92.93
 62.922 92.93 62.922 88.391 c f*
113.32 88.391 m 113.32 83.855 106.516 83.855 106.516 88.391 c 106.516 92.93
 113.32 92.93 113.32 88.391 c f*
149.32 88.391 m 149.32 83.855 142.516 83.855 142.516 88.391 c 142.516 92.93
 149.32 92.93 149.32 88.391 c f*
113.32 73.992 m 113.32 69.457 106.516 69.457 106.516 73.992 c 106.516 78.527
 113.32 78.527 113.32 73.992 c f*
149.32 73.992 m 149.32 69.457 142.516 69.457 142.516 73.992 c 142.516 78.527
 149.32 78.527 149.32 73.992 c f*
134.371 24.289 m 134.371 20.133 128.133 20.133 128.133 24.289 c 128.133
 28.445 134.371 28.445 134.371 24.289 c f*
134.371 31.488 m 134.371 27.332 128.133 27.332 128.133 31.488 c 128.133
 35.645 134.371 35.645 134.371 31.488 c f*
105.836 9.191 m 105.836 5.035 99.602 5.035 99.602 9.191 c 99.602 13.352
 105.836 13.352 105.836 9.191 c f*
105.836 16.391 m 105.836 12.234 99.602 12.234 99.602 16.391 c 99.602 20.551
 105.836 20.551 105.836 16.391 c f*
98.922 45.191 m 98.922 40.656 92.117 40.656 92.117 45.191 c 92.117 49.727
 98.922 49.727 98.922 45.191 c f*
77.32 45.191 m 77.32 40.656 70.516 40.656 70.516 45.191 c 70.516 49.727
 77.32 49.727 77.32 45.191 c f*
120.52 30.793 m 120.52 26.258 113.719 26.258 113.719 30.793 c 113.719 35.328
 120.52 35.328 120.52 30.793 c f*
120.52 66.793 m 120.52 62.258 113.719 62.258 113.719 66.793 c 113.719 71.328
 120.52 71.328 120.52 66.793 c f*
13.313 56.586 6.012 6.012 re f*
19.324 66.793 m 19.324 62.785 13.313 62.785 13.313 66.793 c 13.313 70.797
 19.324 70.797 19.324 66.793 c f*
0.811765 0.0980392 0.4 rg
47.387 37.992 m 47.387 34.969 42.852 34.969 42.852 37.992 c 42.852 41.016
 47.387 41.016 47.387 37.992 c f*
47.387 30.793 m 47.387 27.77 42.852 27.77 42.852 30.793 c 42.852 33.816
 47.387 33.816 47.387 30.793 c f*
32.988 37.992 m 32.988 34.969 28.453 34.969 28.453 37.992 c 28.453 41.016
 32.988 41.016 32.988 37.992 c f*
32.988 30.793 m 32.988 27.77 28.453 27.77 28.453 30.793 c 28.453 33.816
 32.988 33.816 32.988 30.793 c f*
71.934 57.609 3.969 3.969 re f*
75.902 66.793 m 75.902 64.148 71.934 64.148 71.934 66.793 c 71.934 69.438
 75.902 69.438 75.902 66.793 c f*
75.902 73.992 m 75.902 71.348 71.934 71.348 71.934 73.992 c 71.934 76.637
 75.902 76.637 75.902 73.992 c f*
75.902 81.191 m 75.902 78.547 71.934 78.547 71.934 81.191 c 71.934 83.84
 75.902 83.84 75.902 81.191 c f*
75.902 88.391 m 75.902 85.746 71.934 85.746 71.934 88.391 c 71.934 91.039
 75.902 91.039 75.902 88.391 c f*
75.902 95.594 m 75.902 92.945 71.934 92.945 71.934 95.594 c 71.934 98.238
 75.902 98.238 75.902 95.594 c f*
75.902 102.793 m 75.902 100.148 71.934 100.148 71.934 102.793 c 71.934 
105.438 75.902 105.438 75.902 102.793 c f*
97.504 102.793 m 97.504 100.148 93.535 100.148 93.535 102.793 c 93.535 
105.438 97.504 105.438 97.504 102.793 c f*
97.504 95.594 m 97.504 92.945 93.535 92.945 93.535 95.594 c 93.535 98.238
 97.504 98.238 97.504 95.594 c f*
97.504 88.391 m 97.504 85.746 93.535 85.746 93.535 88.391 c 93.535 91.039
 97.504 91.039 97.504 88.391 c f*
97.504 81.191 m 97.504 78.547 93.535 78.547 93.535 81.191 c 93.535 83.84
 97.504 83.84 97.504 81.191 c f*
97.504 73.992 m 97.504 71.348 93.535 71.348 93.535 73.992 c 93.535 76.637
 97.504 76.637 97.504 73.992 c f*
97.504 66.793 m 97.504 64.148 93.535 64.148 93.535 66.793 c 93.535 69.438
 97.504 69.438 97.504 66.793 c f*
97.504 59.594 m 97.504 56.945 93.535 56.945 93.535 59.594 c 93.535 62.238
 97.504 62.238 97.504 59.594 c f*
2.834647 w
1 J
0 j
[] 0.0 d
10 M q 1 0 0 -1 0 0 cm
73.918 -59.594 m 66.719 -59.594 l S Q
q 1 0 0 -1 0 0 cm
73.918 -66.793 m 66.719 -66.793 l S Q
33.27 66.793 m 33.27 63.391 28.168 63.391 28.168 66.793 c 28.168 70.195
 33.27 70.195 33.27 66.793 c f*
69.27 66.793 m 69.27 63.391 64.168 63.391 64.168 66.793 c 64.168 70.195
 69.27 70.195 69.27 66.793 c f*
33.27 59.594 m 33.27 56.191 28.168 56.191 28.168 59.594 c 28.168 62.992
 33.27 62.992 33.27 59.594 c f*
69.27 59.594 m 69.27 56.191 64.168 56.191 64.168 59.594 c 64.168 62.992
 69.27 62.992 69.27 59.594 c f*
33.27 102.793 m 33.27 99.391 28.168 99.391 28.168 102.793 c 28.168 106.195
 33.27 106.195 33.27 102.793 c f*
69.27 102.793 m 69.27 99.391 64.168 99.391 64.168 102.793 c 64.168 106.195
 69.27 106.195 69.27 102.793 c f*
105.27 102.793 m 105.27 99.391 100.168 99.391 100.168 102.793 c 100.168
 106.195 105.27 106.195 105.27 102.793 c f*
105.27 138.793 m 105.27 135.391 100.168 135.391 100.168 138.793 c 100.168
 142.195 105.27 142.195 105.27 138.793 c f*
105.27 23.594 m 105.27 20.191 100.168 20.191 100.168 23.594 c 100.168 26.992
 105.27 26.992 105.27 23.594 c f*
105.27 59.594 m 105.27 56.191 100.168 56.191 100.168 59.594 c 100.168 62.992
 105.27 62.992 105.27 59.594 c f*
q 1 0 0 -1 0 0 cm
95.52 -59.594 m 102.719 -59.594 l S Q
q 1 0 0 -1 0 0 cm
95.52 -102.793 m 102.719 -102.793 l S Q
q 1 0 0 -1 0 0 cm
66.719 -102.793 m 73.918 -102.793 l S Q
18.871 73.992 m 18.871 70.59 13.77 70.59 13.77 73.992 c 13.77 77.395 18.871
 77.395 18.871 73.992 c f*
54.871 73.992 m 54.871 70.59 49.77 70.59 49.77 73.992 c 49.77 77.395 54.871
 77.395 54.871 73.992 c f*
26.07 88.391 m 26.07 84.992 20.969 84.992 20.969 88.391 c 20.969 91.793
 26.07 91.793 26.07 88.391 c f*
62.07 88.391 m 62.07 84.992 56.969 84.992 56.969 88.391 c 56.969 91.793
 62.07 91.793 62.07 88.391 c f*
112.469 88.391 m 112.469 84.992 107.367 84.992 107.367 88.391 c 107.367
 91.793 112.469 91.793 112.469 88.391 c f*
148.469 88.391 m 148.469 84.992 143.367 84.992 143.367 88.391 c 143.367
 91.793 148.469 91.793 148.469 88.391 c f*
112.469 73.992 m 112.469 70.59 107.367 70.59 107.367 73.992 c 107.367 77.395
 112.469 77.395 112.469 73.992 c f*
148.469 73.992 m 148.469 70.59 143.367 70.59 143.367 73.992 c 143.367 77.395
 148.469 77.395 148.469 73.992 c f*
q 1 0 0 -1 0 0 cm
73.918 -73.992 m 52.32 -73.992 l S Q
q 1 0 0 -1 0 0 cm
95.52 -88.391 m 109.918 -88.391 l S Q
q 1 0 0 -1 0 0 cm
95.52 -73.992 m 109.918 -73.992 l S Q
q 1 0 0 -1 0 0 cm
73.918 -66.793 m 81.117 -66.793 l S Q
q 1 0 0 -1 0 0 cm
81.117 -66.793 m 81.117 -95.594 l S Q
q 1 0 0 -1 0 0 cm
81.117 -95.594 m 73.918 -95.594 l S Q
q 1 0 0 -1 0 0 cm
81.117 -95.594 m 88.32 -95.594 l S Q
q 1 0 0 -1 0 0 cm
81.117 -66.793 m 95.52 -66.793 l S Q
133.52 24.289 m 133.52 21.266 128.984 21.266 128.984 24.289 c 128.984 27.313
 133.52 27.313 133.52 24.289 c f*
133.52 31.488 m 133.52 28.465 128.984 28.465 128.984 31.488 c 128.984 34.512
 133.52 34.512 133.52 31.488 c f*
104.988 9.191 m 104.988 6.168 100.453 6.168 100.453 9.191 c 100.453 12.215
 104.988 12.215 104.988 9.191 c f*
104.988 16.391 m 104.988 13.367 100.453 13.367 100.453 16.391 c 100.453
 19.418 104.988 19.418 104.988 16.391 c f*
q 1 0 0 -1 0 0 cm
30.719 -59.594 m 30.719 -37.992 l S Q
q 1 0 0 -1 0 0 cm
30.719 -30.793 m 131.25 -31.488 l S Q
q 1 0 0 -1 0 0 cm
30.719 -66.793 m 16.32 -66.793 l S Q
q 1 0 0 -1 0 0 cm
16.32 -59.594 m 23.52 -45.191 l S Q
q 1 0 0 -1 0 0 cm
23.52 -45.191 m 23.52 -30.793 l S Q
q 1 0 0 -1 0 0 cm
23.52 -30.793 m 30.719 -30.793 l S Q
q 1 0 0 -1 0 0 cm
95.52 -66.793 m 109.918 -66.793 l S Q
q 1 0 0 -1 0 0 cm
109.918 -66.793 m 109.918 -45.191 l S Q
q 1 0 0 -1 0 0 cm
109.918 -45.191 m 95.52 -45.191 l S Q
98.07 45.191 m 98.07 41.789 92.969 41.789 92.969 45.191 c 92.969 48.594
 98.07 48.594 98.07 45.191 c f*
76.469 45.191 m 76.469 41.789 71.367 41.789 71.367 45.191 c 71.367 48.594
 76.469 48.594 76.469 45.191 c f*
q 1 0 0 -1 0 0 cm
73.918 -45.191 m 73.918 -30.793 l S Q
119.672 30.793 m 119.672 27.391 114.566 27.391 114.566 30.793 c 114.566
 34.195 119.672 34.195 119.672 30.793 c f*
119.672 66.793 m 119.672 63.391 114.566 63.391 114.566 66.793 c 114.566
 70.195 119.672 70.195 119.672 66.793 c f*
q 1 0 0 -1 0 0 cm
95.52 -81.191 m 117.117 -81.191 l S Q
q 1 0 0 -1 0 0 cm
117.117 -81.191 m 131.52 -66.793 l S Q
q 1 0 0 -1 0 0 cm
131.52 -66.793 m 131.25 -31.488 l S Q
q 1 0 0 -1 0 0 cm
81.117 -95.594 m 95.52 -95.594 l S Q
14.164 57.438 4.309 4.309 re f*
18.473 66.793 m 18.473 63.922 14.164 63.922 14.164 66.793 c 14.164 69.664
 18.473 69.664 18.473 66.793 c f*
q 1 0 0 -1 0 0 cm
16.32 -73.992 m 16.32 -66.793 l S Q
q 1 0 0 -1 0 0 cm
59.52 -88.391 m 73.918 -88.391 l S Q
q 1 0 0 -1 0 0 cm
23.52 -88.391 m 37.918 -88.391 l S Q
q 1 0 0 -1 0 0 cm
37.918 -88.391 m 52.32 -73.992 l S Q
q 1 0 0 -1 0 0 cm
45.117 -37.992 m 45.117 -66.793 l S Q
q 1 0 0 -1 0 0 cm
45.117 -66.793 m 30.719 -81.191 l S Q
q 1 0 0 -1 0 0 cm
30.719 -81.191 m 16.32 -81.191 l S Q
q 1 0 0 -1 0 0 cm
16.32 -81.191 m 16.32 -95.594 l S Q
q 1 0 0 -1 0 0 cm
16.32 -95.594 m 23.52 -95.594 l S Q
q 1 0 0 -1 0 0 cm
23.52 -95.594 m 30.719 -102.793 l S Q
q 1 0 0 -1 0 0 cm
59.52 -88.391 m 52.32 -95.594 l S Q
q 1 0 0 -1 0 0 cm
52.32 -95.594 m 52.32 -109.992 l S Q
q 1 0 0 -1 0 0 cm
52.32 -109.992 m 153.117 -109.992 l S Q
q 1 0 0 -1 0 0 cm
153.117 -109.992 m 153.117 -88.391 l S Q
q 1 0 0 -1 0 0 cm
153.117 -88.391 m 145.918 -88.391 l S Q
q 1 0 0 -1 0 0 cm
109.918 -88.391 m 117.117 -88.391 l S Q
q 1 0 0 -1 0 0 cm
117.117 -88.391 m 117.117 -102.793 l S Q
q 1 0 0 -1 0 0 cm
117.117 -102.793 m 145.918 -102.793 l S Q
q 1 0 0 -1 0 0 cm
145.918 -102.793 m 145.918 -95.594 l S Q
q 1 0 0 -1 0 0 cm
145.918 -95.594 m 133.332 -95.594 l S Q
q 1 0 0 -1 0 0 cm
133.332 -95.594 m 133.305 -85.699 l S Q
q 1 0 0 -1 0 0 cm
133.305 -85.699 m 138.719 -81.191 l S Q
q 1 0 0 -1 0 0 cm
138.719 -81.191 m 145.918 -73.992 l S Q
q 1 0 0 -1 0 0 cm
109.918 -73.992 m 117.117 -73.992 l S Q
q 1 0 0 -1 0 0 cm
117.117 -73.992 m 117.117 -66.793 l S Q
q 1 0 0 -1 0 0 cm
102.719 -16.391 m 102.719 -22.629 l S Q
q 1 0 0 -1 0 0 cm
102.719 -22.629 m 102.988 -22.895 l S Q
q 1 0 0 -1 0 0 cm
102.719 -9.191 m 88.32 -9.191 l S Q
q 1 0 0 -1 0 0 cm
88.32 -9.191 m 88.32 -30.793 l S Q
q 1 0 0 -1 0 0 cm
73.918 -81.191 m 52.32 -81.191 l S Q
q 1 0 0 -1 0 0 cm
52.32 -81.191 m 37.918 -95.594 l S Q
q 1 0 0 -1 0 0 cm
37.918 -95.594 m 37.918 -109.992 l S Q
q 1 0 0 -1 0 0 cm
37.918 -109.992 m 9.117 -109.992 l S Q
q 1 0 0 -1 0 0 cm
9.117 -109.992 m 9.117 -66.793 l S Q
q 1 0 0 -1 0 0 cm
9.117 -66.793 m 16.32 -66.793 l S Q
q 1 0 0 -1 0 0 cm
131.52 -23.594 m 160.32 -23.594 l S Q
q 1 0 0 -1 0 0 cm
160.32 -23.594 m 160.32 -117.191 l S Q
q 1 0 0 -1 0 0 cm
160.32 -117.191 m 109.918 -117.191 l S Q
q 1 0 0 -1 0 0 cm
109.918 -117.191 m 109.918 -138.793 l S Q
q 1 0 0 -1 0 0 cm
109.918 -138.793 m 102.719 -138.793 l S Q
Q Q
showpage
%%Trailer
end
%%EOF
